%!PS-Adobe-2.0 EPSF-2.0
%%BoundingBox:  0 0 322 737
%%Title: : c
%%Creator: ROOT Version 6.04/14
%%CreationDate: Sun Aug 26 13:38:53 2018
%%DocumentNeededResources: ProcSet (FontSetInit)
%%EndComments
%%BeginProlog
80 dict begin
/s {stroke} def /l {lineto} def /m {moveto} def /t {translate} def
/r {rotate} def /rl {roll}  def /R {repeat} def
/d {rlineto} def /rm {rmoveto} def /gr {grestore} def /f {eofill} def
/c {setrgbcolor} def /black {0 setgray} def /sd {setdash} def
/cl {closepath} def /sf {scalefont setfont} def /lw {setlinewidth} def
/box {m dup 0 exch d exch 0 d 0 exch neg d cl} def
/NC{systemdict begin initclip end}def/C{NC box clip newpath}def
/bl {box s} def /bf {gsave box gsave f grestore 1 lw [] 0 sd s grestore} def /Y { 0 exch d} def /X { 0 d} def 
/K {{pop pop 0 moveto} exch kshow} bind def
/ita {/ang 15 def gsave [1 0 ang dup sin exch cos div 1 0 0] concat} def 
/mp {newpath /y exch def /x exch def} def
/side {[w .77 mul w .23 mul] .385 w mul sd w 0 l currentpoint t -144 r} def
/mr {mp x y w2 0 360 arc} def /m24 {mr s} def /m20 {mr f} def
/mb {mp x y w2 add m w2 neg 0 d 0 w neg d w 0 d 0 w d cl} def
/mt {mp x y w2 add m w2 neg w neg d w 0 d cl} def
/m21 {mb f} def /m25 {mb s} def /m22 {mt f} def /m26{mt s} def
/m23 {mp x y w2 sub m w2 w d w neg 0 d cl f} def
/m27 {mp x y w2 add m w3 neg w2 neg d w3 w2 neg d w3 w2 d cl s} def
/m28 {mp x w2 sub y w2 sub w3 add m w3 0 d  0 w3 neg d w3 0 d 0 w3 d w3 0 d  0 w3 d w3 neg 0 d 0 w3 d w3 neg 0 d 0 w3 neg d w3 neg 0 d cl s } def
/m29 {mp gsave x w2 sub y w2 add w3 sub m currentpoint t 4 {side} repeat cl fill gr} def
/m30 {mp gsave x w2 sub y w2 add w3 sub m currentpoint t 4 {side} repeat cl s gr} def
/m31 {mp x y w2 sub m 0 w d x w2 sub y m w 0 d x w2 sub y w2 add m w w neg d x w2 sub y w2 sub m w w d s} def
/m32 {mp x y w2 sub m w2 w d w neg 0 d cl s} def
/m33 {mp x y w2 add m w3 neg w2 neg d w3 w2 neg d w3 w2 d cl f} def
/m34 {mp x w2 sub y w2 sub w3 add m w3 0 d  0 w3 neg d w3 0 d 0 w3 d w3 0 d  0 w3 d w3 neg 0 d 0 w3 d w3 neg 0 d 0 w3 neg d w3 neg 0 d cl f } def
/m2 {mp x y w2 sub m 0 w d x w2 sub y m w 0 d s} def
/m5 {mp x w2 sub y w2 sub m w w d x w2 sub y w2 add m w w neg d s} def
%%IncludeResource: ProcSet (FontSetInit)
%%IncludeResource: font Times-Roman
%%IncludeResource: font Times-Italic
%%IncludeResource: font Times-Bold
%%IncludeResource: font Times-BoldItalic
%%IncludeResource: font Helvetica
%%IncludeResource: font Helvetica-Oblique
%%IncludeResource: font Helvetica-Bold
%%IncludeResource: font Helvetica-BoldOblique
%%IncludeResource: font Courier
%%IncludeResource: font Courier-Oblique
%%IncludeResource: font Courier-Bold
%%IncludeResource: font Courier-BoldOblique
%%IncludeResource: font Symbol
%%IncludeResource: font ZapfDingbats
/reEncode {exch findfont dup length dict begin {1 index /FID eq  {pop pop} {def} ifelse } forall /Encoding exch def currentdict end dup /FontName get exch definefont pop } def [/Times-Bold /Times-Italic /Times-BoldItalic /Helvetica /Helvetica-Oblique
 /Helvetica-Bold /Helvetica-BoldOblique /Courier /Courier-Oblique /Courier-Bold /Courier-BoldOblique /Times-Roman /AvantGarde-Book /AvantGarde-BookOblique /AvantGarde-Demi /AvantGarde-DemiOblique /Bookman-Demi /Bookman-DemiItalic /Bookman-Light
 /Bookman-LightItalic /Helvetica-Narrow /Helvetica-Narrow-Bold /Helvetica-Narrow-BoldOblique /Helvetica-Narrow-Oblique /NewCenturySchlbk-Roman /NewCenturySchlbk-Bold /NewCenturySchlbk-BoldItalic /NewCenturySchlbk-Italic /Palatino-Bold
 /Palatino-BoldItalic /Palatino-Italic /Palatino-Roman ] {ISOLatin1Encoding reEncode } forall
%%EndProlog
%%BeginSetup
%%EndSetup
newpath  gsave  .25 .25 scale  gsave  0 0 t black[  ] 0 sd 3 lw 1 1 1 c 1288 2948 0 0 bf black 1 1 1 c 596 2804 48 64 bf black 596 2804 48 64 bl 1 1 1 c 596 2804 48 64 bf black 596 2804 48 64 bl 1 1 1 c black 3 lw 48 64 m 596 X s 141 105 m -41 Y s
 161 84 m -20 Y s 182 84 m -20 Y s 202 84 m -20 Y s 223 84 m -20 Y s 243 105 m -41 Y s 264 84 m -20 Y s 285 84 m -20 Y s 305 84 m -20 Y s 326 84 m -20 Y s 346 105 m -41 Y s 367 84 m -20 Y s 387 84 m -20 Y s 408 84 m -20 Y s 428 84 m -20 Y s 449 105 m
 -41 Y s 469 84 m -20 Y s 490 84 m -20 Y s 510 84 m -20 Y s 531 84 m -20 Y s 552 105 m -41 Y s 141 105 m -41 Y s 120 84 m -20 Y s 100 84 m -20 Y s 79 84 m -20 Y s 59 84 m -20 Y s 552 105 m -41 Y s 572 84 m -20 Y s 593 84 m -20 Y s 613 84 m -20 Y s
 634 84 m -20 Y s
 gsave  1288 2948 0 0 C 137.532 25.8883 t 0 r /Helvetica findfont 29.1243 sf 0 0 m (2) show NC gr 
 gsave  1288 2948 0 0 C 122.969 25.8883 t 0 r /Symbol findfont 29.1243 sf 0 0 m (-) show NC gr 
 gsave  1288 2948 0 0 C 244.321 25.8883 t 0 r /Helvetica findfont 29.1243 sf 0 0 m (1) show NC gr 
 gsave  1288 2948 0 0 C 228.141 25.8883 t 0 r /Symbol findfont 29.1243 sf 0 0 m (-) show NC gr 
 gsave  1288 2948 0 0 C 336.548 25.8883 t 0 r /Helvetica findfont 29.1243 sf 0 0 m (0) show NC gr 
 gsave  1288 2948 0 0 C 441.719 25.8883 t 0 r /Helvetica findfont 29.1243 sf 0 0 m (1) show NC gr 
 gsave  1288 2948 0 0 C 542.036 25.8883 t 0 r /Helvetica findfont 29.1243 sf 0 0 m (2) show NC gr  48 2868 m 596 X s 141 2827 m 41 Y s 161 2848 m 20 Y s 182 2848 m 20 Y s 202 2848 m 20 Y s 223 2848 m 20 Y s 243 2827 m 41 Y s 264 2848 m 20 Y s 285
 2848 m 20 Y s 305 2848 m 20 Y s 326 2848 m 20 Y s 346 2827 m 41 Y s 367 2848 m 20 Y s 387 2848 m 20 Y s 408 2848 m 20 Y s 428 2848 m 20 Y s 449 2827 m 41 Y s 469 2848 m 20 Y s 490 2848 m 20 Y s 510 2848 m 20 Y s 531 2848 m 20 Y s 552 2827 m 41 Y s
 141 2827 m 41 Y s 120 2848 m 20 Y s 100 2848 m 20 Y s 79 2848 m 20 Y s 59 2848 m 20 Y s 552 2827 m 41 Y s 572 2848 m 20 Y s 593 2848 m 20 Y s 613 2848 m 20 Y s 634 2848 m 20 Y s 48 64 m 2804 Y s 1 1 0 c 411 2804 141 64 bf black 0 1 0 c 206 2804 243
 64 bf black[ 20 20] 0 sd 346 64 m 2804 Y s[  ] 0 sd 349 2846 m -69 X s 280 2846 m cl s 362 2846 m 69 X s 431 2846 m cl s 331 2814 m -92 X s 239 2814 m cl s 344 2814 m 93 X s 437 2814 m cl s 337 2782 m -95 X s 242 2782 m cl s 349 2782 m 95 X s 444
 2782 m cl s 340 2750 m -95 X s 245 2750 m cl s 353 2750 m 96 X s 449 2750 m cl s 327 2719 m -94 X s 233 2719 m cl s 340 2719 m 94 X s 434 2719 m cl s 338 2687 m -96 X s 242 2687 m cl s 351 2687 m 95 X s 446 2687 m cl s 345 2655 m -95 X s 250 2655 m
 cl s 358 2655 m 95 X s 453 2655 m cl s 338 2623 m -95 X s 243 2623 m cl s 351 2623 m 95 X s 446 2623 m cl s 332 2591 m -95 X s 237 2591 m cl s 345 2591 m 94 X s 439 2591 m cl s 340 2559 m -96 X s 244 2559 m cl s 353 2559 m 95 X s 448 2559 m cl s 351
 2527 m -96 X s 255 2527 m cl s 364 2527 m 95 X s 459 2527 m cl s 336 2495 m -95 X s 241 2495 m cl s 349 2495 m 96 X s 445 2495 m cl s 340 2400 m -96 X s 244 2400 m cl s 353 2400 m 95 X s 448 2400 m cl s 340 2368 m -96 X s 244 2368 m cl s 353 2368 m
 95 X s 448 2368 m cl s 340 2336 m -96 X s 244 2336 m cl s 353 2336 m 95 X s 448 2336 m cl s 340 2304 m -96 X s 244 2304 m cl s 353 2304 m 95 X s 448 2304 m cl s 340 2272 m -96 X s 244 2272 m cl s 353 2272 m 95 X s 448 2272 m cl s 340 2241 m -96 X s
 244 2241 m cl s 353 2241 m 95 X s 448 2241 m cl s 340 2209 m -96 X s 244 2209 m cl s 353 2209 m 95 X s 448 2209 m cl s 340 2177 m -96 X s 244 2177 m cl s 353 2177 m 95 X s 448 2177 m cl s 340 2145 m -96 X s 244 2145 m cl s 353 2145 m 95 X s 448 2145
 m cl s 340 2113 m -96 X s 244 2113 m cl s 353 2113 m 95 X s 448 2113 m cl s 340 2081 m -96 X s 244 2081 m cl s 353 2081 m 95 X s 448 2081 m cl s 335 2049 m -96 X s 239 2049 m cl s 348 2049 m 95 X s 443 2049 m cl s 320 1986 m -59 X s 261 1986 m cl s
 333 1986 m 59 X s 392 1986 m cl s 335 1954 m -84 X s 251 1954 m cl s 348 1954 m 84 X s 432 1954 m cl s 429 1922 m -91 X s 338 1922 m cl s 442 1922 m 90 X s 532 1922 m cl s 365 1890 m -86 X s 279 1890 m cl s 377 1890 m 86 X s 463 1890 m cl s 342 1858
 m -95 X s 247 1858 m cl s 355 1858 m 96 X s 451 1858 m cl s 336 1826 m -95 X s 241 1826 m cl s 349 1826 m 95 X s 444 1826 m cl s 339 1794 m -95 X s 244 1794 m cl s 352 1794 m 96 X s 448 1794 m cl s 330 1762 m -96 X s 234 1762 m cl s 343 1762 m 95 X
 s 438 1762 m cl s 339 1731 m -96 X s 243 1731 m cl s 352 1731 m 95 X s 447 1731 m cl s 343 1699 m -95 X s 248 1699 m cl s 356 1699 m 96 X s 452 1699 m cl s 338 1667 m -96 X s 242 1667 m cl s 351 1667 m 95 X s 446 1667 m cl s 341 1635 m -96 X s 245
 1635 m cl s 353 1635 m 96 X s 449 1635 m cl s 341 1603 m -96 X s 245 1603 m cl s 354 1603 m 95 X s 449 1603 m cl s 339 1571 m -96 X s 243 1571 m cl s 352 1571 m 95 X s 447 1571 m cl s 340 1539 m -96 X s 244 1539 m cl s 353 1539 m 95 X s 448 1539 m
 cl s 339 1507 m -95 X s 244 1507 m cl s 352 1507 m 96 X s 448 1507 m cl s 340 1476 m -96 X s 244 1476 m cl s 352 1476 m 96 X s 448 1476 m cl s 340 1444 m -95 X s 245 1444 m cl s 353 1444 m 96 X s 449 1444 m cl s 342 1412 m -96 X s 246 1412 m cl s
 355 1412 m 96 X s 451 1412 m cl s 340 1380 m -96 X s 244 1380 m cl s 353 1380 m 95 X s 448 1380 m cl s 174 1348 m -68 X s 106 1348 m cl s 187 1348 m 67 X s 254 1348 m cl s 409 1316 m -81 X s 328 1316 m cl s 422 1316 m 82 X s 504 1316 m cl s 265 1284
 m -86 X s 179 1284 m cl s 278 1284 m 86 X s 364 1284 m cl s 344 1253 m -93 X s 251 1253 m cl s 357 1253 m 93 X s 450 1253 m cl s 308 1221 m -84 X s 224 1221 m cl s 321 1221 m 84 X s 405 1221 m cl s 329 1189 m -93 X s 236 1189 m cl s 342 1189 m 92 X
 s 434 1189 m cl s 314 1157 m -94 X s 220 1157 m cl s 327 1157 m 93 X s 420 1157 m cl s 336 1125 m -95 X s 241 1125 m cl s 349 1125 m 96 X s 445 1125 m cl s 311 1093 m -94 X s 217 1093 m cl s 324 1093 m 94 X s 418 1093 m cl s 333 1061 m -95 X s 238
 1061 m cl s 346 1061 m 95 X s 441 1061 m cl s 356 1029 m -95 X s 261 1029 m cl s 369 1029 m 95 X s 464 1029 m cl s 339 998 m -96 X s 243 998 m cl s 352 998 m 95 X s 447 998 m cl s 337 966 m -96 X s 241 966 m cl s 350 966 m 95 X s 445 966 m cl s 340
 934 m -95 X s 245 934 m cl s 353 934 m 96 X s 449 934 m cl s 341 902 m -96 X s 245 902 m cl s 354 902 m 95 X s 449 902 m cl s 340 870 m -96 X s 244 870 m cl s 353 870 m 95 X s 448 870 m cl s 343 838 m -95 X s 248 838 m cl s 356 838 m 95 X s 451 838
 m cl s 340 806 m -96 X s 244 806 m cl s 353 806 m 95 X s 448 806 m cl s 340 774 m -96 X s 244 774 m cl s 352 774 m 96 X s 448 774 m cl s 339 743 m -95 X s 244 743 m cl s 352 743 m 96 X s 448 743 m cl s 340 711 m -96 X s 244 711 m cl s 353 711 m 95 X
 s 448 711 m cl s 340 583 m -96 X s 244 583 m cl s 353 583 m 95 X s 448 583 m cl s 340 551 m -96 X s 244 551 m cl s 353 551 m 95 X s 448 551 m cl s 340 519 m -96 X s 244 519 m cl s 353 519 m 95 X s 448 519 m cl s 339 456 m -95 X s 244 456 m cl s 352
 456 m 96 X s 448 456 m cl s 340 392 m -96 X s 244 392 m cl s 353 392 m 95 X s 448 392 m cl s 340 360 m -96 X s 244 360 m cl s 353 360 m 95 X s 448 360 m cl s 340 328 m -96 X s 244 328 m cl s 353 328 m 95 X s 448 328 m cl s 340 296 m -96 X s 244 296
 m cl s 353 296 m 95 X s 448 296 m cl s 340 265 m -96 X s 244 265 m cl s 353 265 m 95 X s 448 265 m cl s /w 16 def /w2 {w 2 div} def /w3 {w 3 div} def 355 2846 338 2814 343 2782 347 2750 333 2719 344 2687 352 2655 344 2623 338 2591 346 2559 357 2527
 343 2495 12 { m20} R 346 2400 346 2368 346 2336 346 2304 346 2272 346 2241 346 2209 346 2177 346 2145 346 2113 346 2081 341 2049 12 { m20} R 326 1986 341 1954 435 1922 371 1890 349 1858 343 1826 346 1794 336 1762 345 1731 350 1699 344 1667 347 1635
 347 1603 345 1571 346 1539 346 1507 346 1476 347 1444 348 1412 346 1380 180 1348 416 1316 271 1284 350 1253 315 1221 335 1189 320 1157 343 1125 318 1093 339 1061 362 1029 345 998 343 966 347 934 347 902 346 870 350 838 346 806 346 774 346 743 346
 711 41 { m20} R 346 583 346 551 346 519 3 { m20} R 346 456 m20 346 392 346 360 346 328 346 296 346 265 5 { m20} R 1 0 0 c 350 2852 m -63 X s 287 2852 m cl s 363 2852 m 63 X s 426 2852 m cl s 342 2821 m -92 X s 250 2821 m cl s 355 2821 m 93 X s 448
 2821 m cl s 341 2789 m -94 X s 247 2789 m cl s 354 2789 m 94 X s 448 2789 m cl s 336 2757 m -95 X s 241 2757 m cl s 349 2757 m 96 X s 445 2757 m cl s 317 2725 m -94 X s 223 2725 m cl s 330 2725 m 95 X s 425 2725 m cl s 347 2693 m -95 X s 252 2693 m
 cl s 360 2693 m 95 X s 455 2693 m cl s 353 2661 m -95 X s 258 2661 m cl s 366 2661 m 95 X s 461 2661 m cl s 330 2629 m -95 X s 235 2629 m cl s 343 2629 m 95 X s 438 2629 m cl s 323 2597 m -94 X s 229 2597 m cl s 336 2597 m 95 X s 431 2597 m cl s 340
 2566 m -96 X s 244 2566 m cl s 353 2566 m 95 X s 448 2566 m cl s 338 2534 m -95 X s 243 2534 m cl s 351 2534 m 95 X s 446 2534 m cl s 340 2502 m -96 X s 244 2502 m cl s 353 2502 m 95 X s 448 2502 m cl s 340 2470 m -96 X s 244 2470 m cl s 353 2470 m
 95 X s 448 2470 m cl s 340 2438 m -96 X s 244 2438 m cl s 353 2438 m 95 X s 448 2438 m cl s 340 2406 m -96 X s 244 2406 m cl s 353 2406 m 95 X s 448 2406 m cl s 340 2374 m -96 X s 244 2374 m cl s 353 2374 m 95 X s 448 2374 m cl s 340 2342 m -96 X s
 244 2342 m cl s 353 2342 m 95 X s 448 2342 m cl s 340 2311 m -96 X s 244 2311 m cl s 353 2311 m 95 X s 448 2311 m cl s 340 2279 m -96 X s 244 2279 m cl s 353 2279 m 95 X s 448 2279 m cl s 340 2247 m -96 X s 244 2247 m cl s 353 2247 m 95 X s 448 2247
 m cl s 340 2215 m -96 X s 244 2215 m cl s 353 2215 m 95 X s 448 2215 m cl s 340 2183 m -96 X s 244 2183 m cl s 353 2183 m 95 X s 448 2183 m cl s 340 2151 m -96 X s 244 2151 m cl s 353 2151 m 95 X s 448 2151 m cl s 340 2119 m -96 X s 244 2119 m cl s
 353 2119 m 95 X s 448 2119 m cl s 340 2088 m -96 X s 244 2088 m cl s 353 2088 m 95 X s 448 2088 m cl s 349 2056 m -95 X s 254 2056 m cl s 362 2056 m 95 X s 457 2056 m cl s 340 2024 m -96 X s 244 2024 m cl s 353 2024 m 95 X s 448 2024 m cl s 401 1992
 m -86 X s 315 1992 m cl s 414 1992 m 86 X s 500 1992 m cl s 427 1960 m -79 X s 348 1960 m cl s 440 1960 m 78 X s 518 1960 m cl s 273 1928 m -94 X s 179 1928 m cl s 286 1928 m 93 X s 379 1928 m cl s 326 1896 m -93 X s 233 1896 m cl s 339 1896 m 94 X
 s 433 1896 m cl s 335 1864 m -94 X s 241 1864 m cl s 348 1864 m 95 X s 443 1864 m cl s 352 1833 m -95 X s 257 1833 m cl s 365 1833 m 96 X s 461 1833 m cl s 345 1801 m -95 X s 250 1801 m cl s 358 1801 m 96 X s 454 1801 m cl s 340 1769 m -96 X s 244
 1769 m cl s 353 1769 m 95 X s 448 1769 m cl s 340 1737 m -96 X s 244 1737 m cl s 352 1737 m 96 X s 448 1737 m cl s 339 1705 m -96 X s 243 1705 m cl s 351 1705 m 96 X s 447 1705 m cl s 340 1673 m -96 X s 244 1673 m cl s 353 1673 m 95 X s 448 1673 m
 cl s 340 1641 m -96 X s 244 1641 m cl s 353 1641 m 95 X s 448 1641 m cl s 168 1355 m -71 X s 97 1355 m cl s 181 1355 m 72 X s 253 1355 m cl s 454 1323 m -83 X s 371 1323 m cl s 467 1323 m 84 X s 551 1323 m cl s 344 1291 m -89 X s 255 1291 m cl s 357
 1291 m 89 X s 446 1291 m cl s 362 1259 m -90 X s 272 1259 m cl s 375 1259 m 91 X s 466 1259 m cl s 354 1227 m -94 X s 260 1227 m cl s 367 1227 m 94 X s 461 1227 m cl s 420 1195 m -90 X s 330 1195 m cl s 433 1195 m 91 X s 524 1195 m cl s 273 1163 m
 -90 X s 183 1163 m cl s 286 1163 m 90 X s 376 1163 m cl s 369 1131 m -92 X s 277 1131 m cl s 382 1131 m 93 X s 475 1131 m cl s 305 1100 m -94 X s 211 1100 m cl s 318 1100 m 94 X s 412 1100 m cl s 337 1068 m -95 X s 242 1068 m cl s 350 1068 m 95 X s
 445 1068 m cl s 339 1036 m -96 X s 243 1036 m cl s 352 1036 m 95 X s 447 1036 m cl s 340 1004 m -96 X s 244 1004 m cl s 353 1004 m 95 X s 448 1004 m cl s 365 972 m -95 X s 270 972 m cl s 378 972 m 95 X s 473 972 m cl s 345 940 m -96 X s 249 940 m cl
 s 358 940 m 95 X s 453 940 m cl s 340 908 m -95 X s 245 908 m cl s 353 908 m 96 X s 449 908 m cl s 339 876 m -95 X s 244 876 m cl s 352 876 m 96 X s 448 876 m cl s 342 845 m -95 X s 247 845 m cl s 355 845 m 96 X s 451 845 m cl s 343 813 m -96 X s
 247 813 m cl s 356 813 m 95 X s 451 813 m cl s 340 781 m -96 X s 244 781 m cl s 353 781 m 95 X s 448 781 m cl s 338 749 m -95 X s 243 749 m cl s 351 749 m 96 X s 447 749 m cl s 340 717 m -95 X s 245 717 m cl s 353 717 m 96 X s 449 717 m cl s 340 685
 m -96 X s 244 685 m cl s 352 685 m 96 X s 448 685 m cl s 340 653 m -96 X s 244 653 m cl s 353 653 m 95 X s 448 653 m cl s 340 621 m -96 X s 244 621 m cl s 353 621 m 95 X s 448 621 m cl s 340 590 m -96 X s 244 590 m cl s 353 590 m 95 X s 448 590 m cl
 s 340 558 m -96 X s 244 558 m cl s 353 558 m 95 X s 448 558 m cl s 340 526 m -96 X s 244 526 m cl s 353 526 m 95 X s 448 526 m cl s 339 494 m -95 X s 244 494 m cl s 352 494 m 96 X s 448 494 m cl s 340 462 m -96 X s 244 462 m cl s 353 462 m 95 X s
 448 462 m cl s 340 430 m -96 X s 244 430 m cl s 353 430 m 95 X s 448 430 m cl s 340 398 m -96 X s 244 398 m cl s 353 398 m 95 X s 448 398 m cl s 340 367 m -96 X s 244 367 m cl s 353 367 m 95 X s 448 367 m cl s 340 335 m -96 X s 244 335 m cl s 353
 335 m 95 X s 448 335 m cl s 340 303 m -96 X s 244 303 m cl s 353 303 m 95 X s 448 303 m cl s 340 271 m -96 X s 244 271 m cl s 353 271 m 95 X s 448 271 m cl s 340 239 m -96 X s 244 239 m cl s 353 239 m 95 X s 448 239 m cl s 340 207 m -96 X s 244 207
 m cl s 353 207 m 95 X s 448 207 m cl s 340 175 m -96 X s 244 175 m cl s 353 175 m 95 X s 448 175 m cl s 340 143 m -96 X s 244 143 m cl s 353 143 m 95 X s 448 143 m cl s 340 112 m -96 X s 244 112 m cl s 353 112 m 95 X s 448 112 m cl s 340 80 m -96 X
 s 244 80 m cl s 353 80 m 95 X s 448 80 m cl s black 1 0 0 c 356 2852 349 2821 348 2789 343 2757 324 2725 353 2693 360 2661 337 2629 330 2597 346 2566 345 2534 346 2502 346 2470 346 2438 346 2406 346 2374 346 2342 346 2311 346 2279 346 2247 346 2215
 346 2183 346 2151 346 2119 346 2088 356 2056 346 2024 407 1992 433 1960 279 1928 333 1896 342 1864 359 1833 352 1801 346 1769 346 1737 345 1705 346 1673 346 1641 39 { m24} R 175 1355 461 1323 350 1291 369 1259 360 1227 427 1195 280 1163 376 1131 312
 1100 344 1068 345 1036 346 1004 372 972 351 940 347 908 346 876 349 845 349 813 346 781 345 749 347 717 346 685 346 653 346 621 346 590 346 558 346 526 346 494 346 462 346 430 346 398 346 367 346 335 346 303 346 271 346 239 346 207 346 175 346 143
 346 112 346 80 41 { m24} R black
 gsave  1288 2948 0 0 C 653.68 2844.48 t 0 r /Helvetica findfont 25.8883 sf 0 0 m (b\255tag Eigenvar. 0) show NC gr 
 gsave  1288 2948 0 0 C 653.68 2813.74 t 0 r /Helvetica findfont 25.8883 sf 0 0 m (b\255tag Eigenvar. 1) show NC gr 
 gsave  1288 2948 0 0 C 653.68 2781.38 t 0 r /Helvetica findfont 25.8883 sf 0 0 m (b\255tag Eigenvar. 2) show NC gr 
 gsave  1288 2948 0 0 C 653.68 2749.02 t 0 r /Helvetica findfont 25.8883 sf 0 0 m (b\255tag Eigenvar. 3) show NC gr 
 gsave  1288 2948 0 0 C 653.68 2718.27 t 0 r /Helvetica findfont 25.8883 sf 0 0 m (b\255tag Eigenvar. 4) show NC gr 
 gsave  1288 2948 0 0 C 653.68 2685.91 t 0 r /Helvetica findfont 25.8883 sf 0 0 m (b\255tag Eigenvar. 5) show NC gr 
 gsave  1288 2948 0 0 C 653.68 2653.55 t 0 r /Helvetica findfont 25.8883 sf 0 0 m (b\255tag Eigenvar. 6) show NC gr 
 gsave  1288 2948 0 0 C 653.68 2622.81 t 0 r /Helvetica findfont 25.8883 sf 0 0 m (b\255tag Eigenvar. 7) show NC gr 
 gsave  1288 2948 0 0 C 653.68 2590.45 t 0 r /Helvetica findfont 25.8883 sf 0 0 m (b\255tag Eigenvar. 8) show NC gr 
 gsave  1288 2948 0 0 C 653.68 2558.09 t 0 r /Helvetica findfont 25.8883 sf 0 0 m (b\255tag Eigenvar. 9) show NC gr 
 gsave  1288 2948 0 0 C 653.68 2527.35 t 0 r /Helvetica findfont 25.8883 sf 0 0 m (b\255tag Eigenvar. 10) show NC gr 
 gsave  1288 2948 0 0 C 653.68 2494.99 t 0 r /Helvetica findfont 25.8883 sf 0 0 m (b\255tag Eigenvar. 11) show NC gr 
 gsave  1288 2948 0 0 C 653.68 2462.63 t 0 r /Helvetica findfont 25.8883 sf 0 0 m (b\255tag Eigenvar. 13) show NC gr 
 gsave  1288 2948 0 0 C 653.68 2430.27 t 0 r /Helvetica findfont 25.8883 sf 0 0 m (b\255tag Eigenvar. 14) show NC gr 
 gsave  1288 2948 0 0 C 653.68 2399.52 t 0 r /Helvetica findfont 25.8883 sf 0 0 m (b\255tag Eigenvar. 15) show NC gr 
 gsave  1288 2948 0 0 C 653.68 2367.16 t 0 r /Helvetica findfont 25.8883 sf 0 0 m (b\255tag Eigenvar. 16) show NC gr 
 gsave  1288 2948 0 0 C 653.68 2334.8 t 0 r /Helvetica findfont 25.8883 sf 0 0 m (b\255tag Eigenvar. 17) show NC gr 
 gsave  1288 2948 0 0 C 653.68 2304.06 t 0 r /Helvetica findfont 25.8883 sf 0 0 m (b\255tag Eigenvar. 18) show NC gr 
 gsave  1288 2948 0 0 C 653.68 2271.7 t 0 r /Helvetica findfont 25.8883 sf 0 0 m (b\255tag Eigenvar. 19) show NC gr 
 gsave  1288 2948 0 0 C 653.68 2239.34 t 0 r /Helvetica findfont 25.8883 sf 0 0 m (b\255tag Eigenvar. 20) show NC gr 
 gsave  1288 2948 0 0 C 653.68 2208.6 t 0 r /Helvetica findfont 25.8883 sf 0 0 m (b\255tag Eigenvar. 22) show NC gr 
 gsave  1288 2948 0 0 C 653.68 2176.24 t 0 r /Helvetica findfont 25.8883 sf 0 0 m (b\255tag Eigenvar. 23) show NC gr 
 gsave  1288 2948 0 0 C 653.68 2143.88 t 0 r /Helvetica findfont 25.8883 sf 0 0 m (b\255tag Eigenvar. 24) show NC gr 
 gsave  1288 2948 0 0 C 653.68 2111.52 t 0 r /Helvetica findfont 25.8883 sf 0 0 m (b\255tag Eigenvar. 25) show NC gr 
 gsave  1288 2948 0 0 C 653.68 2080.77 t 0 r /Helvetica findfont 25.8883 sf 0 0 m (b\255tag Eigenvar. 26) show NC gr 
 gsave  1288 2948 0 0 C 653.68 2048.41 t 0 r /Helvetica findfont 25.8883 sf 0 0 m (b\255tag Eigenvar. 27) show NC gr 
 gsave  1288 2948 0 0 C 653.68 2016.05 t 0 r /Helvetica findfont 25.8883 sf 0 0 m (b\255tag Eigenvar. 28) show NC gr 
 gsave  1288 2948 0 0 C 653.68 1985.31 t 0 r /Helvetica findfont 25.8883 sf 0 0 m (c\255tag Eigenvar. 0) show NC gr 
 gsave  1288 2948 0 0 C 653.68 1952.95 t 0 r /Helvetica findfont 25.8883 sf 0 0 m (c\255tag Eigenvar. 1) show NC gr 
 gsave  1288 2948 0 0 C 653.68 1920.59 t 0 r /Helvetica findfont 25.8883 sf 0 0 m (c\255tag Eigenvar. 2) show NC gr 
 gsave  1288 2948 0 0 C 653.68 1889.85 t 0 r /Helvetica findfont 25.8883 sf 0 0 m (c\255tag Eigenvar. 3) show NC gr 
 gsave  1288 2948 0 0 C 653.68 1857.49 t 0 r /Helvetica findfont 25.8883 sf 0 0 m (c\255tag Eigenvar. 4) show NC gr 
 gsave  1288 2948 0 0 C 653.68 1825.13 t 0 r /Helvetica findfont 25.8883 sf 0 0 m (c\255tag Eigenvar. 5) show NC gr 
 gsave  1288 2948 0 0 C 653.68 1792.77 t 0 r /Helvetica findfont 25.8883 sf 0 0 m (c\255tag Eigenvar. 6) show NC gr 
 gsave  1288 2948 0 0 C 653.68 1762.02 t 0 r /Helvetica findfont 25.8883 sf 0 0 m (c\255tag Eigenvar. 7) show NC gr 
 gsave  1288 2948 0 0 C 653.68 1729.66 t 0 r /Helvetica findfont 25.8883 sf 0 0 m (c\255tag Eigenvar. 8) show NC gr 
 gsave  1288 2948 0 0 C 653.68 1697.3 t 0 r /Helvetica findfont 25.8883 sf 0 0 m (c\255tag Eigenvar. 9) show NC gr 
 gsave  1288 2948 0 0 C 653.68 1666.56 t 0 r /Helvetica findfont 25.8883 sf 0 0 m (c\255tag Eigenvar. 10) show NC gr 
 gsave  1288 2948 0 0 C 653.68 1634.2 t 0 r /Helvetica findfont 25.8883 sf 0 0 m (c\255tag Eigenvar. 11) show NC gr 
 gsave  1288 2948 0 0 C 653.68 1601.84 t 0 r /Helvetica findfont 25.8883 sf 0 0 m (c\255tag Eigenvar. 12) show NC gr 
 gsave  1288 2948 0 0 C 653.68 1571.1 t 0 r /Helvetica findfont 25.8883 sf 0 0 m (c\255tag Eigenvar. 13) show NC gr 
 gsave  1288 2948 0 0 C 653.68 1538.74 t 0 r /Helvetica findfont 25.8883 sf 0 0 m (c\255tag Eigenvar. 14) show NC gr 
 gsave  1288 2948 0 0 C 653.68 1506.38 t 0 r /Helvetica findfont 25.8883 sf 0 0 m (c\255tag Eigenvar. 15) show NC gr 
 gsave  1288 2948 0 0 C 653.68 1474.02 t 0 r /Helvetica findfont 25.8883 sf 0 0 m (c\255tag Eigenvar. 16) show NC gr 
 gsave  1288 2948 0 0 C 653.68 1443.27 t 0 r /Helvetica findfont 25.8883 sf 0 0 m (c\255tag Eigenvar. 17) show NC gr 
 gsave  1288 2948 0 0 C 653.68 1410.91 t 0 r /Helvetica findfont 25.8883 sf 0 0 m (c\255tag Eigenvar. 18) show NC gr 
 gsave  1288 2948 0 0 C 653.68 1378.55 t 0 r /Helvetica findfont 25.8883 sf 0 0 m (c\255tag Eigenvar. 19) show NC gr 
 gsave  1288 2948 0 0 C 653.68 1347.81 t 0 r /Helvetica findfont 25.8883 sf 0 0 m (light\255tag Eigenvar. 0) show NC gr 
 gsave  1288 2948 0 0 C 653.68 1315.45 t 0 r /Helvetica findfont 25.8883 sf 0 0 m (light\255tag Eigenvar. 1) show NC gr 
 gsave  1288 2948 0 0 C 653.68 1283.09 t 0 r /Helvetica findfont 25.8883 sf 0 0 m (light\255tag Eigenvar. 2) show NC gr 
 gsave  1288 2948 0 0 C 653.68 1252.35 t 0 r /Helvetica findfont 25.8883 sf 0 0 m (light\255tag Eigenvar. 3) show NC gr 
 gsave  1288 2948 0 0 C 653.68 1219.99 t 0 r /Helvetica findfont 25.8883 sf 0 0 m (light\255tag Eigenvar. 4) show NC gr 
 gsave  1288 2948 0 0 C 653.68 1187.63 t 0 r /Helvetica findfont 25.8883 sf 0 0 m (light\255tag Eigenvar. 5) show NC gr 
 gsave  1288 2948 0 0 C 653.68 1156.88 t 0 r /Helvetica findfont 25.8883 sf 0 0 m (light\255tag Eigenvar. 6) show NC gr 
 gsave  1288 2948 0 0 C 653.68 1124.52 t 0 r /Helvetica findfont 25.8883 sf 0 0 m (light\255tag Eigenvar. 7) show NC gr 
 gsave  1288 2948 0 0 C 653.68 1092.16 t 0 r /Helvetica findfont 25.8883 sf 0 0 m (light\255tag Eigenvar. 8) show NC gr 
 gsave  1288 2948 0 0 C 653.68 1059.8 t 0 r /Helvetica findfont 25.8883 sf 0 0 m (light\255tag Eigenvar. 9) show NC gr 
 gsave  1288 2948 0 0 C 653.68 1029.06 t 0 r /Helvetica findfont 25.8883 sf 0 0 m (light\255tag Eigenvar. 10) show NC gr 
 gsave  1288 2948 0 0 C 653.68 996.7 t 0 r /Helvetica findfont 25.8883 sf 0 0 m (light\255tag Eigenvar. 11) show NC gr 
 gsave  1288 2948 0 0 C 653.68 964.34 t 0 r /Helvetica findfont 25.8883 sf 0 0 m (light\255tag Eigenvar. 12) show NC gr 
 gsave  1288 2948 0 0 C 653.68 933.597 t 0 r /Helvetica findfont 25.8883 sf 0 0 m (light\255tag Eigenvar. 13) show NC gr 
 gsave  1288 2948 0 0 C 653.68 901.237 t 0 r /Helvetica findfont 25.8883 sf 0 0 m (light\255tag Eigenvar. 14) show NC gr 
 gsave  1288 2948 0 0 C 653.68 868.876 t 0 r /Helvetica findfont 25.8883 sf 0 0 m (light\255tag Eigenvar. 15) show NC gr 
 gsave  1288 2948 0 0 C 653.68 838.134 t 0 r /Helvetica findfont 25.8883 sf 0 0 m (light\255tag Eigenvar. 16) show NC gr 
 gsave  1288 2948 0 0 C 653.68 805.774 t 0 r /Helvetica findfont 25.8883 sf 0 0 m (light\255tag Eigenvar. 17) show NC gr 
 gsave  1288 2948 0 0 C 653.68 773.413 t 0 r /Helvetica findfont 25.8883 sf 0 0 m (light\255tag Eigenvar. 18) show NC gr 
 gsave  1288 2948 0 0 C 653.68 741.053 t 0 r /Helvetica findfont 25.8883 sf 0 0 m (light\255tag Eigenvar. 19) show NC gr 
 gsave  1288 2948 0 0 C 653.68 710.311 t 0 r /Helvetica findfont 25.8883 sf 0 0 m (light\255tag Eigenvar. 20) show NC gr 
 gsave  1288 2948 0 0 C 653.68 677.95 t 0 r /Helvetica findfont 25.8883 sf 0 0 m (light\255tag Eigenvar. 21) show NC gr 
 gsave  1288 2948 0 0 C 653.68 645.59 t 0 r /Helvetica findfont 25.8883 sf 0 0 m (light\255tag Eigenvar. 22) show NC gr 
 gsave  1288 2948 0 0 C 653.68 614.847 t 0 r /Helvetica findfont 25.8883 sf 0 0 m (light\255tag Eigenvar. 23) show NC gr 
 gsave  1288 2948 0 0 C 653.68 582.487 t 0 r /Helvetica findfont 25.8883 sf 0 0 m (light\255tag Eigenvar. 24) show NC gr 
 gsave  1288 2948 0 0 C 653.68 550.127 t 0 r /Helvetica findfont 25.8883 sf 0 0 m (light\255tag Eigenvar. 25) show NC gr 
 gsave  1288 2948 0 0 C 653.68 519.384 t 0 r /Helvetica findfont 25.8883 sf 0 0 m (light\255tag Eigenvar. 26) show NC gr 
 gsave  1288 2948 0 0 C 653.68 487.024 t 0 r /Helvetica findfont 25.8883 sf 0 0 m (light\255tag Eigenvar. 27) show NC gr 
 gsave  1288 2948 0 0 C 653.68 454.663 t 0 r /Helvetica findfont 25.8883 sf 0 0 m (light\255tag Eigenvar. 28) show NC gr 
 gsave  1288 2948 0 0 C 653.68 422.303 t 0 r /Helvetica findfont 25.8883 sf 0 0 m (light\255tag Eigenvar. 29) show NC gr 
 gsave  1288 2948 0 0 C 653.68 391.561 t 0 r /Helvetica findfont 25.8883 sf 0 0 m (light\255tag Eigenvar. 30) show NC gr 
 gsave  1288 2948 0 0 C 653.68 359.2 t 0 r /Helvetica findfont 25.8883 sf 0 0 m (light\255tag Eigenvar. 31) show NC gr 
 gsave  1288 2948 0 0 C 653.68 326.84 t 0 r /Helvetica findfont 25.8883 sf 0 0 m (light\255tag Eigenvar. 32) show NC gr 
 gsave  1288 2948 0 0 C 653.68 296.098 t 0 r /Helvetica findfont 25.8883 sf 0 0 m (light\255tag Eigenvar. 33) show NC gr 
 gsave  1288 2948 0 0 C 653.68 263.737 t 0 r /Helvetica findfont 25.8883 sf 0 0 m (light\255tag Eigenvar. 35) show NC gr 
 gsave  1288 2948 0 0 C 653.68 231.377 t 0 r /Helvetica findfont 25.8883 sf 0 0 m (light\255tag Eigenvar. 36) show NC gr 
 gsave  1288 2948 0 0 C 653.68 200.634 t 0 r /Helvetica findfont 25.8883 sf 0 0 m (light\255tag Eigenvar. 37) show NC gr 
 gsave  1288 2948 0 0 C 653.68 168.274 t 0 r /Helvetica findfont 25.8883 sf 0 0 m (light\255tag Eigenvar. 38) show NC gr 
 gsave  1288 2948 0 0 C 653.68 135.914 t 0 r /Helvetica findfont 25.8883 sf 0 0 m (light\255tag Eigenvar. 39) show NC gr 
 gsave  1288 2948 0 0 C 653.68 105.171 t 0 r /Helvetica findfont 25.8883 sf 0 0 m (light\255tag Eigenvar. 41) show NC gr 
 gsave  1288 2948 0 0 C 653.68 72.8109 t 0 r /Helvetica findfont 25.8883 sf 0 0 m (light\255tag Eigenvar. 42) show NC gr 
 gsave  1288 2948 0 0 C 131.06 2918.91 t 0 r /Helvetica findfont 32.3604 sf 0 0 m (Initial) show NC gr  31 2918 m 83 X s 72 2918 m20
 gsave  1288 2948 0 0 C 522.62 2918.91 t 0 r /Helvetica findfont 32.3604 sf 0 0 m (Updated) show NC gr  1 0 0 c 423 2918 m 83 X s 465 2918 m24 black 48 64 m 596 X s 141 105 m -41 Y s 161 84 m -20 Y s 182 84 m -20 Y s 202 84 m -20 Y s 223 84 m -20 Y s
 243 105 m -41 Y s 264 84 m -20 Y s 285 84 m -20 Y s 305 84 m -20 Y s 326 84 m -20 Y s 346 105 m -41 Y s 367 84 m -20 Y s 387 84 m -20 Y s 408 84 m -20 Y s 428 84 m -20 Y s 449 105 m -41 Y s 469 84 m -20 Y s 490 84 m -20 Y s 510 84 m -20 Y s 531 84 m
 -20 Y s 552 105 m -41 Y s 141 105 m -41 Y s 120 84 m -20 Y s 100 84 m -20 Y s 79 84 m -20 Y s 59 84 m -20 Y s 552 105 m -41 Y s 572 84 m -20 Y s 593 84 m -20 Y s 613 84 m -20 Y s 634 84 m -20 Y s 48 2868 m 596 X s 141 2827 m 41 Y s 161 2848 m 20 Y s
 182 2848 m 20 Y s 202 2848 m 20 Y s 223 2848 m 20 Y s 243 2827 m 41 Y s 264 2848 m 20 Y s 285 2848 m 20 Y s 305 2848 m 20 Y s 326 2848 m 20 Y s 346 2827 m 41 Y s 367 2848 m 20 Y s 387 2848 m 20 Y s 408 2848 m 20 Y s 428 2848 m 20 Y s 449 2827 m 41 Y
 s 469 2848 m 20 Y s 490 2848 m 20 Y s 510 2848 m 20 Y s 531 2848 m 20 Y s 552 2827 m 41 Y s 141 2827 m 41 Y s 120 2848 m 20 Y s 100 2848 m 20 Y s 79 2848 m 20 Y s 59 2848 m 20 Y s 552 2827 m 41 Y s 572 2848 m 20 Y s 593 2848 m 20 Y s 613 2848 m 20 Y
 s 634 2848 m 20 Y s 48 64 m 2804 Y s
 gr  gr showpage
end
%%EOF
