%!PS-Adobe-2.0 EPSF-2.0
%%BoundingBox:  0 0 567 600
%%Title: : c
%%Creator: ROOT Version 6.04/14
%%CreationDate: Sun Aug 26 13:38:52 2018
%%DocumentNeededResources: ProcSet (FontSetInit)
%%EndComments
%%BeginProlog
80 dict begin
/s {stroke} def /l {lineto} def /m {moveto} def /t {translate} def
/r {rotate} def /rl {roll}  def /R {repeat} def
/d {rlineto} def /rm {rmoveto} def /gr {grestore} def /f {eofill} def
/c {setrgbcolor} def /black {0 setgray} def /sd {setdash} def
/cl {closepath} def /sf {scalefont setfont} def /lw {setlinewidth} def
/box {m dup 0 exch d exch 0 d 0 exch neg d cl} def
/NC{systemdict begin initclip end}def/C{NC box clip newpath}def
/bl {box s} def /bf {gsave box gsave f grestore 1 lw [] 0 sd s grestore} def /Y { 0 exch d} def /X { 0 d} def 
/K {{pop pop 0 moveto} exch kshow} bind def
/ita {/ang 15 def gsave [1 0 ang dup sin exch cos div 1 0 0] concat} def 
/mp {newpath /y exch def /x exch def} def
/side {[w .77 mul w .23 mul] .385 w mul sd w 0 l currentpoint t -144 r} def
/mr {mp x y w2 0 360 arc} def /m24 {mr s} def /m20 {mr f} def
/mb {mp x y w2 add m w2 neg 0 d 0 w neg d w 0 d 0 w d cl} def
/mt {mp x y w2 add m w2 neg w neg d w 0 d cl} def
/m21 {mb f} def /m25 {mb s} def /m22 {mt f} def /m26{mt s} def
/m23 {mp x y w2 sub m w2 w d w neg 0 d cl f} def
/m27 {mp x y w2 add m w3 neg w2 neg d w3 w2 neg d w3 w2 d cl s} def
/m28 {mp x w2 sub y w2 sub w3 add m w3 0 d  0 w3 neg d w3 0 d 0 w3 d w3 0 d  0 w3 d w3 neg 0 d 0 w3 d w3 neg 0 d 0 w3 neg d w3 neg 0 d cl s } def
/m29 {mp gsave x w2 sub y w2 add w3 sub m currentpoint t 4 {side} repeat cl fill gr} def
/m30 {mp gsave x w2 sub y w2 add w3 sub m currentpoint t 4 {side} repeat cl s gr} def
/m31 {mp x y w2 sub m 0 w d x w2 sub y m w 0 d x w2 sub y w2 add m w w neg d x w2 sub y w2 sub m w w d s} def
/m32 {mp x y w2 sub m w2 w d w neg 0 d cl s} def
/m33 {mp x y w2 add m w3 neg w2 neg d w3 w2 neg d w3 w2 d cl f} def
/m34 {mp x w2 sub y w2 sub w3 add m w3 0 d  0 w3 neg d w3 0 d 0 w3 d w3 0 d  0 w3 d w3 neg 0 d 0 w3 d w3 neg 0 d 0 w3 neg d w3 neg 0 d cl f } def
/m2 {mp x y w2 sub m 0 w d x w2 sub y m w 0 d s} def
/m5 {mp x w2 sub y w2 sub m w w d x w2 sub y w2 add m w w neg d s} def
%%IncludeResource: ProcSet (FontSetInit)
%%IncludeResource: font Times-Roman
%%IncludeResource: font Times-Italic
%%IncludeResource: font Times-Bold
%%IncludeResource: font Times-BoldItalic
%%IncludeResource: font Helvetica
%%IncludeResource: font Helvetica-Oblique
%%IncludeResource: font Helvetica-Bold
%%IncludeResource: font Helvetica-BoldOblique
%%IncludeResource: font Courier
%%IncludeResource: font Courier-Oblique
%%IncludeResource: font Courier-Bold
%%IncludeResource: font Courier-BoldOblique
%%IncludeResource: font Symbol
%%IncludeResource: font ZapfDingbats
/reEncode {exch findfont dup length dict begin {1 index /FID eq  {pop pop} {def} ifelse } forall /Encoding exch def currentdict end dup /FontName get exch definefont pop } def [/Times-Bold /Times-Italic /Times-BoldItalic /Helvetica /Helvetica-Oblique
 /Helvetica-Bold /Helvetica-BoldOblique /Courier /Courier-Oblique /Courier-Bold /Courier-BoldOblique /Times-Roman /AvantGarde-Book /AvantGarde-BookOblique /AvantGarde-Demi /AvantGarde-DemiOblique /Bookman-Demi /Bookman-DemiItalic /Bookman-Light
 /Bookman-LightItalic /Helvetica-Narrow /Helvetica-Narrow-Bold /Helvetica-Narrow-BoldOblique /Helvetica-Narrow-Oblique /NewCenturySchlbk-Roman /NewCenturySchlbk-Bold /NewCenturySchlbk-BoldItalic /NewCenturySchlbk-Italic /Palatino-Bold
 /Palatino-BoldItalic /Palatino-Italic /Palatino-Roman ] {ISOLatin1Encoding reEncode } forall
%%EndProlog
%%BeginSetup
%%EndSetup
newpath  gsave  .25 .25 scale  gsave  0 0 t black[  ] 0 sd 3 lw 1 1 1 c 2268 2399 0 0 bf black 1 1 1 c 1049 2151 85 110 bf black 1049 2151 85 110 bl 1 1 1 c 1049 2151 85 110 bf black 1049 2151 85 110 bl 1 1 1 c black 3 lw 85 110 m 1049 X s 248 144 m
 -34 Y s 284 127 m -17 Y s 320 127 m -17 Y s 356 127 m -17 Y s 392 127 m -17 Y s 429 144 m -34 Y s 465 127 m -17 Y s 501 127 m -17 Y s 537 127 m -17 Y s 573 127 m -17 Y s 609 144 m -34 Y s 646 127 m -17 Y s 682 127 m -17 Y s 718 127 m -17 Y s 754 127
 m -17 Y s 790 144 m -34 Y s 826 127 m -17 Y s 863 127 m -17 Y s 899 127 m -17 Y s 935 127 m -17 Y s 971 144 m -34 Y s 248 144 m -34 Y s 212 127 m -17 Y s 175 127 m -17 Y s 139 127 m -17 Y s 103 127 m -17 Y s 971 144 m -34 Y s 1007 127 m -17 Y s 1043
 127 m -17 Y s 1080 127 m -17 Y s 1116 127 m -17 Y s
 gsave  2268 2399 0 0 C 242.156 56.9778 t 0 r /Helvetica findfont 51.28 sf 0 0 m (2) show NC gr 
 gsave  2268 2399 0 0 C 216.516 56.9778 t 0 r /Symbol findfont 51.28 sf 0 0 m (-) show NC gr 
 gsave  2268 2399 0 0 C 430.182 56.9778 t 0 r /Helvetica findfont 51.28 sf 0 0 m (1) show NC gr 
 gsave  2268 2399 0 0 C 401.694 56.9778 t 0 r /Symbol findfont 51.28 sf 0 0 m (-) show NC gr 
 gsave  2268 2399 0 0 C 592.569 56.9778 t 0 r /Helvetica findfont 51.28 sf 0 0 m (0) show NC gr 
 gsave  2268 2399 0 0 C 777.747 56.9778 t 0 r /Helvetica findfont 51.28 sf 0 0 m (1) show NC gr 
 gsave  2268 2399 0 0 C 954.378 56.9778 t 0 r /Helvetica findfont 51.28 sf 0 0 m (2) show NC gr  85 2261 m 1049 X s 248 2228 m 33 Y s 284 2244 m 17 Y s 320 2244 m 17 Y s 356 2244 m 17 Y s 392 2244 m 17 Y s 429 2228 m 33 Y s 465 2244 m 17 Y s 501 2244
 m 17 Y s 537 2244 m 17 Y s 573 2244 m 17 Y s 609 2228 m 33 Y s 646 2244 m 17 Y s 682 2244 m 17 Y s 718 2244 m 17 Y s 754 2244 m 17 Y s 790 2228 m 33 Y s 826 2244 m 17 Y s 863 2244 m 17 Y s 899 2244 m 17 Y s 935 2244 m 17 Y s 971 2228 m 33 Y s 248
 2228 m 33 Y s 212 2244 m 17 Y s 175 2244 m 17 Y s 139 2244 m 17 Y s 103 2244 m 17 Y s 971 2228 m 33 Y s 1007 2244 m 17 Y s 1043 2244 m 17 Y s 1080 2244 m 17 Y s 1116 2244 m 17 Y s 85 110 m 2151 Y s 1 1 0 c 723 2151 248 110 bf black 0 1 0 c 361 2151
 429 110 bf black[ 20 20] 0 sd 609 110 m 2151 Y s[  ] 0 sd 610 2222 m -151 X s 459 2222 m cl s 633 2222 m 152 X s 785 2222 m cl s 596 2167 m -168 X s 428 2167 m cl s 618 2167 m 169 X s 787 2167 m cl s 600 2112 m -168 X s 432 2112 m cl s 623 2112 m
 168 X s 791 2112 m cl s 599 2057 m -167 X s 432 2057 m cl s 622 2057 m 166 X s 788 2057 m cl s 598 2002 m -168 X s 430 2002 m cl s 621 2002 m 168 X s 789 2002 m cl s 598 1947 m -168 X s 430 1947 m cl s 621 1947 m 168 X s 789 1947 m cl s 598 1891 m
 -168 X s 430 1891 m cl s 621 1891 m 168 X s 789 1891 m cl s 596 1836 m -168 X s 428 1836 m cl s 619 1836 m 168 X s 787 1836 m cl s 598 1781 m -168 X s 430 1781 m cl s 621 1781 m 168 X s 789 1781 m cl s 598 1671 m -168 X s 430 1671 m cl s 621 1671 m
 168 X s 789 1671 m cl s 598 1616 m -168 X s 430 1616 m cl s 621 1616 m 168 X s 789 1616 m cl s 598 1561 m -168 X s 430 1561 m cl s 621 1561 m 168 X s 789 1561 m cl s 598 1505 m -168 X s 430 1505 m cl s 621 1505 m 168 X s 789 1505 m cl s 598 1450 m
 -168 X s 430 1450 m cl s 621 1450 m 168 X s 789 1450 m cl s 598 1395 m -168 X s 430 1395 m cl s 621 1395 m 168 X s 789 1395 m cl s 298 1340 m -148 X s 150 1340 m cl s 320 1340 m 148 X s 468 1340 m cl s 652 1285 m -154 X s 498 1285 m cl s 675 1285 m
 153 X s 828 1285 m cl s 504 1230 m -161 X s 343 1230 m cl s 526 1230 m 161 X s 687 1230 m cl s 598 1175 m -168 X s 430 1175 m cl s 621 1175 m 168 X s 789 1175 m cl s 593 1119 m -168 X s 425 1119 m cl s 615 1119 m 169 X s 784 1119 m cl s 598 1064 m
 -168 X s 430 1064 m cl s 621 1064 m 168 X s 789 1064 m cl s 598 1009 m -168 X s 430 1009 m cl s 621 1009 m 168 X s 789 1009 m cl s 598 954 m -168 X s 430 954 m cl s 621 954 m 168 X s 789 954 m cl s 598 899 m -168 X s 430 899 m cl s 621 899 m 168 X s
 789 899 m cl s 603 844 m -166 X s 437 844 m cl s 626 844 m 166 X s 792 844 m cl s 592 789 m -168 X s 424 789 m cl s 615 789 m 168 X s 783 789 m cl s 597 733 m -165 X s 432 733 m cl s 620 733 m 165 X s 785 733 m cl s 595 678 m -168 X s 427 678 m cl s
 618 678 m 168 X s 786 678 m cl s 600 623 m -167 X s 433 623 m cl s 623 623 m 168 X s 791 623 m cl s 405 568 m -159 X s 246 568 m cl s 428 568 m 159 X s 587 568 m cl s 456 513 m -142 X s 314 513 m cl s 478 513 m 142 X s 620 513 m cl s 600 458 m -168
 X s 432 458 m cl s 623 458 m 168 X s 791 458 m cl s 649 403 m -123 X s 526 403 m cl s 672 403 m 123 X s 795 403 m cl s 604 347 m -168 X s 436 347 m cl s 627 347 m 168 X s 795 347 m cl s 590 292 m -156 X s 434 292 m cl s 612 292 m 156 X s 768 292 m
 cl s 598 237 m -168 X s 430 237 m cl s 620 237 m 168 X s 788 237 m cl s 598 182 m -168 X s 430 182 m cl s 620 182 m 168 X s 788 182 m cl s 607 127 m -161 X s 446 127 m cl s 630 127 m 161 X s 791 127 m cl s /w 27 def /w2 {w 2 div} def /w3 {w 3 div}
 def 622 2222 607 2167 611 2112 610 2057 609 2002 610 1947 609 1891 607 1836 609 1781 9 { m20} R 609 1671 609 1616 609 1561 609 1505 609 1450 609 1395 309 1340 663 1285 515 1230 610 1175 604 1119 609 1064 610 1009 609 954 610 899 614 844 604 789 609
 733 606 678 612 623 417 568 467 513 611 458 660 403 615 347 601 292 609 237 609 182 618 127 29 { m20} R 1 0 0 c 584 2233 m -150 X s 434 2233 m cl s 607 2233 m 150 X s 757 2233 m cl s 599 2178 m -169 X s 430 2178 m cl s 621 2178 m 169 X s 790 2178 m
 cl s 599 2123 m -168 X s 431 2123 m cl s 622 2123 m 168 X s 790 2123 m cl s 598 2068 m -166 X s 432 2068 m cl s 621 2068 m 166 X s 787 2068 m cl s 598 2013 m -168 X s 430 2013 m cl s 621 2013 m 168 X s 789 2013 m cl s 598 1958 m -169 X s 429 1958 m
 cl s 620 1958 m 169 X s 789 1958 m cl s 598 1902 m -168 X s 430 1902 m cl s 621 1902 m 168 X s 789 1902 m cl s 596 1847 m -168 X s 428 1847 m cl s 619 1847 m 168 X s 787 1847 m cl s 598 1792 m -168 X s 430 1792 m cl s 621 1792 m 169 X s 790 1792 m
 cl s 598 1737 m -168 X s 430 1737 m cl s 621 1737 m 168 X s 789 1737 m cl s 598 1682 m -168 X s 430 1682 m cl s 621 1682 m 168 X s 789 1682 m cl s 596 1572 m -168 X s 428 1572 m cl s 619 1572 m 168 X s 787 1572 m cl s 598 1516 m -168 X s 430 1516 m
 cl s 621 1516 m 168 X s 789 1516 m cl s 598 1461 m -168 X s 430 1461 m cl s 621 1461 m 168 X s 789 1461 m cl s 341 1351 m -149 X s 192 1351 m cl s 364 1351 m 148 X s 512 1351 m cl s 638 1296 m -155 X s 483 1296 m cl s 661 1296 m 154 X s 815 1296 m
 cl s 517 1241 m -160 X s 357 1241 m cl s 540 1241 m 160 X s 700 1241 m cl s 598 1186 m -168 X s 430 1186 m cl s 621 1186 m 168 X s 789 1186 m cl s 598 1130 m -168 X s 430 1130 m cl s 621 1130 m 168 X s 789 1130 m cl s 598 1075 m -168 X s 430 1075 m
 cl s 621 1075 m 168 X s 789 1075 m cl s 598 1020 m -168 X s 430 1020 m cl s 621 1020 m 168 X s 789 1020 m cl s 598 965 m -168 X s 430 965 m cl s 621 965 m 168 X s 789 965 m cl s 598 910 m -168 X s 430 910 m cl s 621 910 m 168 X s 789 910 m cl s 625
 855 m -165 X s 460 855 m cl s 648 855 m 166 X s 814 855 m cl s 595 800 m -169 X s 426 800 m cl s 617 800 m 168 X s 785 800 m cl s 563 744 m -165 X s 398 744 m cl s 586 744 m 165 X s 751 744 m cl s 598 689 m -168 X s 430 689 m cl s 621 689 m 168 X s
 789 689 m cl s 628 634 m -167 X s 461 634 m cl s 651 634 m 167 X s 818 634 m cl s 436 579 m -159 X s 277 579 m cl s 459 579 m 159 X s 618 579 m cl s 460 524 m -140 X s 320 524 m cl s 483 524 m 140 X s 623 524 m cl s 603 469 m -169 X s 434 469 m cl s
 625 469 m 169 X s 794 469 m cl s 651 414 m -121 X s 530 414 m cl s 674 414 m 121 X s 795 414 m cl s 602 358 m -168 X s 434 358 m cl s 625 358 m 168 X s 793 358 m cl s 704 303 m -145 X s 559 303 m cl s 727 303 m 145 X s 872 303 m cl s 599 248 m -168
 X s 431 248 m cl s 622 248 m 169 X s 791 248 m cl s 599 193 m -168 X s 431 193 m cl s 622 193 m 169 X s 791 193 m cl s 616 138 m -162 X s 454 138 m cl s 639 138 m 162 X s 801 138 m cl s black 1 0 0 c 596 2233 610 2178 611 2123 609 2068 609 2013 609
 1958 610 1902 607 1847 610 1792 609 1737 609 1682 11 { m24} R 608 1572 609 1516 609 1461 3 { m24} R 352 1351 649 1296 529 1241 610 1186 609 1130 609 1075 609 1020 609 965 609 910 637 855 606 800 575 744 609 689 640 634 447 579 471 524 614 469 662
 414 614 358 716 303 611 248 611 193 628 138 23 { m24} R black
 gsave  2268 2399 0 0 C 1150.95 2222.13 t 0 r /Helvetica findfont 45.5822 sf 0 0 m (Luminosity) show NC gr 
 gsave  2268 2399 0 0 C 1150.95 2165.16 t 0 r /Helvetica findfont 45.5822 sf 0 0 m (Electron energy resolution) show NC gr 
 gsave  2268 2399 0 0 C 1150.95 2111.03 t 0 r /Helvetica findfont 45.5822 sf 0 0 m (Electron energy scale) show NC gr 
 gsave  2268 2399 0 0 C 1150.95 2056.9 t 0 r /Helvetica findfont 45.5822 sf 0 0 m (Electron ID efficiency) show NC gr 
 gsave  2268 2399 0 0 C 1150.95 1999.92 t 0 r /Helvetica findfont 45.5822 sf 0 0 m (Electron isolation efficiency) show NC gr 
 gsave  2268 2399 0 0 C 1150.95 1945.79 t 0 r /Helvetica findfont 45.5822 sf 0 0 m (Electron reconstruction efficiency) show NC gr 
 gsave  2268 2399 0 0 C 1150.95 1888.81 t 0 r /Helvetica findfont 45.5822 sf 0 0 m (Muon energy resolution \(ID\)) show NC gr 
 gsave  2268 2399 0 0 C 1150.95 1834.69 t 0 r /Helvetica findfont 45.5822 sf 0 0 m (Muon energy resolution \(MS\)) show NC gr 
 gsave  2268 2399 0 0 C 1150.95 1780.56 t 0 r /Helvetica findfont 45.5822 sf 0 0 m (Muon energy scale) show NC gr 
 gsave  2268 2399 0 0 C 1150.95 1723.58 t 0 r /Helvetica findfont 45.5822 sf 0 0 m (Muon ID efficiency \(stat\)) show NC gr 
 gsave  2268 2399 0 0 C 1150.95 1669.45 t 0 r /Helvetica findfont 45.5822 sf 0 0 m (Muon ID efficiency \(syst\)) show NC gr 
 gsave  2268 2399 0 0 C 1150.95 1615.32 t 0 r /Helvetica findfont 45.5822 sf 0 0 m (Muon low pT ID efficiency \(stat\)) show NC gr 
 gsave  2268 2399 0 0 C 1150.95 1558.34 t 0 r /Helvetica findfont 45.5822 sf 0 0 m (Muon low pT ID efficiency \(syst\)) show NC gr 
 gsave  2268 2399 0 0 C 1150.95 1504.21 t 0 r /Helvetica findfont 45.5822 sf 0 0 m (Muon trig efficiency \(stat\)) show NC gr 
 gsave  2268 2399 0 0 C 1150.95 1450.09 t 0 r /Helvetica findfont 45.5822 sf 0 0 m (Muon trig efficiency \(syst\)) show NC gr 
 gsave  2268 2399 0 0 C 1150.95 1393.11 t 0 r /Helvetica findfont 45.5822 sf 0 0 m (Muon TTVA efficiency \(stat\)) show NC gr 
 gsave  2268 2399 0 0 C 1150.95 1338.98 t 0 r /Helvetica findfont 45.5822 sf 0 0 m (JES BJES) show NC gr 
 gsave  2268 2399 0 0 C 1150.95 1284.85 t 0 r /Helvetica findfont 45.5822 sf 0 0 m (JES effective NP 1) show NC gr 
 gsave  2268 2399 0 0 C 1150.95 1227.87 t 0 r /Helvetica findfont 45.5822 sf 0 0 m (JES effective NP 2) show NC gr 
 gsave  2268 2399 0 0 C 1150.95 1173.74 t 0 r /Helvetica findfont 45.5822 sf 0 0 m (JES effective NP 3) show NC gr 
 gsave  2268 2399 0 0 C 1150.95 1116.76 t 0 r /Helvetica findfont 45.5822 sf 0 0 m (JES effective NP 4) show NC gr 
 gsave  2268 2399 0 0 C 1150.95 1062.64 t 0 r /Helvetica findfont 45.5822 sf 0 0 m (JES effective NP 5) show NC gr 
 gsave  2268 2399 0 0 C 1150.95 1008.51 t 0 r /Helvetica findfont 45.5822 sf 0 0 m (JES effective NP 6) show NC gr 
 gsave  2268 2399 0 0 C 1150.95 951.529 t 0 r /Helvetica findfont 45.5822 sf 0 0 m (JES effective NP 7) show NC gr 
 gsave  2268 2399 0 0 C 1150.95 897.4 t 0 r /Helvetica findfont 45.5822 sf 0 0 m (JES effective NP 8) show NC gr 
 gsave  2268 2399 0 0 C 1273.45 843.271 t 0 r /Helvetica findfont 45.5822 sf 0 0 m ( intercalibration modelling) show NC gr 
 gsave  2268 2399 0 0 C 1247.81 843.271 t 0 r /Symbol findfont 45.5822 sf 0 0 m (h) show NC gr 
 gsave  2268 2399 0 0 C 1150.95 843.271 t 0 r /Helvetica findfont 45.5822 sf 0 0 m (JES ) show NC gr 
 gsave  2268 2399 0 0 C 1273.45 786.294 t 0 r /Helvetica findfont 45.5822 sf 0 0 m ( intercalibration total stat) show NC gr 
 gsave  2268 2399 0 0 C 1247.81 786.294 t 0 r /Symbol findfont 45.5822 sf 0 0 m (h) show NC gr 
 gsave  2268 2399 0 0 C 1150.95 786.294 t 0 r /Helvetica findfont 45.5822 sf 0 0 m (JES ) show NC gr 
 gsave  2268 2399 0 0 C 1150.95 732.165 t 0 r /Helvetica findfont 45.5822 sf 0 0 m (JES flavour response) show NC gr 
 gsave  2268 2399 0 0 C 1507.06 678.036 t 0 r /Symbol findfont 45.5822 sf 0 0 m (m) show NC gr 
 gsave  2268 2399 0 0 C 1150.95 678.036 t 0 r /Helvetica findfont 45.5822 sf 0 0 m (JES pileup offset ) show NC gr 
 gsave  2268 2399 0 0 C 1150.95 621.058 t 0 r /Helvetica findfont 45.5822 sf 0 0 m (JES pileup offset NPV) show NC gr 
 gsave  2268 2399 0 0 C 1150.95 566.929 t 0 r /Helvetica findfont 45.5822 sf 0 0 m (JES pileup pT term) show NC gr 
 gsave  2268 2399 0 0 C 1407.35 512.8 t 0 r /Helvetica findfont 45.5822 sf 0 0 m ( topology) show NC gr 
 gsave  2268 2399 0 0 C 1384.56 512.8 t 0 r /Symbol findfont 45.5822 sf 0 0 m (r) show NC gr 
 gsave  2268 2399 0 0 C 1150.95 512.8 t 0 r /Helvetica findfont 45.5822 sf 0 0 m (JES pileup ) show NC gr 
 gsave  2268 2399 0 0 C 1273.45 455.822 t 0 r /Helvetica findfont 45.5822 sf 0 0 m ( intercalibration non\255closure) show NC gr 
 gsave  2268 2399 0 0 C 1247.81 455.822 t 0 r /Symbol findfont 45.5822 sf 0 0 m (h) show NC gr 
 gsave  2268 2399 0 0 C 1150.95 455.822 t 0 r /Helvetica findfont 45.5822 sf 0 0 m (JES ) show NC gr 
 gsave  2268 2399 0 0 C 1150.95 401.694 t 0 r /Helvetica findfont 45.5822 sf 0 0 m (JES flavour composition) show NC gr 
 gsave  2268 2399 0 0 C 1150.95 344.716 t 0 r /Helvetica findfont 45.5822 sf 0 0 m (Jet vertex tagger efficiency) show NC gr 
 gsave  2268 2399 0 0 C 1150.95 290.587 t 0 r /Helvetica findfont 45.5822 sf 0 0 m (Jet energy resolution) show NC gr 
 gsave  2268 2399 0 0 C 1150.95 236.458 t 0 r /Helvetica findfont 45.5822 sf 0 0 m (MET soft reso \(para.\)) show NC gr 
 gsave  2268 2399 0 0 C 1150.95 179.48 t 0 r /Helvetica findfont 45.5822 sf 0 0 m (MET soft reso \(perp.\)) show NC gr 
 gsave  2268 2399 0 0 C 1150.95 125.351 t 0 r /Helvetica findfont 45.5822 sf 0 0 m (Pileup modelling) show NC gr 
 gsave  2268 2399 0 0 C 230.76 2353.18 t 0 r /Helvetica findfont 56.9778 sf 0 0 m (Initial) show NC gr  54 2359 m 147 X s 128 2359 m20
 gsave  2268 2399 0 0 C 914.494 2353.18 t 0 r /Helvetica findfont 56.9778 sf 0 0 m (Updated) show NC gr  1 0 0 c 739 2359 m 146 X s 812 2359 m24 black 85 110 m 1049 X s 248 144 m -34 Y s 284 127 m -17 Y s 320 127 m -17 Y s 356 127 m -17 Y s 392 127 m
 -17 Y s 429 144 m -34 Y s 465 127 m -17 Y s 501 127 m -17 Y s 537 127 m -17 Y s 573 127 m -17 Y s 609 144 m -34 Y s 646 127 m -17 Y s 682 127 m -17 Y s 718 127 m -17 Y s 754 127 m -17 Y s 790 144 m -34 Y s 826 127 m -17 Y s 863 127 m -17 Y s 899 127
 m -17 Y s 935 127 m -17 Y s 971 144 m -34 Y s 248 144 m -34 Y s 212 127 m -17 Y s 175 127 m -17 Y s 139 127 m -17 Y s 103 127 m -17 Y s 971 144 m -34 Y s 1007 127 m -17 Y s 1043 127 m -17 Y s 1080 127 m -17 Y s 1116 127 m -17 Y s 85 2261 m 1049 X s
 248 2228 m 33 Y s 284 2244 m 17 Y s 320 2244 m 17 Y s 356 2244 m 17 Y s 392 2244 m 17 Y s 429 2228 m 33 Y s 465 2244 m 17 Y s 501 2244 m 17 Y s 537 2244 m 17 Y s 573 2244 m 17 Y s 609 2228 m 33 Y s 646 2244 m 17 Y s 682 2244 m 17 Y s 718 2244 m 17 Y
 s 754 2244 m 17 Y s 790 2228 m 33 Y s 826 2244 m 17 Y s 863 2244 m 17 Y s 899 2244 m 17 Y s 935 2244 m 17 Y s 971 2228 m 33 Y s 248 2228 m 33 Y s 212 2244 m 17 Y s 175 2244 m 17 Y s 139 2244 m 17 Y s 103 2244 m 17 Y s 971 2228 m 33 Y s 1007 2244 m
 17 Y s 1043 2244 m 17 Y s 1080 2244 m 17 Y s 1116 2244 m 17 Y s 85 110 m 2151 Y s
 gr  gr showpage
end
%%EOF
