%!PS-Adobe-2.0 EPSF-2.0
%%BoundingBox:  0 0 567 544
%%Title: jet_ip3d_llr_Akt4EMTo.eps: Plotter
%%Creator: ROOT Version 6.04/14
%%CreationDate: Thu May 12 14:47:45 2016
%%DocumentNeededResources: ProcSet (FontSetInit)
%%EndComments
%%BeginProlog
80 dict begin
/s {stroke} def /l {lineto} def /m {moveto} def /t {translate} def
/r {rotate} def /rl {roll}  def /R {repeat} def
/d {rlineto} def /rm {rmoveto} def /gr {grestore} def /f {eofill} def
/c {setrgbcolor} def /black {0 setgray} def /sd {setdash} def
/cl {closepath} def /sf {scalefont setfont} def /lw {setlinewidth} def
/box {m dup 0 exch d exch 0 d 0 exch neg d cl} def
/NC{systemdict begin initclip end}def/C{NC box clip newpath}def
/bl {box s} def /bf {gsave box gsave f grestore 1 lw [] 0 sd s grestore} def /Y { 0 exch d} def /X { 0 d} def 
/K {{pop pop 0 moveto} exch kshow} bind def
/ita {/ang 15 def gsave [1 0 ang dup sin exch cos div 1 0 0] concat} def 
/mp {newpath /y exch def /x exch def} def
/side {[w .77 mul w .23 mul] .385 w mul sd w 0 l currentpoint t -144 r} def
/mr {mp x y w2 0 360 arc} def /m24 {mr s} def /m20 {mr f} def
/mb {mp x y w2 add m w2 neg 0 d 0 w neg d w 0 d 0 w d cl} def
/mt {mp x y w2 add m w2 neg w neg d w 0 d cl} def
/m21 {mb f} def /m25 {mb s} def /m22 {mt f} def /m26{mt s} def
/m23 {mp x y w2 sub m w2 w d w neg 0 d cl f} def
/m27 {mp x y w2 add m w3 neg w2 neg d w3 w2 neg d w3 w2 d cl s} def
/m28 {mp x w2 sub y w2 sub w3 add m w3 0 d  0 w3 neg d w3 0 d 0 w3 d w3 0 d  0 w3 d w3 neg 0 d 0 w3 d w3 neg 0 d 0 w3 neg d w3 neg 0 d cl s } def
/m29 {mp gsave x w2 sub y w2 add w3 sub m currentpoint t 4 {side} repeat cl fill gr} def
/m30 {mp gsave x w2 sub y w2 add w3 sub m currentpoint t 4 {side} repeat cl s gr} def
/m31 {mp x y w2 sub m 0 w d x w2 sub y m w 0 d x w2 sub y w2 add m w w neg d x w2 sub y w2 sub m w w d s} def
/m32 {mp x y w2 sub m w2 w d w neg 0 d cl s} def
/m33 {mp x y w2 add m w3 neg w2 neg d w3 w2 neg d w3 w2 d cl f} def
/m34 {mp x w2 sub y w2 sub w3 add m w3 0 d  0 w3 neg d w3 0 d 0 w3 d w3 0 d  0 w3 d w3 neg 0 d 0 w3 d w3 neg 0 d 0 w3 neg d w3 neg 0 d cl f } def
/m2 {mp x y w2 sub m 0 w d x w2 sub y m w 0 d s} def
/m5 {mp x w2 sub y w2 sub m w w d x w2 sub y w2 add m w w neg d s} def
%%IncludeResource: ProcSet (FontSetInit)
%%IncludeResource: font Times-Roman
%%IncludeResource: font Times-Italic
%%IncludeResource: font Times-Bold
%%IncludeResource: font Times-BoldItalic
%%IncludeResource: font Helvetica
%%IncludeResource: font Helvetica-Oblique
%%IncludeResource: font Helvetica-Bold
%%IncludeResource: font Helvetica-BoldOblique
%%IncludeResource: font Courier
%%IncludeResource: font Courier-Oblique
%%IncludeResource: font Courier-Bold
%%IncludeResource: font Courier-BoldOblique
%%IncludeResource: font Symbol
%%IncludeResource: font ZapfDingbats
/reEncode {exch findfont dup length dict begin {1 index /FID eq  {pop pop} {def} ifelse } forall /Encoding exch def currentdict end dup /FontName get exch definefont pop } def [/Times-Bold /Times-Italic /Times-BoldItalic /Helvetica /Helvetica-Oblique
 /Helvetica-Bold /Helvetica-BoldOblique /Courier /Courier-Oblique /Courier-Bold /Courier-BoldOblique /Times-Roman /AvantGarde-Book /AvantGarde-BookOblique /AvantGarde-Demi /AvantGarde-DemiOblique /Bookman-Demi /Bookman-DemiItalic /Bookman-Light
 /Bookman-LightItalic /Helvetica-Narrow /Helvetica-Narrow-Bold /Helvetica-Narrow-BoldOblique /Helvetica-Narrow-Oblique /NewCenturySchlbk-Roman /NewCenturySchlbk-Bold /NewCenturySchlbk-BoldItalic /NewCenturySchlbk-Italic /Palatino-Bold
 /Palatino-BoldItalic /Palatino-Italic /Palatino-Roman ] {ISOLatin1Encoding reEncode } forall
%%EndProlog
%%BeginSetup
%%EndSetup
newpath  gsave  .25 .25 scale  gsave  0 0 t black[  ] 0 sd 3 lw 0.999 0.999 0.999 c 2268 2176 0 0 bf black 0.999 0.999 0.999 c 1701 1741 340 218 bf 1 1 1 c 340 218 m 4 4 d 1733 Y 1693 X 4 4 d -1701 X -1741 Y f 0.999 0.999 0.999 c 340 218 m 4 4 d 1693
 X 1733 Y 4 4 d -1741 Y -1701 X f black 1701 1741 340 218 bl 0.999 0.999 0.999 c 1701 1741 340 218 bf 1 1 1 c 340 218 m 4 4 d 1733 Y 1693 X 4 4 d -1701 X -1741 Y f 0.999 0.999 0.999 c 340 218 m 4 4 d 1693 X 1733 Y 4 4 d -1741 Y -1701 X f black 1701
 1741 340 218 bl 0 0 0.8 c 6 lw 1 1 1 c black 0 0 0.8 c 340 218 m 37 X 70 Y 12 X -70 Y 24 X 139 Y 12 X -69 Y 12 X -70 Y 12 X 180 Y 25 X 29 Y 12 X 23 Y 24 X 79 Y 12 X 31 Y 13 X 52 Y 12 X -8 Y 12 X 42 Y 12 X 51 Y 12 X 46 Y 12 X 63 Y 12 X 31 Y 13 X 53 Y
 12 X 34 Y 12 X 46 Y 12 X 44 Y 12 X 42 Y 12 X 37 Y 12 X 44 Y 13 X 34 Y 12 X 36 Y 12 X 32 Y 12 X 30 Y 12 X 28 Y 12 X 22 Y 13 X 14 Y 12 X 22 Y 12 X 4 Y 12 X -8 Y 24 X 7 Y 12 X 5 Y 13 X 5 Y 12 X 8 Y 12 X 4 Y 12 X 3 Y 12 X -3 Y 12 X -4 Y 12 X -2 Y 13 X
 -1 Y 12 X 2 Y 12 X 1 Y 12 X 1 Y 12 X -2 Y 12 X -5 Y 12 X -8 Y 13 X -6 Y 12 X -4 Y 12 X -5 Y 12 X -3 Y 12 X -5 Y 12 X -4 Y 13 X -10 Y 12 X -8 Y 12 X -9 Y 12 X -8 Y 12 X -9 Y 12 X -8 Y 12 X -7 Y 13 X -8 Y 12 X -11 Y 12 X -11 Y 12 X -10 Y 12 X -13 Y 12
 X -12 Y 12 X -9 Y 13 X -10 Y 12 X -14 Y 12 X -9 Y 12 X -12 Y 12 X -17 Y 12 X -15 Y 12 X -13 Y 13 X -14 Y 12 X -10 Y 12 X -18 Y 12 X -13 Y 12 X -17 Y 12 X -19 Y 13 X -10 Y 12 X -16 Y 12 X -15 Y 12 X -16 Y 12 X -19 Y 12 X -14 Y 12 X -17 Y 13 X -13 Y
 12 X -19 Y 12 X -16 Y 12 X -36 Y 12 X -5 Y 12 X -10 Y 12 X -28 Y 13 X -10 Y 12 X -33 Y 12 X -37 Y 12 X -5 Y 12 X -14 Y 24 X -58 Y 13 X 29 Y 12 X -36 Y 12 X -69 Y 12 X 6 Y 24 X -63 Y 13 X -70 Y 12 X 82 Y 12 X -82 Y 12 X 23 Y 12 X -93 Y 12 X 70 Y 12 X
 -209 Y 25 X 180 Y 12 X -180 Y 61 X 70 Y 12 X -70 Y 24 X 70 Y 12 X -70 Y 61 X s black 3 lw 340 218 m 1701 X s
 gsave  2268 2176 0 0 C 2016.59 45.6587 t 0 r /Helvetica findfont 79.9028 sf 0 0 m (\)) show NC gr 
 gsave  2268 2176 0 0 C 1989.96 22.8294 t 0 r /Helvetica findfont 53.2685 sf 0 0 m (u) show NC gr 
 gsave  2268 2176 0 0 C 1913.86 45.6587 t 0 r /Helvetica findfont 79.9028 sf 0 0 m (/P) show NC gr 
 gsave  2268 2176 0 0 C 1883.42 22.8294 t 0 r /Helvetica findfont 53.2685 sf 0 0 m (b) show NC gr 
 gsave  2268 2176 0 0 C 1499.13 45.6587 t 0 r /Helvetica findfont 79.9028 sf 0 0 m (IP3D log\(P) show NC gr  340 267 m -49 Y s 389 242 m -24 Y s 437 242 m -24 Y s 486 242 m -24 Y s 535 242 m -24 Y s 583 267 m -49 Y s 632 242 m -24 Y s 680 242 m -24 Y
 s 729 242 m -24 Y s 778 242 m -24 Y s 826 267 m -49 Y s 875 242 m -24 Y s 923 242 m -24 Y s 972 242 m -24 Y s 1020 242 m -24 Y s 1069 267 m -49 Y s 1118 242 m -24 Y s 1166 242 m -24 Y s 1215 242 m -24 Y s 1263 242 m -24 Y s 1312 267 m -49 Y s 1361
 242 m -24 Y s 1409 242 m -24 Y s 1458 242 m -24 Y s 1506 242 m -24 Y s 1555 267 m -49 Y s 1604 242 m -24 Y s 1652 242 m -24 Y s 1701 242 m -24 Y s 1749 242 m -24 Y s 1798 267 m -49 Y s 1847 242 m -24 Y s 1895 242 m -24 Y s 1944 242 m -24 Y s 1992
 242 m -24 Y s 2041 267 m -49 Y s
 gsave  2268 2176 0 0 C 315.806 140.781 t 0 r /Helvetica findfont 79.9028 sf 0 0 m (20) show NC gr 
 gsave  2268 2176 0 0 C 270.147 140.781 t 0 r /Symbol findfont 79.9028 sf 0 0 m (-) show NC gr 
 gsave  2268 2176 0 0 C 559.319 140.781 t 0 r /Helvetica findfont 79.9028 sf 0 0 m (10) show NC gr 
 gsave  2268 2176 0 0 C 513.661 140.781 t 0 r /Symbol findfont 79.9028 sf 0 0 m (-) show NC gr 
 gsave  2268 2176 0 0 C 802.833 140.781 t 0 r /Helvetica findfont 79.9028 sf 0 0 m (0) show NC gr 
 gsave  2268 2176 0 0 C 1019.71 140.781 t 0 r /Helvetica findfont 79.9028 sf 0 0 m (10) show NC gr 
 gsave  2268 2176 0 0 C 1263.22 140.781 t 0 r /Helvetica findfont 79.9028 sf 0 0 m (20) show NC gr 
 gsave  2268 2176 0 0 C 1506.74 140.781 t 0 r /Helvetica findfont 79.9028 sf 0 0 m (30) show NC gr 
 gsave  2268 2176 0 0 C 1750.25 140.781 t 0 r /Helvetica findfont 79.9028 sf 0 0 m (40) show NC gr 
 gsave  2268 2176 0 0 C 1993.76 140.781 t 0 r /Helvetica findfont 79.9028 sf 0 0 m (50) show NC gr  340 1959 m 1701 X s 340 1910 m 49 Y s 389 1934 m 25 Y s 437 1934 m 25 Y s 486 1934 m 25 Y s 535 1934 m 25 Y s 583 1910 m 49 Y s 632 1934 m 25 Y s 680
 1934 m 25 Y s 729 1934 m 25 Y s 778 1934 m 25 Y s 826 1910 m 49 Y s 875 1934 m 25 Y s 923 1934 m 25 Y s 972 1934 m 25 Y s 1020 1934 m 25 Y s 1069 1910 m 49 Y s 1118 1934 m 25 Y s 1166 1934 m 25 Y s 1215 1934 m 25 Y s 1263 1934 m 25 Y s 1312 1910 m
 49 Y s 1361 1934 m 25 Y s 1409 1934 m 25 Y s 1458 1934 m 25 Y s 1506 1934 m 25 Y s 1555 1910 m 49 Y s 1604 1934 m 25 Y s 1652 1934 m 25 Y s 1701 1934 m 25 Y s 1749 1934 m 25 Y s 1798 1910 m 49 Y s 1847 1934 m 25 Y s 1895 1934 m 25 Y s 1944 1934 m 25
 Y s 1992 1934 m 25 Y s 2041 1910 m 49 Y s 340 218 m 1741 Y s
 gsave  2268 2176 0 0 C 98.9272 1468.69 t 90 r /Helvetica findfont 79.9028 sf 0 0 m (Arbitrary units) show NC gr  367 242 m -27 X s 367 264 m -27 X s 367 283 m -27 X s 367 298 m -27 X s 367 312 m -27 X s 367 323 m -27 X s 395 334 m -55 X s
 gsave  2268 2176 0 0 C 289.172 334.831 t 0 r /Helvetica findfont 53.2685 sf 0 0 m (6) show NC gr 
 gsave  2268 2176 0 0 C 258.733 334.831 t 0 r /Symbol findfont 53.2685 sf 0 0 m (-) show NC gr 
 gsave  2268 2176 0 0 C 171.22 296.782 t 0 r /Helvetica findfont 79.9028 sf 0 0 m (10) show NC gr  367 404 m -27 X s 367 445 m -27 X s 367 474 m -27 X s 367 496 m -27 X s 367 515 m -27 X s 367 530 m -27 X s 367 544 m -27 X s 367 556 m -27 X s 395 566
 m -55 X s
 gsave  2268 2176 0 0 C 289.172 566.929 t 0 r /Helvetica findfont 53.2685 sf 0 0 m (5) show NC gr 
 gsave  2268 2176 0 0 C 258.733 566.929 t 0 r /Symbol findfont 53.2685 sf 0 0 m (-) show NC gr 
 gsave  2268 2176 0 0 C 171.22 528.88 t 0 r /Helvetica findfont 79.9028 sf 0 0 m (10) show NC gr  367 636 m -27 X s 367 677 m -27 X s 367 706 m -27 X s 367 728 m -27 X s 367 747 m -27 X s 367 762 m -27 X s 367 776 m -27 X s 367 788 m -27 X s 395 798
 m -55 X s
 gsave  2268 2176 0 0 C 289.172 795.223 t 0 r /Helvetica findfont 53.2685 sf 0 0 m (4) show NC gr 
 gsave  2268 2176 0 0 C 258.733 795.223 t 0 r /Symbol findfont 53.2685 sf 0 0 m (-) show NC gr 
 gsave  2268 2176 0 0 C 171.22 760.979 t 0 r /Helvetica findfont 79.9028 sf 0 0 m (10) show NC gr  367 868 m -27 X s 367 909 m -27 X s 367 938 m -27 X s 367 960 m -27 X s 367 979 m -27 X s 367 994 m -27 X s 367 1008 m -27 X s 367 1020 m -27 X s 395
 1030 m -55 X s
 gsave  2268 2176 0 0 C 289.172 1031.13 t 0 r /Helvetica findfont 53.2685 sf 0 0 m (3) show NC gr 
 gsave  2268 2176 0 0 C 258.733 1031.13 t 0 r /Symbol findfont 53.2685 sf 0 0 m (-) show NC gr 
 gsave  2268 2176 0 0 C 171.22 993.077 t 0 r /Helvetica findfont 79.9028 sf 0 0 m (10) show NC gr  367 1100 m -27 X s 367 1141 m -27 X s 367 1170 m -27 X s 367 1193 m -27 X s 367 1211 m -27 X s 367 1227 m -27 X s 367 1240 m -27 X s 367 1252 m -27 X s
 395 1262 m -55 X s
 gsave  2268 2176 0 0 C 289.172 1259.42 t 0 r /Helvetica findfont 53.2685 sf 0 0 m (2) show NC gr 
 gsave  2268 2176 0 0 C 258.733 1259.42 t 0 r /Symbol findfont 53.2685 sf 0 0 m (-) show NC gr 
 gsave  2268 2176 0 0 C 171.22 1225.18 t 0 r /Helvetica findfont 79.9028 sf 0 0 m (10) show NC gr  367 1332 m -27 X s 367 1373 m -27 X s 367 1402 m -27 X s 367 1425 m -27 X s 367 1443 m -27 X s 367 1459 m -27 X s 367 1472 m -27 X s 367 1484 m -27 X s
 395 1495 m -55 X s
 gsave  2268 2176 0 0 C 300.587 1491.52 t 0 r /Helvetica findfont 53.2685 sf 0 0 m (1) show NC gr 
 gsave  2268 2176 0 0 C 270.147 1491.52 t 0 r /Symbol findfont 53.2685 sf 0 0 m (-) show NC gr 
 gsave  2268 2176 0 0 C 182.635 1457.27 t 0 r /Helvetica findfont 79.9028 sf 0 0 m (10) show NC gr  367 1564 m -27 X s 367 1605 m -27 X s 367 1634 m -27 X s 367 1657 m -27 X s 367 1675 m -27 X s 367 1691 m -27 X s 367 1704 m -27 X s 367 1716 m -27 X
 s 395 1727 m -55 X s
 gsave  2268 2176 0 0 C 321.562 1693.17 t 0 r  -45 0 t /Helvetica findfont 79.9028 sf 0 0 m (1) show NC gr  367 1797 m -27 X s 367 1837 m -27 X s 367 1866 m -27 X s 367 1889 m -27 X s 367 1907 m -27 X s 367 1923 m -27 X s 367 1936 m -27 X s 367 1948
 m -27 X s 395 1959 m -55 X s
 gsave  2268 2176 0 0 C 321.562 1925.28 t 0 r  -90 0 t /Helvetica findfont 79.9028 sf 0 0 m (10) show NC gr  2041 218 m 1741 Y s 2014 242 m 27 X s 2014 264 m 27 X s 2014 283 m 27 X s 2014 298 m 27 X s 2014 312 m 27 X s 2014 323 m 27 X s 1987 334 m 54
 X s 2014 404 m 27 X s 2014 445 m 27 X s 2014 474 m 27 X s 2014 496 m 27 X s 2014 515 m 27 X s 2014 530 m 27 X s 2014 544 m 27 X s 2014 556 m 27 X s 1987 566 m 54 X s 2014 636 m 27 X s 2014 677 m 27 X s 2014 706 m 27 X s 2014 728 m 27 X s 2014 747 m
 27 X s 2014 762 m 27 X s 2014 776 m 27 X s 2014 788 m 27 X s 1987 798 m 54 X s 2014 868 m 27 X s 2014 909 m 27 X s 2014 938 m 27 X s 2014 960 m 27 X s 2014 979 m 27 X s 2014 994 m 27 X s 2014 1008 m 27 X s 2014 1020 m 27 X s 1987 1030 m 54 X s 2014
 1100 m 27 X s 2014 1141 m 27 X s 2014 1170 m 27 X s 2014 1193 m 27 X s 2014 1211 m 27 X s 2014 1227 m 27 X s 2014 1240 m 27 X s 2014 1252 m 27 X s 1987 1262 m 54 X s 2014 1332 m 27 X s 2014 1373 m 27 X s 2014 1402 m 27 X s 2014 1425 m 27 X s 2014
 1443 m 27 X s 2014 1459 m 27 X s 2014 1472 m 27 X s 2014 1484 m 27 X s 1987 1495 m 54 X s 2014 1564 m 27 X s 2014 1605 m 27 X s 2014 1634 m 27 X s 2014 1657 m 27 X s 2014 1675 m 27 X s 2014 1691 m 27 X s 2014 1704 m 27 X s 2014 1716 m 27 X s 1987
 1727 m 54 X s 2014 1797 m 27 X s 2014 1837 m 27 X s 2014 1866 m 27 X s 2014 1889 m 27 X s 2014 1907 m 27 X s 2014 1923 m 27 X s 2014 1936 m 27 X s 2014 1948 m 27 X s 1987 1959 m 54 X s 0 0.6 0 c[ 80 20] 0 sd 6 lw 1 1 1 c black 0 0.6 0 c 340 218 m 37
 X 288 Y 12 X -288 Y 24 X 218 Y 12 X 70 Y 12 X -70 Y 12 X -218 Y 13 X 358 Y 12 X 56 Y 12 X 13 Y 12 X 49 Y 12 X -62 Y 12 X 101 Y 13 X 39 Y 12 X 28 Y 12 X 42 Y 12 X 37 Y 12 X 35 Y 12 X 58 Y 12 X 32 Y 13 X 33 Y 12 X 41 Y 12 X 41 Y 12 X 43 Y 12 X 39 Y 12
 X 42 Y 12 X 39 Y 13 X 39 Y 12 X 38 Y 12 X 31 Y 12 X 35 Y 12 X 27 Y 12 X 14 Y 13 X 5 Y 12 X 10 Y 12 X -21 Y 12 X -28 Y 12 X -17 Y 12 X -7 Y 12 X -7 Y 13 X -8 Y 12 X -4 Y 12 X -12 Y 12 X -13 Y 12 X -21 Y 12 X -18 Y 12 X -15 Y 13 X -12 Y 12 X -14 Y 12
 X -11 Y 12 X -19 Y 12 X -15 Y 12 X -25 Y 12 X -19 Y 13 X -22 Y 12 X -15 Y 12 X -18 Y 12 X -21 Y 12 X -21 Y 12 X -24 Y 13 X -30 Y 12 X -23 Y 12 X -29 Y 12 X -41 Y 12 X -41 Y 12 X -16 Y 12 X -44 Y 13 X -20 Y 12 X -22 Y 12 X -26 Y 12 X -49 Y 12 X -76 Y
 12 X -25 Y 12 X 36 Y 13 X -92 Y 12 X -140 Y 12 X 162 Y 12 X -162 Y 12 X 140 Y 12 X -70 Y 12 X 70 Y 13 X -358 Y 60 X 218 Y 25 X -218 Y 595 X s 0.8 0 0 c[ 20 20] 0 sd 1 1 1 c black 0.8 0 0 c 340 218 m 12 X 147 Y 25 X 52 Y 12 X 47 Y 12 X 23 Y 12 X 74 Y
 12 X 5 Y 12 X 9 Y 12 X 65 Y 13 X 24 Y 12 X 3 Y 12 X 66 Y 12 X 32 Y 12 X 24 Y 12 X 44 Y 13 X 20 Y 12 X 42 Y 12 X 41 Y 12 X 32 Y 12 X 33 Y 12 X 45 Y 12 X 36 Y 13 X 38 Y 12 X 41 Y 12 X 39 Y 12 X 38 Y 12 X 41 Y 12 X 36 Y 12 X 38 Y 13 X 39 Y 12 X 33 Y 12
 X 28 Y 12 X 29 Y 12 X 27 Y 12 X 8 Y 13 X -11 Y 12 X 18 Y 12 X -37 Y 12 X -92 Y 12 X -65 Y 12 X -35 Y 12 X -34 Y 13 X -35 Y 12 X -32 Y 12 X -35 Y 12 X -35 Y 12 X -52 Y 12 X -45 Y 12 X -40 Y 13 X -31 Y 12 X -35 Y 12 X -25 Y 12 X -32 Y 12 X -30 Y 12 X
 -41 Y 12 X -13 Y 13 X -30 Y 12 X -32 Y 12 X -12 Y 12 X -53 Y 12 X 9 Y 12 X -33 Y 13 X -19 Y 12 X -35 Y 12 X -55 Y 12 X 36 Y 12 X -16 Y 12 X 6 Y 12 X -41 Y 13 X -88 Y 12 X 18 Y 12 X -18 Y 24 X 18 Y 12 X -181 Y 25 X 70 Y 24 X -106 Y 24 X 36 Y 12 X -36
 Y 25 X 36 Y 24 X -36 Y 158 X 36 Y 12 X -36 Y 486 X s black
 gsave  2268 2176 0 0 C 452.782 1742.64 t 0 r /Helvetica-BoldOblique findfont 102.732 sf 0 0 m (ATLAS) show NC gr 
 gsave  2268 2176 0 0 C 814.247 1742.64 t 0 r /Helvetica findfont 102.732 sf 0 0 m ( Simulation Preliminary) show NC gr 
 gsave  2268 2176 0 0 C 1088.2 1567.62 t 0 r /Helvetica findfont 102.732 sf 0 0 m (t) show NC gr [  ] 0 sd 1088 1651 m 27 X s
 gsave  2268 2176 0 0 C 555.514 1567.62 t 0 r /Helvetica findfont 102.732 sf 0 0 m ( = 13 TeV, t) show NC gr 
 gsave  2268 2176 0 0 C 506.051 1567.62 t 0 r /Helvetica findfont 102.732 sf 0 0 m (s) show NC gr  472 1625 m 11 -61 d s 3 lw 483 1564 m 12 91 d s 495 1655 m 61 X s
 gsave  2268 2176 0 0 C 1388.79 1556.2 t 0 r /Helvetica findfont 72.293 sf 0 0 m (b jets) show NC gr  0 0 0.8 c 6 lw 1230 1578 m 131 X s black
 gsave  2268 2176 0 0 C 1388.79 1445.86 t 0 r /Helvetica findfont 72.293 sf 0 0 m (c jets) show NC gr  0 0.6 0 c[ 80 20] 0 sd 1230 1469 m 131 X s black
 gsave  2268 2176 0 0 C 1388.79 1339.32 t 0 r /Helvetica findfont 72.293 sf 0 0 m (Light\255flavour jets) show NC gr  0.8 0 0 c[ 20 20] 0 sd 1230 1360 m 131 X s
 gr  gr showpage
end
%%EOF
