%!PS-Adobe-2.0 EPSF-2.0
%%BoundingBox:  0 0 567 544
%%Title: jet_sv1_m_Akt4EMTo.eps: Plotter
%%Creator: ROOT Version 6.04/14
%%CreationDate: Thu May 12 17:30:40 2016
%%DocumentNeededResources: ProcSet (FontSetInit)
%%EndComments
%%BeginProlog
80 dict begin
/s {stroke} def /l {lineto} def /m {moveto} def /t {translate} def
/r {rotate} def /rl {roll}  def /R {repeat} def
/d {rlineto} def /rm {rmoveto} def /gr {grestore} def /f {eofill} def
/c {setrgbcolor} def /black {0 setgray} def /sd {setdash} def
/cl {closepath} def /sf {scalefont setfont} def /lw {setlinewidth} def
/box {m dup 0 exch d exch 0 d 0 exch neg d cl} def
/NC{systemdict begin initclip end}def/C{NC box clip newpath}def
/bl {box s} def /bf {gsave box gsave f grestore 1 lw [] 0 sd s grestore} def /Y { 0 exch d} def /X { 0 d} def 
/K {{pop pop 0 moveto} exch kshow} bind def
/ita {/ang 15 def gsave [1 0 ang dup sin exch cos div 1 0 0] concat} def 
/mp {newpath /y exch def /x exch def} def
/side {[w .77 mul w .23 mul] .385 w mul sd w 0 l currentpoint t -144 r} def
/mr {mp x y w2 0 360 arc} def /m24 {mr s} def /m20 {mr f} def
/mb {mp x y w2 add m w2 neg 0 d 0 w neg d w 0 d 0 w d cl} def
/mt {mp x y w2 add m w2 neg w neg d w 0 d cl} def
/m21 {mb f} def /m25 {mb s} def /m22 {mt f} def /m26{mt s} def
/m23 {mp x y w2 sub m w2 w d w neg 0 d cl f} def
/m27 {mp x y w2 add m w3 neg w2 neg d w3 w2 neg d w3 w2 d cl s} def
/m28 {mp x w2 sub y w2 sub w3 add m w3 0 d  0 w3 neg d w3 0 d 0 w3 d w3 0 d  0 w3 d w3 neg 0 d 0 w3 d w3 neg 0 d 0 w3 neg d w3 neg 0 d cl s } def
/m29 {mp gsave x w2 sub y w2 add w3 sub m currentpoint t 4 {side} repeat cl fill gr} def
/m30 {mp gsave x w2 sub y w2 add w3 sub m currentpoint t 4 {side} repeat cl s gr} def
/m31 {mp x y w2 sub m 0 w d x w2 sub y m w 0 d x w2 sub y w2 add m w w neg d x w2 sub y w2 sub m w w d s} def
/m32 {mp x y w2 sub m w2 w d w neg 0 d cl s} def
/m33 {mp x y w2 add m w3 neg w2 neg d w3 w2 neg d w3 w2 d cl f} def
/m34 {mp x w2 sub y w2 sub w3 add m w3 0 d  0 w3 neg d w3 0 d 0 w3 d w3 0 d  0 w3 d w3 neg 0 d 0 w3 d w3 neg 0 d 0 w3 neg d w3 neg 0 d cl f } def
/m2 {mp x y w2 sub m 0 w d x w2 sub y m w 0 d s} def
/m5 {mp x w2 sub y w2 sub m w w d x w2 sub y w2 add m w w neg d s} def
%%IncludeResource: ProcSet (FontSetInit)
%%IncludeResource: font Times-Roman
%%IncludeResource: font Times-Italic
%%IncludeResource: font Times-Bold
%%IncludeResource: font Times-BoldItalic
%%IncludeResource: font Helvetica
%%IncludeResource: font Helvetica-Oblique
%%IncludeResource: font Helvetica-Bold
%%IncludeResource: font Helvetica-BoldOblique
%%IncludeResource: font Courier
%%IncludeResource: font Courier-Oblique
%%IncludeResource: font Courier-Bold
%%IncludeResource: font Courier-BoldOblique
%%IncludeResource: font Symbol
%%IncludeResource: font ZapfDingbats
/reEncode {exch findfont dup length dict begin {1 index /FID eq  {pop pop} {def} ifelse } forall /Encoding exch def currentdict end dup /FontName get exch definefont pop } def [/Times-Bold /Times-Italic /Times-BoldItalic /Helvetica /Helvetica-Oblique
 /Helvetica-Bold /Helvetica-BoldOblique /Courier /Courier-Oblique /Courier-Bold /Courier-BoldOblique /Times-Roman /AvantGarde-Book /AvantGarde-BookOblique /AvantGarde-Demi /AvantGarde-DemiOblique /Bookman-Demi /Bookman-DemiItalic /Bookman-Light
 /Bookman-LightItalic /Helvetica-Narrow /Helvetica-Narrow-Bold /Helvetica-Narrow-BoldOblique /Helvetica-Narrow-Oblique /NewCenturySchlbk-Roman /NewCenturySchlbk-Bold /NewCenturySchlbk-BoldItalic /NewCenturySchlbk-Italic /Palatino-Bold
 /Palatino-BoldItalic /Palatino-Italic /Palatino-Roman ] {ISOLatin1Encoding reEncode } forall
%%EndProlog
%%BeginSetup
%%EndSetup
newpath  gsave  .25 .25 scale  gsave  0 0 t black[  ] 0 sd 3 lw 0.999 0.999 0.999 c 2268 2176 0 0 bf black 0.999 0.999 0.999 c 1701 1741 340 218 bf 1 1 1 c 340 218 m 4 4 d 1733 Y 1693 X 4 4 d -1701 X -1741 Y f 0.999 0.999 0.999 c 340 218 m 4 4 d 1693
 X 1733 Y 4 4 d -1741 Y -1701 X f black 1701 1741 340 218 bl 0.999 0.999 0.999 c 1701 1741 340 218 bf 1 1 1 c 340 218 m 4 4 d 1733 Y 1693 X 4 4 d -1701 X -1741 Y f 0.999 0.999 0.999 c 340 218 m 4 4 d 1693 X 1733 Y 4 4 d -1741 Y -1701 X f black 1701
 1741 340 218 bl 0 0 0.8 c 6 lw 1 1 1 c black 0 0 0.8 c 340 218 m 71 X 841 Y 71 X 105 Y 71 X 37 Y 71 X 21 Y 70 X 8 Y 71 X 4 Y 71 X -12 Y 71 X -16 Y 71 X -19 Y 71 X -23 Y 71 X -30 Y 71 X -36 Y 70 X -41 Y 71 X -45 Y 71 X -53 Y 71 X -56 Y 71 X -67 Y 71
 X -74 Y 71 X -84 Y 70 X -93 Y 71 X -122 Y 71 X -87 Y 71 X -49 Y 71 X s black 3 lw 340 218 m 1701 X s
 gsave  2268 2176 0 0 C 1590.45 30.4391 t 0 r /Helvetica findfont 79.9028 sf 0 0 m (m\(SV\) [GeV]) show NC gr  340 267 m -49 Y s 397 242 m -24 Y s 454 242 m -24 Y s 510 242 m -24 Y s 567 242 m -24 Y s 624 267 m -49 Y s 680 242 m -24 Y s 737 242 m -24
 Y s 794 242 m -24 Y s 850 242 m -24 Y s 907 267 m -49 Y s 964 242 m -24 Y s 1020 242 m -24 Y s 1077 242 m -24 Y s 1134 242 m -24 Y s 1191 267 m -49 Y s 1247 242 m -24 Y s 1304 242 m -24 Y s 1361 242 m -24 Y s 1417 242 m -24 Y s 1474 267 m -49 Y s
 1531 242 m -24 Y s 1587 242 m -24 Y s 1644 242 m -24 Y s 1701 242 m -24 Y s 1757 267 m -49 Y s 1814 242 m -24 Y s 1871 242 m -24 Y s 1928 242 m -24 Y s 1984 242 m -24 Y s 2041 267 m -49 Y s
 gsave  2268 2176 0 0 C 315.806 140.781 t 0 r /Helvetica findfont 79.9028 sf 0 0 m (0) show NC gr 
 gsave  2268 2176 0 0 C 604.978 140.781 t 0 r /Helvetica findfont 79.9028 sf 0 0 m (1) show NC gr 
 gsave  2268 2176 0 0 C 882.735 140.781 t 0 r /Helvetica findfont 79.9028 sf 0 0 m (2) show NC gr 
 gsave  2268 2176 0 0 C 1164.3 140.781 t 0 r /Helvetica findfont 79.9028 sf 0 0 m (3) show NC gr 
 gsave  2268 2176 0 0 C 1449.66 140.781 t 0 r /Helvetica findfont 79.9028 sf 0 0 m (4) show NC gr 
 gsave  2268 2176 0 0 C 1731.23 140.781 t 0 r /Helvetica findfont 79.9028 sf 0 0 m (5) show NC gr 
 gsave  2268 2176 0 0 C 2016.59 140.781 t 0 r /Helvetica findfont 79.9028 sf 0 0 m (6) show NC gr  340 1959 m 1701 X s 340 1910 m 49 Y s 397 1934 m 25 Y s 454 1934 m 25 Y s 510 1934 m 25 Y s 567 1934 m 25 Y s 624 1910 m 49 Y s 680 1934 m 25 Y s 737
 1934 m 25 Y s 794 1934 m 25 Y s 850 1934 m 25 Y s 907 1910 m 49 Y s 964 1934 m 25 Y s 1020 1934 m 25 Y s 1077 1934 m 25 Y s 1134 1934 m 25 Y s 1191 1910 m 49 Y s 1247 1934 m 25 Y s 1304 1934 m 25 Y s 1361 1934 m 25 Y s 1417 1934 m 25 Y s 1474 1910 m
 49 Y s 1531 1934 m 25 Y s 1587 1934 m 25 Y s 1644 1934 m 25 Y s 1701 1934 m 25 Y s 1757 1910 m 49 Y s 1814 1934 m 25 Y s 1871 1934 m 25 Y s 1928 1934 m 25 Y s 1984 1934 m 25 Y s 2041 1910 m 49 Y s 340 218 m 1741 Y s
 gsave  2268 2176 0 0 C 98.9272 1468.69 t 90 r /Helvetica findfont 79.9028 sf 0 0 m (Arbitrary units) show NC gr  367 250 m -27 X s 367 314 m -27 X s 367 360 m -27 X s 367 395 m -27 X s 367 424 m -27 X s 367 448 m -27 X s 367 469 m -27 X s 367 488 m
 -27 X s 395 504 m -55 X s
 gsave  2268 2176 0 0 C 289.172 506.051 t 0 r /Helvetica findfont 53.2685 sf 0 0 m (3) show NC gr 
 gsave  2268 2176 0 0 C 258.733 506.051 t 0 r /Symbol findfont 53.2685 sf 0 0 m (-) show NC gr 
 gsave  2268 2176 0 0 C 171.22 468.002 t 0 r /Helvetica findfont 79.9028 sf 0 0 m (10) show NC gr  367 614 m -27 X s 367 678 m -27 X s 367 723 m -27 X s 367 759 m -27 X s 367 787 m -27 X s 367 812 m -27 X s 367 833 m -27 X s 367 851 m -27 X s 395 868
 m -55 X s
 gsave  2268 2176 0 0 C 289.172 867.516 t 0 r /Helvetica findfont 53.2685 sf 0 0 m (2) show NC gr 
 gsave  2268 2176 0 0 C 258.733 867.516 t 0 r /Symbol findfont 53.2685 sf 0 0 m (-) show NC gr 
 gsave  2268 2176 0 0 C 171.22 833.272 t 0 r /Helvetica findfont 79.9028 sf 0 0 m (10) show NC gr  367 977 m -27 X s 367 1041 m -27 X s 367 1087 m -27 X s 367 1122 m -27 X s 367 1151 m -27 X s 367 1175 m -27 X s 367 1196 m -27 X s 367 1215 m -27 X s
 395 1232 m -55 X s
 gsave  2268 2176 0 0 C 300.587 1228.98 t 0 r /Helvetica findfont 53.2685 sf 0 0 m (1) show NC gr 
 gsave  2268 2176 0 0 C 270.147 1228.98 t 0 r /Symbol findfont 53.2685 sf 0 0 m (-) show NC gr 
 gsave  2268 2176 0 0 C 182.635 1194.74 t 0 r /Helvetica findfont 79.9028 sf 0 0 m (10) show NC gr  367 1341 m -27 X s 367 1405 m -27 X s 367 1450 m -27 X s 367 1486 m -27 X s 367 1515 m -27 X s 367 1539 m -27 X s 367 1560 m -27 X s 367 1579 m -27 X
 s 395 1595 m -55 X s
 gsave  2268 2176 0 0 C 321.562 1561.7 t 0 r  -45 0 t /Helvetica findfont 79.9028 sf 0 0 m (1) show NC gr  367 1705 m -27 X s 367 1769 m -27 X s 367 1814 m -27 X s 367 1849 m -27 X s 367 1878 m -27 X s 367 1902 m -27 X s 367 1924 m -27 X s 367 1942 m
 -27 X s 395 1959 m -55 X s
 gsave  2268 2176 0 0 C 321.562 1925.28 t 0 r  -90 0 t /Helvetica findfont 79.9028 sf 0 0 m (10) show NC gr  2041 218 m 1741 Y s 2014 250 m 27 X s 2014 314 m 27 X s 2014 360 m 27 X s 2014 395 m 27 X s 2014 424 m 27 X s 2014 448 m 27 X s 2014 469 m 27
 X s 2014 488 m 27 X s 1987 504 m 54 X s 2014 614 m 27 X s 2014 678 m 27 X s 2014 723 m 27 X s 2014 759 m 27 X s 2014 787 m 27 X s 2014 812 m 27 X s 2014 833 m 27 X s 2014 851 m 27 X s 1987 868 m 54 X s 2014 977 m 27 X s 2014 1041 m 27 X s 2014 1087
 m 27 X s 2014 1122 m 27 X s 2014 1151 m 27 X s 2014 1175 m 27 X s 2014 1196 m 27 X s 2014 1215 m 27 X s 1987 1232 m 54 X s 2014 1341 m 27 X s 2014 1405 m 27 X s 2014 1450 m 27 X s 2014 1486 m 27 X s 2014 1515 m 27 X s 2014 1539 m 27 X s 2014 1560 m
 27 X s 2014 1579 m 27 X s 1987 1595 m 54 X s 2014 1705 m 27 X s 2014 1769 m 27 X s 2014 1814 m 27 X s 2014 1849 m 27 X s 2014 1878 m 27 X s 2014 1902 m 27 X s 2014 1924 m 27 X s 2014 1942 m 27 X s 1987 1959 m 54 X s 0 0.6 0 c[ 80 20] 0 sd 6 lw 1 1 1
 c black 0 0.6 0 c 340 218 m 71 X 1041 Y 71 X 78 Y 71 X -6 Y 71 X -25 Y 70 X -30 Y 71 X -36 Y 71 X -124 Y 71 X -159 Y 71 X -74 Y 71 X -62 Y 71 X -76 Y 71 X -67 Y 70 X -61 Y 71 X -25 Y 71 X -80 Y 71 X -57 Y 71 X -9 Y 71 X -31 Y 71 X -94 Y 70 X 34 Y 71
 X -98 Y 71 X 32 Y 71 X -32 Y 71 X s 0.8 0 0 c[ 20 20] 0 sd 1 1 1 c black 0.8 0 0 c 340 218 m 71 X 1159 Y 71 X 20 Y 71 X -72 Y 71 X -79 Y 70 X -84 Y 71 X -85 Y 71 X -75 Y 71 X -72 Y 71 X -71 Y 71 X -56 Y 71 X -40 Y 71 X -65 Y 70 X -39 Y 71 X -90 Y 71
 X -37 Y 71 X 11 Y 71 X -77 Y 71 X -44 Y 71 X -49 Y 70 X -11 Y 71 X 6 Y 71 X 15 Y 71 X 5 Y 71 X s black
 gsave  2268 2176 0 0 C 452.782 1742.64 t 0 r /Helvetica-BoldOblique findfont 102.732 sf 0 0 m (ATLAS) show NC gr 
 gsave  2268 2176 0 0 C 814.247 1742.64 t 0 r /Helvetica findfont 102.732 sf 0 0 m ( Simulation Preliminary) show NC gr 
 gsave  2268 2176 0 0 C 1088.2 1567.62 t 0 r /Helvetica findfont 102.732 sf 0 0 m (t) show NC gr [  ] 0 sd 1088 1651 m 27 X s
 gsave  2268 2176 0 0 C 555.514 1567.62 t 0 r /Helvetica findfont 102.732 sf 0 0 m ( = 13 TeV, t) show NC gr 
 gsave  2268 2176 0 0 C 506.051 1567.62 t 0 r /Helvetica findfont 102.732 sf 0 0 m (s) show NC gr  472 1625 m 11 -61 d s 3 lw 483 1564 m 12 91 d s 495 1655 m 61 X s
 gsave  2268 2176 0 0 C 1388.79 1556.2 t 0 r /Helvetica findfont 72.293 sf 0 0 m (b jets) show NC gr  0 0 0.8 c 6 lw 1230 1578 m 131 X s black
 gsave  2268 2176 0 0 C 1388.79 1445.86 t 0 r /Helvetica findfont 72.293 sf 0 0 m (c jets) show NC gr  0 0.6 0 c[ 80 20] 0 sd 1230 1469 m 131 X s black
 gsave  2268 2176 0 0 C 1388.79 1339.32 t 0 r /Helvetica findfont 72.293 sf 0 0 m (Light\255flavour jets) show NC gr  0.8 0 0 c[ 20 20] 0 sd 1230 1360 m 131 X s
 gr  gr showpage
end
%%EOF
