%!PS-Adobe-2.0 EPSF-2.0
%%BoundingBox:  0 0 567 585
%%Title: : c
%%Creator: ROOT Version 6.04/14
%%CreationDate: Sun Aug 26 18:25:58 2018
%%DocumentNeededResources: ProcSet (FontSetInit)
%%EndComments
%%BeginProlog
80 dict begin
/s {stroke} def /l {lineto} def /m {moveto} def /t {translate} def
/r {rotate} def /rl {roll}  def /R {repeat} def
/d {rlineto} def /rm {rmoveto} def /gr {grestore} def /f {eofill} def
/c {setrgbcolor} def /black {0 setgray} def /sd {setdash} def
/cl {closepath} def /sf {scalefont setfont} def /lw {setlinewidth} def
/box {m dup 0 exch d exch 0 d 0 exch neg d cl} def
/NC{systemdict begin initclip end}def/C{NC box clip newpath}def
/bl {box s} def /bf {gsave box gsave f grestore 1 lw [] 0 sd s grestore} def /Y { 0 exch d} def /X { 0 d} def 
/K {{pop pop 0 moveto} exch kshow} bind def
/ita {/ang 15 def gsave [1 0 ang dup sin exch cos div 1 0 0] concat} def 
/mp {newpath /y exch def /x exch def} def
/side {[w .77 mul w .23 mul] .385 w mul sd w 0 l currentpoint t -144 r} def
/mr {mp x y w2 0 360 arc} def /m24 {mr s} def /m20 {mr f} def
/mb {mp x y w2 add m w2 neg 0 d 0 w neg d w 0 d 0 w d cl} def
/mt {mp x y w2 add m w2 neg w neg d w 0 d cl} def
/m21 {mb f} def /m25 {mb s} def /m22 {mt f} def /m26{mt s} def
/m23 {mp x y w2 sub m w2 w d w neg 0 d cl f} def
/m27 {mp x y w2 add m w3 neg w2 neg d w3 w2 neg d w3 w2 d cl s} def
/m28 {mp x w2 sub y w2 sub w3 add m w3 0 d  0 w3 neg d w3 0 d 0 w3 d w3 0 d  0 w3 d w3 neg 0 d 0 w3 d w3 neg 0 d 0 w3 neg d w3 neg 0 d cl s } def
/m29 {mp gsave x w2 sub y w2 add w3 sub m currentpoint t 4 {side} repeat cl fill gr} def
/m30 {mp gsave x w2 sub y w2 add w3 sub m currentpoint t 4 {side} repeat cl s gr} def
/m31 {mp x y w2 sub m 0 w d x w2 sub y m w 0 d x w2 sub y w2 add m w w neg d x w2 sub y w2 sub m w w d s} def
/m32 {mp x y w2 sub m w2 w d w neg 0 d cl s} def
/m33 {mp x y w2 add m w3 neg w2 neg d w3 w2 neg d w3 w2 d cl f} def
/m34 {mp x w2 sub y w2 sub w3 add m w3 0 d  0 w3 neg d w3 0 d 0 w3 d w3 0 d  0 w3 d w3 neg 0 d 0 w3 d w3 neg 0 d 0 w3 neg d w3 neg 0 d cl f } def
/m2 {mp x y w2 sub m 0 w d x w2 sub y m w 0 d s} def
/m5 {mp x w2 sub y w2 sub m w w d x w2 sub y w2 add m w w neg d s} def
%%IncludeResource: ProcSet (FontSetInit)
%%IncludeResource: font Times-Roman
%%IncludeResource: font Times-Italic
%%IncludeResource: font Times-Bold
%%IncludeResource: font Times-BoldItalic
%%IncludeResource: font Helvetica
%%IncludeResource: font Helvetica-Oblique
%%IncludeResource: font Helvetica-Bold
%%IncludeResource: font Helvetica-BoldOblique
%%IncludeResource: font Courier
%%IncludeResource: font Courier-Oblique
%%IncludeResource: font Courier-Bold
%%IncludeResource: font Courier-BoldOblique
%%IncludeResource: font Symbol
%%IncludeResource: font ZapfDingbats
/reEncode {exch findfont dup length dict begin {1 index /FID eq  {pop pop} {def} ifelse } forall /Encoding exch def currentdict end dup /FontName get exch definefont pop } def [/Times-Bold /Times-Italic /Times-BoldItalic /Helvetica /Helvetica-Oblique
 /Helvetica-Bold /Helvetica-BoldOblique /Courier /Courier-Oblique /Courier-Bold /Courier-BoldOblique /Times-Roman /AvantGarde-Book /AvantGarde-BookOblique /AvantGarde-Demi /AvantGarde-DemiOblique /Bookman-Demi /Bookman-DemiItalic /Bookman-Light
 /Bookman-LightItalic /Helvetica-Narrow /Helvetica-Narrow-Bold /Helvetica-Narrow-BoldOblique /Helvetica-Narrow-Oblique /NewCenturySchlbk-Roman /NewCenturySchlbk-Bold /NewCenturySchlbk-BoldItalic /NewCenturySchlbk-Italic /Palatino-Bold
 /Palatino-BoldItalic /Palatino-Italic /Palatino-Roman ] {ISOLatin1Encoding reEncode } forall
%%EndProlog
%%BeginSetup
%%EndSetup
newpath  gsave  .25 .25 scale  gsave  0 0 t black[  ] 0 sd 3 lw 1 1 1 c 2268 2342 0 0 bf black 1 1 1 c 1049 2094 85 110 bf black 1049 2094 85 110 bl 1 1 1 c 1049 2094 85 110 bf black 1049 2094 85 110 bl 1 1 1 c black 3 lw 85 110 m 1049 X s 248 143 m
 -33 Y s 284 126 m -16 Y s 320 126 m -16 Y s 356 126 m -16 Y s 392 126 m -16 Y s 429 143 m -33 Y s 465 126 m -16 Y s 501 126 m -16 Y s 537 126 m -16 Y s 573 126 m -16 Y s 609 143 m -33 Y s 646 126 m -16 Y s 682 126 m -16 Y s 718 126 m -16 Y s 754 126
 m -16 Y s 790 143 m -33 Y s 826 126 m -16 Y s 863 126 m -16 Y s 899 126 m -16 Y s 935 126 m -16 Y s 971 143 m -33 Y s 248 143 m -33 Y s 212 126 m -16 Y s 175 126 m -16 Y s 139 126 m -16 Y s 103 126 m -16 Y s 971 143 m -33 Y s 1007 126 m -16 Y s 1043
 126 m -16 Y s 1080 126 m -16 Y s 1116 126 m -16 Y s
 gsave  2268 2342 0 0 C 242.156 56.9778 t 0 r /Helvetica findfont 51.28 sf 0 0 m (2) show NC gr 
 gsave  2268 2342 0 0 C 216.516 56.9778 t 0 r /Symbol findfont 51.28 sf 0 0 m (-) show NC gr 
 gsave  2268 2342 0 0 C 430.182 56.9778 t 0 r /Helvetica findfont 51.28 sf 0 0 m (1) show NC gr 
 gsave  2268 2342 0 0 C 401.694 56.9778 t 0 r /Symbol findfont 51.28 sf 0 0 m (-) show NC gr 
 gsave  2268 2342 0 0 C 592.569 56.9778 t 0 r /Helvetica findfont 51.28 sf 0 0 m (0) show NC gr 
 gsave  2268 2342 0 0 C 777.747 56.9778 t 0 r /Helvetica findfont 51.28 sf 0 0 m (1) show NC gr 
 gsave  2268 2342 0 0 C 954.378 56.9778 t 0 r /Helvetica findfont 51.28 sf 0 0 m (2) show NC gr  85 2204 m 1049 X s 248 2172 m 32 Y s 284 2188 m 16 Y s 320 2188 m 16 Y s 356 2188 m 16 Y s 392 2188 m 16 Y s 429 2172 m 32 Y s 465 2188 m 16 Y s 501 2188
 m 16 Y s 537 2188 m 16 Y s 573 2188 m 16 Y s 609 2172 m 32 Y s 646 2188 m 16 Y s 682 2188 m 16 Y s 718 2188 m 16 Y s 754 2188 m 16 Y s 790 2172 m 32 Y s 826 2188 m 16 Y s 863 2188 m 16 Y s 899 2188 m 16 Y s 935 2188 m 16 Y s 971 2172 m 32 Y s 248
 2172 m 32 Y s 212 2188 m 16 Y s 175 2188 m 16 Y s 139 2188 m 16 Y s 103 2188 m 16 Y s 971 2172 m 32 Y s 1007 2188 m 16 Y s 1043 2188 m 16 Y s 1080 2188 m 16 Y s 1116 2188 m 16 Y s 85 110 m 2094 Y s 1 1 0 c 723 2094 248 110 bf black 0 1 0 c 361 2094
 429 110 bf black[ 20 20] 0 sd 609 110 m 2094 Y s[  ] 0 sd 608 2165 m -153 X s 455 2165 m cl s 630 2165 m 153 X s 783 2165 m cl s 281 2110 m -146 X s 135 2110 m cl s 304 2110 m 146 X s 450 2110 m cl s 650 2055 m -153 X s 497 2055 m cl s 673 2055 m
 153 X s 826 2055 m cl s 506 2000 m -161 X s 345 2000 m cl s 529 2000 m 160 X s 689 2000 m cl s 598 1945 m -168 X s 430 1945 m cl s 621 1945 m 168 X s 789 1945 m cl s 593 1890 m -168 X s 425 1890 m cl s 616 1890 m 168 X s 784 1890 m cl s 598 1835 m
 -168 X s 430 1835 m cl s 621 1835 m 168 X s 789 1835 m cl s 598 1780 m -168 X s 430 1780 m cl s 621 1780 m 168 X s 789 1780 m cl s 598 1725 m -168 X s 430 1725 m cl s 621 1725 m 168 X s 789 1725 m cl s 598 1670 m -168 X s 430 1670 m cl s 621 1670 m
 168 X s 789 1670 m cl s 600 1614 m -167 X s 433 1614 m cl s 622 1614 m 166 X s 788 1614 m cl s 592 1559 m -168 X s 424 1559 m cl s 615 1559 m 168 X s 783 1559 m cl s 602 1504 m -166 X s 436 1504 m cl s 624 1504 m 165 X s 789 1504 m cl s 595 1449 m
 -168 X s 427 1449 m cl s 618 1449 m 168 X s 786 1449 m cl s 600 1394 m -168 X s 432 1394 m cl s 622 1394 m 168 X s 790 1394 m cl s 400 1339 m -159 X s 241 1339 m cl s 423 1339 m 159 X s 582 1339 m cl s 446 1284 m -140 X s 306 1284 m cl s 469 1284 m
 141 X s 610 1284 m cl s 600 1229 m -168 X s 432 1229 m cl s 623 1229 m 168 X s 791 1229 m cl s 643 1174 m -120 X s 523 1174 m cl s 666 1174 m 119 X s 785 1174 m cl s 604 1119 m -168 X s 436 1119 m cl s 627 1119 m 168 X s 795 1119 m cl s 586 1063 m
 -156 X s 430 1063 m cl s 609 1063 m 156 X s 765 1063 m cl s 600 1008 m -161 X s 439 1008 m cl s 623 1008 m 160 X s 783 1008 m cl s /w 27 def /w2 {w 2 div} def /w3 {w 3 div} def 619 2165 292 2110 662 2055 517 2000 609 1945 604 1890 609 1835 609 1780
 609 1725 609 1670 611 1614 604 1559 613 1504 607 1449 611 1394 411 1339 458 1284 611 1229 654 1174 616 1119 597 1063 611 1008 22 { m20} R 1 0 0 c 610 2176 m -151 X s 459 2176 m cl s 633 2176 m 152 X s 785 2176 m cl s 298 2121 m -148 X s 150 2121 m
 cl s 320 2121 m 148 X s 468 2121 m cl s 652 2066 m -154 X s 498 2066 m cl s 675 2066 m 153 X s 828 2066 m cl s 504 2011 m -161 X s 343 2011 m cl s 526 2011 m 161 X s 687 2011 m cl s 598 1956 m -168 X s 430 1956 m cl s 621 1956 m 168 X s 789 1956 m
 cl s 593 1901 m -168 X s 425 1901 m cl s 615 1901 m 169 X s 784 1901 m cl s 598 1846 m -168 X s 430 1846 m cl s 621 1846 m 168 X s 789 1846 m cl s 598 1791 m -168 X s 430 1791 m cl s 621 1791 m 168 X s 789 1791 m cl s 598 1736 m -168 X s 430 1736 m
 cl s 621 1736 m 168 X s 789 1736 m cl s 598 1681 m -168 X s 430 1681 m cl s 621 1681 m 168 X s 789 1681 m cl s 603 1625 m -166 X s 437 1625 m cl s 626 1625 m 166 X s 792 1625 m cl s 592 1570 m -168 X s 424 1570 m cl s 615 1570 m 168 X s 783 1570 m
 cl s 597 1515 m -165 X s 432 1515 m cl s 620 1515 m 165 X s 785 1515 m cl s 595 1460 m -168 X s 427 1460 m cl s 618 1460 m 168 X s 786 1460 m cl s 600 1405 m -167 X s 433 1405 m cl s 623 1405 m 168 X s 791 1405 m cl s 405 1350 m -159 X s 246 1350 m
 cl s 428 1350 m 159 X s 587 1350 m cl s 456 1295 m -142 X s 314 1295 m cl s 478 1295 m 142 X s 620 1295 m cl s 600 1240 m -168 X s 432 1240 m cl s 623 1240 m 168 X s 791 1240 m cl s 649 1185 m -123 X s 526 1185 m cl s 672 1185 m 123 X s 795 1185 m
 cl s 604 1130 m -168 X s 436 1130 m cl s 627 1130 m 168 X s 795 1130 m cl s 590 1074 m -156 X s 434 1074 m cl s 612 1074 m 156 X s 768 1074 m cl s 607 1019 m -161 X s 446 1019 m cl s 630 1019 m 161 X s 791 1019 m cl s 596 964 m -168 X s 428 964 m cl
 s 618 964 m 169 X s 787 964 m cl s 600 909 m -168 X s 432 909 m cl s 623 909 m 168 X s 791 909 m cl s 599 854 m -167 X s 432 854 m cl s 622 854 m 166 X s 788 854 m cl s 598 799 m -168 X s 430 799 m cl s 621 799 m 168 X s 789 799 m cl s 598 744 m
 -168 X s 430 744 m cl s 621 744 m 168 X s 789 744 m cl s 598 689 m -168 X s 430 689 m cl s 621 689 m 168 X s 789 689 m cl s 596 634 m -168 X s 428 634 m cl s 619 634 m 168 X s 787 634 m cl s 598 579 m -168 X s 430 579 m cl s 621 579 m 168 X s 789
 579 m cl s 598 523 m -168 X s 430 523 m cl s 621 523 m 168 X s 789 523 m cl s 598 468 m -168 X s 430 468 m cl s 621 468 m 168 X s 789 468 m cl s 598 413 m -168 X s 430 413 m cl s 621 413 m 168 X s 789 413 m cl s 598 358 m -168 X s 430 358 m cl s 621
 358 m 168 X s 789 358 m cl s 598 303 m -168 X s 430 303 m cl s 621 303 m 168 X s 789 303 m cl s 598 248 m -168 X s 430 248 m cl s 621 248 m 168 X s 789 248 m cl s 598 193 m -168 X s 430 193 m cl s 620 193 m 168 X s 788 193 m cl s 598 138 m -168 X s
 430 138 m cl s 620 138 m 168 X s 788 138 m cl s black 1 0 0 c 622 2176 309 2121 663 2066 515 2011 610 1956 604 1901 609 1846 610 1791 609 1736 610 1681 614 1625 604 1570 609 1515 606 1460 612 1405 417 1350 467 1295 611 1240 660 1185 615 1130 601
 1074 618 1019 607 964 611 909 610 854 609 799 610 744 609 689 607 634 609 579 609 523 609 468 609 413 609 358 609 303 609 248 609 193 609 138 38 { m24} R black
 gsave  2268 2342 0 0 C 1150.95 2165.16 t 0 r /Helvetica findfont 45.5822 sf 0 0 m (Luminosity) show NC gr 
 gsave  2268 2342 0 0 C 1150.95 2108.18 t 0 r /Helvetica findfont 45.5822 sf 0 0 m (JES BJES) show NC gr 
 gsave  2268 2342 0 0 C 1150.95 2054.05 t 0 r /Helvetica findfont 45.5822 sf 0 0 m (JES effective NP 1) show NC gr 
 gsave  2268 2342 0 0 C 1150.95 1999.92 t 0 r /Helvetica findfont 45.5822 sf 0 0 m (JES effective NP 2) show NC gr 
 gsave  2268 2342 0 0 C 1150.95 1942.94 t 0 r /Helvetica findfont 45.5822 sf 0 0 m (JES effective NP 3) show NC gr 
 gsave  2268 2342 0 0 C 1150.95 1888.81 t 0 r /Helvetica findfont 45.5822 sf 0 0 m (JES effective NP 4) show NC gr 
 gsave  2268 2342 0 0 C 1150.95 1834.69 t 0 r /Helvetica findfont 45.5822 sf 0 0 m (JES effective NP 5) show NC gr 
 gsave  2268 2342 0 0 C 1150.95 1777.71 t 0 r /Helvetica findfont 45.5822 sf 0 0 m (JES effective NP 6) show NC gr 
 gsave  2268 2342 0 0 C 1150.95 1723.58 t 0 r /Helvetica findfont 45.5822 sf 0 0 m (JES effective NP 7) show NC gr 
 gsave  2268 2342 0 0 C 1150.95 1669.45 t 0 r /Helvetica findfont 45.5822 sf 0 0 m (JES effective NP 8) show NC gr 
 gsave  2268 2342 0 0 C 1273.45 1612.47 t 0 r /Helvetica findfont 45.5822 sf 0 0 m ( intercalibration modelling) show NC gr 
 gsave  2268 2342 0 0 C 1247.81 1612.47 t 0 r /Symbol findfont 45.5822 sf 0 0 m (h) show NC gr 
 gsave  2268 2342 0 0 C 1150.95 1612.47 t 0 r /Helvetica findfont 45.5822 sf 0 0 m (JES ) show NC gr 
 gsave  2268 2342 0 0 C 1273.45 1558.34 t 0 r /Helvetica findfont 45.5822 sf 0 0 m ( intercalibration total stat) show NC gr 
 gsave  2268 2342 0 0 C 1247.81 1558.34 t 0 r /Symbol findfont 45.5822 sf 0 0 m (h) show NC gr 
 gsave  2268 2342 0 0 C 1150.95 1558.34 t 0 r /Helvetica findfont 45.5822 sf 0 0 m (JES ) show NC gr 
 gsave  2268 2342 0 0 C 1150.95 1504.21 t 0 r /Helvetica findfont 45.5822 sf 0 0 m (JES flavour response) show NC gr 
 gsave  2268 2342 0 0 C 1507.06 1447.24 t 0 r /Symbol findfont 45.5822 sf 0 0 m (m) show NC gr 
 gsave  2268 2342 0 0 C 1150.95 1447.24 t 0 r /Helvetica findfont 45.5822 sf 0 0 m (JES pileup offset ) show NC gr 
 gsave  2268 2342 0 0 C 1150.95 1393.11 t 0 r /Helvetica findfont 45.5822 sf 0 0 m (JES pileup offset NPV) show NC gr 
 gsave  2268 2342 0 0 C 1150.95 1338.98 t 0 r /Helvetica findfont 45.5822 sf 0 0 m (JES pileup pT term) show NC gr 
 gsave  2268 2342 0 0 C 1407.35 1282 t 0 r /Helvetica findfont 45.5822 sf 0 0 m ( topology) show NC gr 
 gsave  2268 2342 0 0 C 1384.56 1282 t 0 r /Symbol findfont 45.5822 sf 0 0 m (r) show NC gr 
 gsave  2268 2342 0 0 C 1150.95 1282 t 0 r /Helvetica findfont 45.5822 sf 0 0 m (JES pileup ) show NC gr 
 gsave  2268 2342 0 0 C 1273.45 1227.87 t 0 r /Helvetica findfont 45.5822 sf 0 0 m ( intercalibration non\255closure) show NC gr 
 gsave  2268 2342 0 0 C 1247.81 1227.87 t 0 r /Symbol findfont 45.5822 sf 0 0 m (h) show NC gr 
 gsave  2268 2342 0 0 C 1150.95 1227.87 t 0 r /Helvetica findfont 45.5822 sf 0 0 m (JES ) show NC gr 
 gsave  2268 2342 0 0 C 1150.95 1170.89 t 0 r /Helvetica findfont 45.5822 sf 0 0 m (JES flavour composition) show NC gr 
 gsave  2268 2342 0 0 C 1150.95 1116.77 t 0 r /Helvetica findfont 45.5822 sf 0 0 m (Jet vertex tagger efficiency) show NC gr 
 gsave  2268 2342 0 0 C 1150.95 1062.64 t 0 r /Helvetica findfont 45.5822 sf 0 0 m (Jet energy resolution) show NC gr 
 gsave  2268 2342 0 0 C 1150.95 1005.66 t 0 r /Helvetica findfont 45.5822 sf 0 0 m (Pileup modelling) show NC gr 
 gsave  2268 2342 0 0 C 1150.95 951.529 t 0 r /Helvetica findfont 45.5822 sf 0 0 m (Electron energy resolution) show NC gr 
 gsave  2268 2342 0 0 C 1150.95 897.4 t 0 r /Helvetica findfont 45.5822 sf 0 0 m (Electron energy scale) show NC gr 
 gsave  2268 2342 0 0 C 1150.95 840.423 t 0 r /Helvetica findfont 45.5822 sf 0 0 m (Electron ID efficiency) show NC gr 
 gsave  2268 2342 0 0 C 1150.95 786.294 t 0 r /Helvetica findfont 45.5822 sf 0 0 m (Electron isolation efficiency) show NC gr 
 gsave  2268 2342 0 0 C 1150.95 732.165 t 0 r /Helvetica findfont 45.5822 sf 0 0 m (Electron reconstruction efficiency) show NC gr 
 gsave  2268 2342 0 0 C 1150.95 675.187 t 0 r /Helvetica findfont 45.5822 sf 0 0 m (Muon energy resolution \(ID\)) show NC gr 
 gsave  2268 2342 0 0 C 1150.95 621.058 t 0 r /Helvetica findfont 45.5822 sf 0 0 m (Muon energy resolution \(MS\)) show NC gr 
 gsave  2268 2342 0 0 C 1150.95 566.929 t 0 r /Helvetica findfont 45.5822 sf 0 0 m (Muon energy scale) show NC gr 
 gsave  2268 2342 0 0 C 1150.95 509.951 t 0 r /Helvetica findfont 45.5822 sf 0 0 m (Muon ID efficiency \(syst\)) show NC gr 
 gsave  2268 2342 0 0 C 1150.95 455.822 t 0 r /Helvetica findfont 45.5822 sf 0 0 m (Muon low pT ID efficiency \(stat\)) show NC gr 
 gsave  2268 2342 0 0 C 1150.95 401.694 t 0 r /Helvetica findfont 45.5822 sf 0 0 m (Muon low pT ID efficiency \(syst\)) show NC gr 
 gsave  2268 2342 0 0 C 1150.95 344.716 t 0 r /Helvetica findfont 45.5822 sf 0 0 m (Muon trig efficiency \(stat\)) show NC gr 
 gsave  2268 2342 0 0 C 1150.95 290.587 t 0 r /Helvetica findfont 45.5822 sf 0 0 m (Muon trig efficiency \(syst\)) show NC gr 
 gsave  2268 2342 0 0 C 1150.95 236.458 t 0 r /Helvetica findfont 45.5822 sf 0 0 m (Muon TTVA efficiency \(stat\)) show NC gr 
 gsave  2268 2342 0 0 C 1150.95 179.48 t 0 r /Helvetica findfont 45.5822 sf 0 0 m (MET soft reso \(para.\)) show NC gr 
 gsave  2268 2342 0 0 C 1150.95 125.351 t 0 r /Helvetica findfont 45.5822 sf 0 0 m (MET soft reso \(perp.\)) show NC gr 
 gsave  2268 2342 0 0 C 230.76 2296.21 t 0 r /Helvetica findfont 56.9778 sf 0 0 m (Simple model) show NC gr  54 2302 m 147 X s 128 2302 m20
 gsave  2268 2342 0 0 C 1119.61 2296.21 t 0 r /Helvetica findfont 56.9778 sf 0 0 m (`Full' model) show NC gr  1 0 0 c 944 2302 m 147 X s 1017 2302 m24 black 85 110 m 1049 X s 248 143 m -33 Y s 284 126 m -16 Y s 320 126 m -16 Y s 356 126 m -16 Y s 392
 126 m -16 Y s 429 143 m -33 Y s 465 126 m -16 Y s 501 126 m -16 Y s 537 126 m -16 Y s 573 126 m -16 Y s 609 143 m -33 Y s 646 126 m -16 Y s 682 126 m -16 Y s 718 126 m -16 Y s 754 126 m -16 Y s 790 143 m -33 Y s 826 126 m -16 Y s 863 126 m -16 Y s
 899 126 m -16 Y s 935 126 m -16 Y s 971 143 m -33 Y s 248 143 m -33 Y s 212 126 m -16 Y s 175 126 m -16 Y s 139 126 m -16 Y s 103 126 m -16 Y s 971 143 m -33 Y s 1007 126 m -16 Y s 1043 126 m -16 Y s 1080 126 m -16 Y s 1116 126 m -16 Y s 85 2204 m
 1049 X s 248 2172 m 32 Y s 284 2188 m 16 Y s 320 2188 m 16 Y s 356 2188 m 16 Y s 392 2188 m 16 Y s 429 2172 m 32 Y s 465 2188 m 16 Y s 501 2188 m 16 Y s 537 2188 m 16 Y s 573 2188 m 16 Y s 609 2172 m 32 Y s 646 2188 m 16 Y s 682 2188 m 16 Y s 718
 2188 m 16 Y s 754 2188 m 16 Y s 790 2172 m 32 Y s 826 2188 m 16 Y s 863 2188 m 16 Y s 899 2188 m 16 Y s 935 2188 m 16 Y s 971 2172 m 32 Y s 248 2172 m 32 Y s 212 2188 m 16 Y s 175 2188 m 16 Y s 139 2188 m 16 Y s 103 2188 m 16 Y s 971 2172 m 32 Y s
 1007 2188 m 16 Y s 1043 2188 m 16 Y s 1080 2188 m 16 Y s 1116 2188 m 16 Y s 85 110 m 2094 Y s
 gr  gr showpage
end
%%EOF
