%!PS-Adobe-2.0 EPSF-2.0
%%BoundingBox:  0 0 567 144
%%Title: : c
%%Creator: ROOT Version 6.04/14
%%CreationDate: Mon Aug 27 15:48:35 2018
%%DocumentNeededResources: ProcSet (FontSetInit)
%%EndComments
%%BeginProlog
80 dict begin
/s {stroke} def /l {lineto} def /m {moveto} def /t {translate} def
/r {rotate} def /rl {roll}  def /R {repeat} def
/d {rlineto} def /rm {rmoveto} def /gr {grestore} def /f {eofill} def
/c {setrgbcolor} def /black {0 setgray} def /sd {setdash} def
/cl {closepath} def /sf {scalefont setfont} def /lw {setlinewidth} def
/box {m dup 0 exch d exch 0 d 0 exch neg d cl} def
/NC{systemdict begin initclip end}def/C{NC box clip newpath}def
/bl {box s} def /bf {gsave box gsave f grestore 1 lw [] 0 sd s grestore} def /Y { 0 exch d} def /X { 0 d} def 
/K {{pop pop 0 moveto} exch kshow} bind def
/ita {/ang 15 def gsave [1 0 ang dup sin exch cos div 1 0 0] concat} def 
/mp {newpath /y exch def /x exch def} def
/side {[w .77 mul w .23 mul] .385 w mul sd w 0 l currentpoint t -144 r} def
/mr {mp x y w2 0 360 arc} def /m24 {mr s} def /m20 {mr f} def
/mb {mp x y w2 add m w2 neg 0 d 0 w neg d w 0 d 0 w d cl} def
/mt {mp x y w2 add m w2 neg w neg d w 0 d cl} def
/m21 {mb f} def /m25 {mb s} def /m22 {mt f} def /m26{mt s} def
/m23 {mp x y w2 sub m w2 w d w neg 0 d cl f} def
/m27 {mp x y w2 add m w3 neg w2 neg d w3 w2 neg d w3 w2 d cl s} def
/m28 {mp x w2 sub y w2 sub w3 add m w3 0 d  0 w3 neg d w3 0 d 0 w3 d w3 0 d  0 w3 d w3 neg 0 d 0 w3 d w3 neg 0 d 0 w3 neg d w3 neg 0 d cl s } def
/m29 {mp gsave x w2 sub y w2 add w3 sub m currentpoint t 4 {side} repeat cl fill gr} def
/m30 {mp gsave x w2 sub y w2 add w3 sub m currentpoint t 4 {side} repeat cl s gr} def
/m31 {mp x y w2 sub m 0 w d x w2 sub y m w 0 d x w2 sub y w2 add m w w neg d x w2 sub y w2 sub m w w d s} def
/m32 {mp x y w2 sub m w2 w d w neg 0 d cl s} def
/m33 {mp x y w2 add m w3 neg w2 neg d w3 w2 neg d w3 w2 d cl f} def
/m34 {mp x w2 sub y w2 sub w3 add m w3 0 d  0 w3 neg d w3 0 d 0 w3 d w3 0 d  0 w3 d w3 neg 0 d 0 w3 d w3 neg 0 d 0 w3 neg d w3 neg 0 d cl f } def
/m2 {mp x y w2 sub m 0 w d x w2 sub y m w 0 d s} def
/m5 {mp x w2 sub y w2 sub m w w d x w2 sub y w2 add m w w neg d s} def
%%IncludeResource: ProcSet (FontSetInit)
%%IncludeResource: font Times-Roman
%%IncludeResource: font Times-Italic
%%IncludeResource: font Times-Bold
%%IncludeResource: font Times-BoldItalic
%%IncludeResource: font Helvetica
%%IncludeResource: font Helvetica-Oblique
%%IncludeResource: font Helvetica-Bold
%%IncludeResource: font Helvetica-BoldOblique
%%IncludeResource: font Courier
%%IncludeResource: font Courier-Oblique
%%IncludeResource: font Courier-Bold
%%IncludeResource: font Courier-BoldOblique
%%IncludeResource: font Symbol
%%IncludeResource: font ZapfDingbats
/reEncode {exch findfont dup length dict begin {1 index /FID eq  {pop pop} {def} ifelse } forall /Encoding exch def currentdict end dup /FontName get exch definefont pop } def [/Times-Bold /Times-Italic /Times-BoldItalic /Helvetica /Helvetica-Oblique
 /Helvetica-Bold /Helvetica-BoldOblique /Courier /Courier-Oblique /Courier-Bold /Courier-BoldOblique /Times-Roman /AvantGarde-Book /AvantGarde-BookOblique /AvantGarde-Demi /AvantGarde-DemiOblique /Bookman-Demi /Bookman-DemiItalic /Bookman-Light
 /Bookman-LightItalic /Helvetica-Narrow /Helvetica-Narrow-Bold /Helvetica-Narrow-BoldOblique /Helvetica-Narrow-Oblique /NewCenturySchlbk-Roman /NewCenturySchlbk-Bold /NewCenturySchlbk-BoldItalic /NewCenturySchlbk-Italic /Palatino-Bold
 /Palatino-BoldItalic /Palatino-Italic /Palatino-Roman ] {ISOLatin1Encoding reEncode } forall
%%EndProlog
%%BeginSetup
%%EndSetup
newpath  gsave  .25 .25 scale  gsave  0 0 t black[  ] 0 sd 3 lw 1 1 1 c 2268 575 0 0 bf black 1 1 1 c 1049 350 85 100 bf black 1049 350 85 100 bl 1 1 1 c 1049 350 85 100 bf black 1049 350 85 100 bl 1 1 1 c black 3 lw 85 100 m 1049 X s 248 108 m -8 Y
 s 284 104 m -4 Y s 320 104 m -4 Y s 356 104 m -4 Y s 392 104 m -4 Y s 429 108 m -8 Y s 465 104 m -4 Y s 501 104 m -4 Y s 537 104 m -4 Y s 573 104 m -4 Y s 609 108 m -8 Y s 646 104 m -4 Y s 682 104 m -4 Y s 718 104 m -4 Y s 754 104 m -4 Y s 790 108 m
 -8 Y s 826 104 m -4 Y s 863 104 m -4 Y s 899 104 m -4 Y s 935 104 m -4 Y s 971 108 m -8 Y s 248 108 m -8 Y s 212 104 m -4 Y s 175 104 m -4 Y s 139 104 m -4 Y s 103 104 m -4 Y s 971 108 m -8 Y s 1007 104 m -4 Y s 1043 104 m -4 Y s 1080 104 m -4 Y s
 1116 104 m -4 Y s
 gsave  2268 575 0 0 C 242.156 56.9778 t 0 r /Helvetica findfont 51.28 sf 0 0 m (2) show NC gr 
 gsave  2268 575 0 0 C 216.516 56.9778 t 0 r /Symbol findfont 51.28 sf 0 0 m (-) show NC gr 
 gsave  2268 575 0 0 C 430.182 56.9778 t 0 r /Helvetica findfont 51.28 sf 0 0 m (1) show NC gr 
 gsave  2268 575 0 0 C 401.694 56.9778 t 0 r /Symbol findfont 51.28 sf 0 0 m (-) show NC gr 
 gsave  2268 575 0 0 C 592.569 56.9778 t 0 r /Helvetica findfont 51.28 sf 0 0 m (0) show NC gr 
 gsave  2268 575 0 0 C 777.747 56.9778 t 0 r /Helvetica findfont 51.28 sf 0 0 m (1) show NC gr 
 gsave  2268 575 0 0 C 954.378 56.9778 t 0 r /Helvetica findfont 51.28 sf 0 0 m (2) show NC gr  85 450 m 1049 X s 248 442 m 8 Y s 284 446 m 4 Y s 320 446 m 4 Y s 356 446 m 4 Y s 392 446 m 4 Y s 429 442 m 8 Y s 465 446 m 4 Y s 501 446 m 4 Y s 537 446
 m 4 Y s 573 446 m 4 Y s 609 442 m 8 Y s 646 446 m 4 Y s 682 446 m 4 Y s 718 446 m 4 Y s 754 446 m 4 Y s 790 442 m 8 Y s 826 446 m 4 Y s 863 446 m 4 Y s 899 446 m 4 Y s 935 446 m 4 Y s 971 442 m 8 Y s 248 442 m 8 Y s 212 446 m 4 Y s 175 446 m 4 Y s
 139 446 m 4 Y s 103 446 m 4 Y s 971 442 m 8 Y s 1007 446 m 4 Y s 1043 446 m 4 Y s 1080 446 m 4 Y s 1116 446 m 4 Y s 85 100 m 350 Y s 1 1 0 c 723 350 248 100 bf black 0 1 0 c 361 350 429 100 bf black[ 20 20] 0 sd 609 100 m 350 Y s[  ] 0 sd 341 415 m
 -149 X s 192 415 m cl s 364 415 m 148 X s 512 415 m cl s 625 365 m -165 X s 460 365 m cl s 648 365 m 166 X s 814 365 m cl s 517 315 m -160 X s 357 315 m cl s 540 315 m 160 X s 700 315 m cl s 436 265 m -159 X s 277 265 m cl s 459 265 m 159 X s 618
 265 m cl s 460 215 m -140 X s 320 215 m cl s 483 215 m 140 X s 623 215 m cl s 651 165 m -121 X s 530 165 m cl s 674 165 m 121 X s 795 165 m cl s 616 115 m -162 X s 454 115 m cl s 639 115 m 162 X s 801 115 m cl s /w 27 def /w2 {w 2 div} def /w3 {w 3
 div} def 352 415 637 365 529 315 447 265 471 215 662 165 628 115 7 { m20} R 1 0 0 c 491 425 m -156 X s 335 425 m cl s 514 425 m 156 X s 670 425 m cl s 683 375 m -165 X s 518 375 m cl s 706 375 m 166 X s 872 375 m cl s 624 325 m -161 X s 463 325 m cl
 s 647 325 m 161 X s 808 325 m cl s 618 275 m -163 X s 455 275 m cl s 641 275 m 163 X s 804 275 m cl s 550 225 m -137 X s 413 225 m cl s 573 225 m 137 X s 710 225 m cl s 591 175 m -114 X s 477 175 m cl s 614 175 m 113 X s 727 175 m cl s 710 125 m
 -161 X s 549 125 m cl s 733 125 m 161 X s 894 125 m cl s black 1 0 0 c 502 425 695 375 636 325 630 275 561 225 602 175 721 125 7 { m24} R black
 gsave  2268 575 0 0 C 1150.95 413.089 t 0 r /Helvetica findfont 45.5822 sf 0 0 m (JES BJES) show NC gr 
 gsave  2268 575 0 0 C 1273.45 364.658 t 0 r /Helvetica findfont 45.5822 sf 0 0 m ( intercalibration modelling) show NC gr 
 gsave  2268 575 0 0 C 1247.81 364.658 t 0 r /Symbol findfont 45.5822 sf 0 0 m (h) show NC gr 
 gsave  2268 575 0 0 C 1150.95 364.658 t 0 r /Helvetica findfont 45.5822 sf 0 0 m (JES ) show NC gr 
 gsave  2268 575 0 0 C 1150.95 313.378 t 0 r /Helvetica findfont 45.5822 sf 0 0 m (JES effective NP 2) show NC gr 
 gsave  2268 575 0 0 C 1150.95 264.947 t 0 r /Helvetica findfont 45.5822 sf 0 0 m (JES pileup pT term) show NC gr 
 gsave  2268 575 0 0 C 1407.35 213.667 t 0 r /Helvetica findfont 45.5822 sf 0 0 m ( topology) show NC gr 
 gsave  2268 575 0 0 C 1384.56 213.667 t 0 r /Symbol findfont 45.5822 sf 0 0 m (r) show NC gr 
 gsave  2268 575 0 0 C 1150.95 213.667 t 0 r /Helvetica findfont 45.5822 sf 0 0 m (JES pileup ) show NC gr 
 gsave  2268 575 0 0 C 1150.95 165.236 t 0 r /Helvetica findfont 45.5822 sf 0 0 m (JES flavour composition) show NC gr 
 gsave  2268 575 0 0 C 1150.95 113.956 t 0 r /Helvetica findfont 45.5822 sf 0 0 m (Pileup modelling) show NC gr 
 gsave  2268 575 0 0 C 230.76 521.347 t 0 r /Helvetica findfont 56.9778 sf 0 0 m (MG5 Gen NPs) show NC gr  54 536 m 147 X s 128 536 m20
 gsave  2268 575 0 0 C 1071.18 521.347 t 0 r /Helvetica findfont 56.9778 sf 0 0 m (Sherpa5F NPs) show NC gr  1 0 0 c 893 536 m 147 X s 967 536 m24 black 85 100 m 1049 X s 248 108 m -8 Y s 284 104 m -4 Y s 320 104 m -4 Y s 356 104 m -4 Y s 392 104 m
 -4 Y s 429 108 m -8 Y s 465 104 m -4 Y s 501 104 m -4 Y s 537 104 m -4 Y s 573 104 m -4 Y s 609 108 m -8 Y s 646 104 m -4 Y s 682 104 m -4 Y s 718 104 m -4 Y s 754 104 m -4 Y s 790 108 m -8 Y s 826 104 m -4 Y s 863 104 m -4 Y s 899 104 m -4 Y s 935
 104 m -4 Y s 971 108 m -8 Y s 248 108 m -8 Y s 212 104 m -4 Y s 175 104 m -4 Y s 139 104 m -4 Y s 103 104 m -4 Y s 971 108 m -8 Y s 1007 104 m -4 Y s 1043 104 m -4 Y s 1080 104 m -4 Y s 1116 104 m -4 Y s 85 450 m 1049 X s 248 442 m 8 Y s 284 446 m 4
 Y s 320 446 m 4 Y s 356 446 m 4 Y s 392 446 m 4 Y s 429 442 m 8 Y s 465 446 m 4 Y s 501 446 m 4 Y s 537 446 m 4 Y s 573 446 m 4 Y s 609 442 m 8 Y s 646 446 m 4 Y s 682 446 m 4 Y s 718 446 m 4 Y s 754 446 m 4 Y s 790 442 m 8 Y s 826 446 m 4 Y s 863
 446 m 4 Y s 899 446 m 4 Y s 935 446 m 4 Y s 971 442 m 8 Y s 248 442 m 8 Y s 212 446 m 4 Y s 175 446 m 4 Y s 139 446 m 4 Y s 103 446 m 4 Y s 971 442 m 8 Y s 1007 446 m 4 Y s 1043 446 m 4 Y s 1080 446 m 4 Y s 1116 446 m 4 Y s 85 100 m 350 Y s
 gr  gr showpage
end
%%EOF
