%!PS-Adobe-2.0 EPSF-2.0
%%BoundingBox:  0 0 385 737
%%Title: : c
%%Creator: ROOT Version 6.04/14
%%CreationDate: Sun Aug 26 15:45:45 2018
%%DocumentNeededResources: ProcSet (FontSetInit)
%%EndComments
%%BeginProlog
80 dict begin
/s {stroke} def /l {lineto} def /m {moveto} def /t {translate} def
/r {rotate} def /rl {roll}  def /R {repeat} def
/d {rlineto} def /rm {rmoveto} def /gr {grestore} def /f {eofill} def
/c {setrgbcolor} def /black {0 setgray} def /sd {setdash} def
/cl {closepath} def /sf {scalefont setfont} def /lw {setlinewidth} def
/box {m dup 0 exch d exch 0 d 0 exch neg d cl} def
/NC{systemdict begin initclip end}def/C{NC box clip newpath}def
/bl {box s} def /bf {gsave box gsave f grestore 1 lw [] 0 sd s grestore} def /Y { 0 exch d} def /X { 0 d} def 
/K {{pop pop 0 moveto} exch kshow} bind def
/ita {/ang 15 def gsave [1 0 ang dup sin exch cos div 1 0 0] concat} def 
/mp {newpath /y exch def /x exch def} def
/side {[w .77 mul w .23 mul] .385 w mul sd w 0 l currentpoint t -144 r} def
/mr {mp x y w2 0 360 arc} def /m24 {mr s} def /m20 {mr f} def
/mb {mp x y w2 add m w2 neg 0 d 0 w neg d w 0 d 0 w d cl} def
/mt {mp x y w2 add m w2 neg w neg d w 0 d cl} def
/m21 {mb f} def /m25 {mb s} def /m22 {mt f} def /m26{mt s} def
/m23 {mp x y w2 sub m w2 w d w neg 0 d cl f} def
/m27 {mp x y w2 add m w3 neg w2 neg d w3 w2 neg d w3 w2 d cl s} def
/m28 {mp x w2 sub y w2 sub w3 add m w3 0 d  0 w3 neg d w3 0 d 0 w3 d w3 0 d  0 w3 d w3 neg 0 d 0 w3 d w3 neg 0 d 0 w3 neg d w3 neg 0 d cl s } def
/m29 {mp gsave x w2 sub y w2 add w3 sub m currentpoint t 4 {side} repeat cl fill gr} def
/m30 {mp gsave x w2 sub y w2 add w3 sub m currentpoint t 4 {side} repeat cl s gr} def
/m31 {mp x y w2 sub m 0 w d x w2 sub y m w 0 d x w2 sub y w2 add m w w neg d x w2 sub y w2 sub m w w d s} def
/m32 {mp x y w2 sub m w2 w d w neg 0 d cl s} def
/m33 {mp x y w2 add m w3 neg w2 neg d w3 w2 neg d w3 w2 d cl f} def
/m34 {mp x w2 sub y w2 sub w3 add m w3 0 d  0 w3 neg d w3 0 d 0 w3 d w3 0 d  0 w3 d w3 neg 0 d 0 w3 d w3 neg 0 d 0 w3 neg d w3 neg 0 d cl f } def
/m2 {mp x y w2 sub m 0 w d x w2 sub y m w 0 d s} def
/m5 {mp x w2 sub y w2 sub m w w d x w2 sub y w2 add m w w neg d s} def
%%IncludeResource: ProcSet (FontSetInit)
%%IncludeResource: font Times-Roman
%%IncludeResource: font Times-Italic
%%IncludeResource: font Times-Bold
%%IncludeResource: font Times-BoldItalic
%%IncludeResource: font Helvetica
%%IncludeResource: font Helvetica-Oblique
%%IncludeResource: font Helvetica-Bold
%%IncludeResource: font Helvetica-BoldOblique
%%IncludeResource: font Courier
%%IncludeResource: font Courier-Oblique
%%IncludeResource: font Courier-Bold
%%IncludeResource: font Courier-BoldOblique
%%IncludeResource: font Symbol
%%IncludeResource: font ZapfDingbats
/reEncode {exch findfont dup length dict begin {1 index /FID eq  {pop pop} {def} ifelse } forall /Encoding exch def currentdict end dup /FontName get exch definefont pop } def [/Times-Bold /Times-Italic /Times-BoldItalic /Helvetica /Helvetica-Oblique
 /Helvetica-Bold /Helvetica-BoldOblique /Courier /Courier-Oblique /Courier-Bold /Courier-BoldOblique /Times-Roman /AvantGarde-Book /AvantGarde-BookOblique /AvantGarde-Demi /AvantGarde-DemiOblique /Bookman-Demi /Bookman-DemiItalic /Bookman-Light
 /Bookman-LightItalic /Helvetica-Narrow /Helvetica-Narrow-Bold /Helvetica-Narrow-BoldOblique /Helvetica-Narrow-Oblique /NewCenturySchlbk-Roman /NewCenturySchlbk-Bold /NewCenturySchlbk-BoldItalic /NewCenturySchlbk-Italic /Palatino-Bold
 /Palatino-BoldItalic /Palatino-Italic /Palatino-Roman ] {ISOLatin1Encoding reEncode } forall
%%EndProlog
%%BeginSetup
%%EndSetup
newpath  gsave  .25 .25 scale  gsave  0 0 t black[  ] 0 sd 3 lw 1 1 1 c 1542 2948 0 0 bf black 1 1 1 c 713 2777 58 76 bf black 713 2777 58 76 bl 1 1 1 c 713 2777 58 76 bf black 713 2777 58 76 bl 1 1 1 c black 3 lw 58 76 m 713 X s 168 117 m -41 Y s
 193 97 m -21 Y s 218 97 m -21 Y s 242 97 m -21 Y s 267 97 m -21 Y s 291 117 m -41 Y s 316 97 m -21 Y s 341 97 m -21 Y s 365 97 m -21 Y s 390 97 m -21 Y s 414 117 m -41 Y s 439 97 m -21 Y s 464 97 m -21 Y s 488 97 m -21 Y s 513 97 m -21 Y s 537 117 m
 -41 Y s 562 97 m -21 Y s 586 97 m -21 Y s 611 97 m -21 Y s 636 97 m -21 Y s 660 117 m -41 Y s 168 117 m -41 Y s 144 97 m -21 Y s 119 97 m -21 Y s 95 97 m -21 Y s 70 97 m -21 Y s 660 117 m -41 Y s 685 97 m -21 Y s 709 97 m -21 Y s 734 97 m -21 Y s
 759 97 m -21 Y s
 gsave  1542 2948 0 0 C 164.64 32.9281 t 0 r /Helvetica findfont 34.865 sf 0 0 m (2) show NC gr 
 gsave  1542 2948 0 0 C 147.208 32.9281 t 0 r /Symbol findfont 34.865 sf 0 0 m (-) show NC gr 
 gsave  1542 2948 0 0 C 292.479 32.9281 t 0 r /Helvetica findfont 34.865 sf 0 0 m (1) show NC gr 
 gsave  1542 2948 0 0 C 273.109 32.9281 t 0 r /Symbol findfont 34.865 sf 0 0 m (-) show NC gr 
 gsave  1542 2948 0 0 C 402.885 32.9281 t 0 r /Helvetica findfont 34.865 sf 0 0 m (0) show NC gr 
 gsave  1542 2948 0 0 C 528.786 32.9281 t 0 r /Helvetica findfont 34.865 sf 0 0 m (1) show NC gr 
 gsave  1542 2948 0 0 C 648.877 32.9281 t 0 r /Helvetica findfont 34.865 sf 0 0 m (2) show NC gr  58 2853 m 713 X s 168 2812 m 41 Y s 193 2832 m 21 Y s 218 2832 m 21 Y s 242 2832 m 21 Y s 267 2832 m 21 Y s 291 2812 m 41 Y s 316 2832 m 21 Y s 341 2832
 m 21 Y s 365 2832 m 21 Y s 390 2832 m 21 Y s 414 2812 m 41 Y s 439 2832 m 21 Y s 464 2832 m 21 Y s 488 2832 m 21 Y s 513 2832 m 21 Y s 537 2812 m 41 Y s 562 2832 m 21 Y s 586 2832 m 21 Y s 611 2832 m 21 Y s 636 2832 m 21 Y s 660 2812 m 41 Y s 168
 2812 m 41 Y s 144 2832 m 21 Y s 119 2832 m 21 Y s 95 2832 m 21 Y s 70 2832 m 21 Y s 660 2812 m 41 Y s 685 2832 m 21 Y s 709 2832 m 21 Y s 734 2832 m 21 Y s 759 2832 m 21 Y s 58 76 m 2777 Y s 1 1 0 c 492 2777 168 76 bf black 0 1 0 c 246 2777 291 76
 bf black[ 20 20] 0 sd 414 76 m 2777 Y s[  ] 0 sd 407 2830 m -89 X s 318 2830 m cl s 422 2830 m 89 X s 511 2830 m cl s 407 2792 m -111 X s 296 2792 m cl s 422 2792 m 111 X s 533 2792 m cl s 407 2754 m -114 X s 293 2754 m cl s 422 2754 m 114 X s 536
 2754 m cl s 407 2716 m -115 X s 292 2716 m cl s 422 2716 m 114 X s 536 2716 m cl s 407 2678 m -113 X s 294 2678 m cl s 422 2678 m 113 X s 535 2678 m cl s 407 2640 m -114 X s 293 2640 m cl s 422 2640 m 114 X s 536 2640 m cl s 407 2602 m -114 X s 293
 2602 m cl s 422 2602 m 114 X s 536 2602 m cl s 407 2564 m -114 X s 293 2564 m cl s 422 2564 m 114 X s 536 2564 m cl s 407 2526 m -114 X s 293 2526 m cl s 422 2526 m 113 X s 535 2526 m cl s 407 2488 m -115 X s 292 2488 m cl s 422 2488 m 114 X s 536
 2488 m cl s 407 2450 m -115 X s 292 2450 m cl s 422 2450 m 114 X s 536 2450 m cl s 407 2412 m -115 X s 292 2412 m cl s 422 2412 m 114 X s 536 2412 m cl s 407 2374 m -115 X s 292 2374 m cl s 422 2374 m 114 X s 536 2374 m cl s 407 2336 m -115 X s 292
 2336 m cl s 422 2336 m 114 X s 536 2336 m cl s 407 2298 m -115 X s 292 2298 m cl s 422 2298 m 114 X s 536 2298 m cl s 407 2260 m -115 X s 292 2260 m cl s 422 2260 m 114 X s 536 2260 m cl s 407 2221 m -115 X s 292 2221 m cl s 422 2221 m 114 X s 536
 2221 m cl s 407 2183 m -115 X s 292 2183 m cl s 422 2183 m 114 X s 536 2183 m cl s 407 2145 m -115 X s 292 2145 m cl s 422 2145 m 114 X s 536 2145 m cl s 407 2107 m -115 X s 292 2107 m cl s 422 2107 m 114 X s 536 2107 m cl s 407 2069 m -115 X s 292
 2069 m cl s 422 2069 m 114 X s 536 2069 m cl s 407 2031 m -115 X s 292 2031 m cl s 422 2031 m 114 X s 536 2031 m cl s 407 1993 m -115 X s 292 1993 m cl s 422 1993 m 114 X s 536 1993 m cl s 407 1955 m -115 X s 292 1955 m cl s 422 1955 m 114 X s 536
 1955 m cl s 407 1917 m -115 X s 292 1917 m cl s 422 1917 m 114 X s 536 1917 m cl s 407 1879 m -115 X s 292 1879 m cl s 422 1879 m 114 X s 536 1879 m cl s 407 1841 m -68 X s 339 1841 m cl s 422 1841 m 67 X s 489 1841 m cl s 407 1803 m -93 X s 314
 1803 m cl s 422 1803 m 93 X s 515 1803 m cl s 407 1765 m -93 X s 314 1765 m cl s 422 1765 m 93 X s 515 1765 m cl s 407 1727 m -102 X s 305 1727 m cl s 422 1727 m 102 X s 524 1727 m cl s 407 1689 m -114 X s 293 1689 m cl s 422 1689 m 114 X s 536 1689
 m cl s 407 1651 m -114 X s 293 1651 m cl s 422 1651 m 114 X s 536 1651 m cl s 407 1613 m -114 X s 293 1613 m cl s 422 1613 m 114 X s 536 1613 m cl s 407 1575 m -114 X s 293 1575 m cl s 422 1575 m 114 X s 536 1575 m cl s 407 1537 m -115 X s 292 1537
 m cl s 422 1537 m 114 X s 536 1537 m cl s 407 1499 m -115 X s 292 1499 m cl s 422 1499 m 114 X s 536 1499 m cl s 407 1461 m -115 X s 292 1461 m cl s 422 1461 m 114 X s 536 1461 m cl s 407 1423 m -115 X s 292 1423 m cl s 422 1423 m 114 X s 536 1423 m
 cl s 407 1385 m -115 X s 292 1385 m cl s 422 1385 m 114 X s 536 1385 m cl s 407 1347 m -115 X s 292 1347 m cl s 422 1347 m 114 X s 536 1347 m cl s 407 1309 m -115 X s 292 1309 m cl s 422 1309 m 114 X s 536 1309 m cl s 407 1271 m -115 X s 292 1271 m
 cl s 422 1271 m 114 X s 536 1271 m cl s 407 1232 m -115 X s 292 1232 m cl s 422 1232 m 114 X s 536 1232 m cl s 407 1194 m -115 X s 292 1194 m cl s 422 1194 m 114 X s 536 1194 m cl s 407 1156 m -115 X s 292 1156 m cl s 422 1156 m 114 X s 536 1156 m
 cl s 407 1118 m -115 X s 292 1118 m cl s 422 1118 m 114 X s 536 1118 m cl s 407 1080 m -78 X s 329 1080 m cl s 422 1080 m 77 X s 499 1080 m cl s 407 1042 m -105 X s 302 1042 m cl s 422 1042 m 104 X s 526 1042 m cl s 407 1004 m -105 X s 302 1004 m cl
 s 422 1004 m 105 X s 527 1004 m cl s 407 966 m -113 X s 294 966 m cl s 422 966 m 113 X s 535 966 m cl s 407 928 m -104 X s 303 928 m cl s 422 928 m 104 X s 526 928 m cl s 407 890 m -113 X s 294 890 m cl s 422 890 m 113 X s 535 890 m cl s 407 852 m
 -114 X s 293 852 m cl s 422 852 m 114 X s 536 852 m cl s 407 814 m -114 X s 293 814 m cl s 422 814 m 114 X s 536 814 m cl s 407 776 m -114 X s 293 776 m cl s 422 776 m 114 X s 536 776 m cl s 407 738 m -114 X s 293 738 m cl s 422 738 m 114 X s 536
 738 m cl s 407 700 m -115 X s 292 700 m cl s 422 700 m 114 X s 536 700 m cl s 407 662 m -115 X s 292 662 m cl s 422 662 m 114 X s 536 662 m cl s 407 624 m -115 X s 292 624 m cl s 422 624 m 114 X s 536 624 m cl s 407 586 m -115 X s 292 586 m cl s 422
 586 m 114 X s 536 586 m cl s 407 548 m -115 X s 292 548 m cl s 422 548 m 114 X s 536 548 m cl s 407 510 m -115 X s 292 510 m cl s 422 510 m 114 X s 536 510 m cl s 407 472 m -115 X s 292 472 m cl s 422 472 m 114 X s 536 472 m cl s 407 434 m -115 X s
 292 434 m cl s 422 434 m 114 X s 536 434 m cl s 407 396 m -115 X s 292 396 m cl s 422 396 m 114 X s 536 396 m cl s 407 358 m -115 X s 292 358 m cl s 422 358 m 114 X s 536 358 m cl s 407 320 m -115 X s 292 320 m cl s 422 320 m 114 X s 536 320 m cl s
 407 281 m -115 X s 292 281 m cl s 422 281 m 114 X s 536 281 m cl s 407 243 m -115 X s 292 243 m cl s 422 243 m 114 X s 536 243 m cl s 407 205 m -115 X s 292 205 m cl s 422 205 m 114 X s 536 205 m cl s 407 167 m -115 X s 292 167 m cl s 422 167 m 114
 X s 536 167 m cl s 407 129 m -115 X s 292 129 m cl s 422 129 m 114 X s 536 129 m cl s 407 91 m -115 X s 292 91 m cl s 422 91 m 114 X s 536 91 m cl s /w 19 def /w2 {w 2 div} def /w3 {w 3 div} def 414 2830 414 2792 414 2754 414 2716 414 2678 414 2640
 414 2602 414 2564 414 2526 414 2488 414 2450 414 2412 414 2374 414 2336 414 2298 414 2260 414 2221 414 2183 414 2145 414 2107 414 2069 414 2031 414 1993 414 1955 414 1917 414 1879 414 1841 414 1803 414 1765 414 1727 414 1689 414 1651 414 1613 414
 1575 414 1537 414 1499 414 1461 414 1423 414 1385 414 1347 414 1309 414 1271 414 1232 414 1194 414 1156 414 1118 414 1080 414 1042 414 1004 414 966 414 928 414 890 414 852 414 814 414 776 414 738 414 700 414 662 414 624 414 586 414 548 414 510 414
 472 414 434 414 396 414 358 414 320 414 281 414 243 414 205 414 167 414 129 414 91 73 { m20} R
 gsave  1542 2948 0 0 C 782.526 2826 t 0 r /Helvetica findfont 30.9911 sf 0 0 m (b\255tag Eigenvar. 0) show NC gr 
 gsave  1542 2948 0 0 C 782.526 2787.26 t 0 r /Helvetica findfont 30.9911 sf 0 0 m (b\255tag Eigenvar. 1) show NC gr 
 gsave  1542 2948 0 0 C 782.526 2748.53 t 0 r /Helvetica findfont 30.9911 sf 0 0 m (b\255tag Eigenvar. 2) show NC gr 
 gsave  1542 2948 0 0 C 782.526 2711.72 t 0 r /Helvetica findfont 30.9911 sf 0 0 m (b\255tag Eigenvar. 3) show NC gr 
 gsave  1542 2948 0 0 C 782.526 2672.99 t 0 r /Helvetica findfont 30.9911 sf 0 0 m (b\255tag Eigenvar. 4) show NC gr 
 gsave  1542 2948 0 0 C 782.526 2634.25 t 0 r /Helvetica findfont 30.9911 sf 0 0 m (b\255tag Eigenvar. 5) show NC gr 
 gsave  1542 2948 0 0 C 782.526 2597.44 t 0 r /Helvetica findfont 30.9911 sf 0 0 m (b\255tag Eigenvar. 6) show NC gr 
 gsave  1542 2948 0 0 C 782.526 2558.71 t 0 r /Helvetica findfont 30.9911 sf 0 0 m (b\255tag Eigenvar. 7) show NC gr 
 gsave  1542 2948 0 0 C 782.526 2521.9 t 0 r /Helvetica findfont 30.9911 sf 0 0 m (b\255tag Eigenvar. 8) show NC gr 
 gsave  1542 2948 0 0 C 782.526 2483.16 t 0 r /Helvetica findfont 30.9911 sf 0 0 m (b\255tag Eigenvar. 9) show NC gr 
 gsave  1542 2948 0 0 C 782.526 2444.43 t 0 r /Helvetica findfont 30.9911 sf 0 0 m (b\255tag Eigenvar. 10) show NC gr 
 gsave  1542 2948 0 0 C 782.526 2407.62 t 0 r /Helvetica findfont 30.9911 sf 0 0 m (b\255tag Eigenvar. 11) show NC gr 
 gsave  1542 2948 0 0 C 782.526 2368.88 t 0 r /Helvetica findfont 30.9911 sf 0 0 m (b\255tag Eigenvar. 12) show NC gr 
 gsave  1542 2948 0 0 C 782.526 2330.15 t 0 r /Helvetica findfont 30.9911 sf 0 0 m (b\255tag Eigenvar. 13) show NC gr 
 gsave  1542 2948 0 0 C 782.526 2293.34 t 0 r /Helvetica findfont 30.9911 sf 0 0 m (b\255tag Eigenvar. 14) show NC gr 
 gsave  1542 2948 0 0 C 782.526 2254.6 t 0 r /Helvetica findfont 30.9911 sf 0 0 m (b\255tag Eigenvar. 15) show NC gr 
 gsave  1542 2948 0 0 C 782.526 2215.87 t 0 r /Helvetica findfont 30.9911 sf 0 0 m (b\255tag Eigenvar. 16) show NC gr 
 gsave  1542 2948 0 0 C 782.526 2179.06 t 0 r /Helvetica findfont 30.9911 sf 0 0 m (b\255tag Eigenvar. 19) show NC gr 
 gsave  1542 2948 0 0 C 782.526 2140.33 t 0 r /Helvetica findfont 30.9911 sf 0 0 m (b\255tag Eigenvar. 20) show NC gr 
 gsave  1542 2948 0 0 C 782.526 2103.52 t 0 r /Helvetica findfont 30.9911 sf 0 0 m (b\255tag Eigenvar. 22) show NC gr 
 gsave  1542 2948 0 0 C 782.526 2064.78 t 0 r /Helvetica findfont 30.9911 sf 0 0 m (b\255tag Eigenvar. 24) show NC gr 
 gsave  1542 2948 0 0 C 782.526 2026.05 t 0 r /Helvetica findfont 30.9911 sf 0 0 m (b\255tag Eigenvar. 25) show NC gr 
 gsave  1542 2948 0 0 C 782.526 1989.24 t 0 r /Helvetica findfont 30.9911 sf 0 0 m (b\255tag Eigenvar. 26) show NC gr 
 gsave  1542 2948 0 0 C 782.526 1950.5 t 0 r /Helvetica findfont 30.9911 sf 0 0 m (b\255tag Eigenvar. 27) show NC gr 
 gsave  1542 2948 0 0 C 782.526 1911.77 t 0 r /Helvetica findfont 30.9911 sf 0 0 m (b\255tag Eigenvar. 28) show NC gr 
 gsave  1542 2948 0 0 C 782.526 1874.96 t 0 r /Helvetica findfont 30.9911 sf 0 0 m (b\255tag Eigenvar. 29) show NC gr 
 gsave  1542 2948 0 0 C 782.526 1836.22 t 0 r /Helvetica findfont 30.9911 sf 0 0 m (c\255tag Eigenvar. 0) show NC gr 
 gsave  1542 2948 0 0 C 782.526 1797.49 t 0 r /Helvetica findfont 30.9911 sf 0 0 m (c\255tag Eigenvar. 1) show NC gr 
 gsave  1542 2948 0 0 C 782.526 1760.68 t 0 r /Helvetica findfont 30.9911 sf 0 0 m (c\255tag Eigenvar. 2) show NC gr 
 gsave  1542 2948 0 0 C 782.526 1721.94 t 0 r /Helvetica findfont 30.9911 sf 0 0 m (c\255tag Eigenvar. 3) show NC gr 
 gsave  1542 2948 0 0 C 782.526 1685.14 t 0 r /Helvetica findfont 30.9911 sf 0 0 m (c\255tag Eigenvar. 4) show NC gr 
 gsave  1542 2948 0 0 C 782.526 1646.4 t 0 r /Helvetica findfont 30.9911 sf 0 0 m (c\255tag Eigenvar. 5) show NC gr 
 gsave  1542 2948 0 0 C 782.526 1607.67 t 0 r /Helvetica findfont 30.9911 sf 0 0 m (c\255tag Eigenvar. 6) show NC gr 
 gsave  1542 2948 0 0 C 782.526 1570.86 t 0 r /Helvetica findfont 30.9911 sf 0 0 m (c\255tag Eigenvar. 7) show NC gr 
 gsave  1542 2948 0 0 C 782.526 1532.12 t 0 r /Helvetica findfont 30.9911 sf 0 0 m (c\255tag Eigenvar. 8) show NC gr 
 gsave  1542 2948 0 0 C 782.526 1493.39 t 0 r /Helvetica findfont 30.9911 sf 0 0 m (c\255tag Eigenvar. 9) show NC gr 
 gsave  1542 2948 0 0 C 782.526 1456.58 t 0 r /Helvetica findfont 30.9911 sf 0 0 m (c\255tag Eigenvar. 10) show NC gr 
 gsave  1542 2948 0 0 C 782.526 1417.84 t 0 r /Helvetica findfont 30.9911 sf 0 0 m (c\255tag Eigenvar. 11) show NC gr 
 gsave  1542 2948 0 0 C 782.526 1379.11 t 0 r /Helvetica findfont 30.9911 sf 0 0 m (c\255tag Eigenvar. 12) show NC gr 
 gsave  1542 2948 0 0 C 782.526 1342.3 t 0 r /Helvetica findfont 30.9911 sf 0 0 m (c\255tag Eigenvar. 13) show NC gr 
 gsave  1542 2948 0 0 C 782.526 1303.56 t 0 r /Helvetica findfont 30.9911 sf 0 0 m (c\255tag Eigenvar. 14) show NC gr 
 gsave  1542 2948 0 0 C 782.526 1264.83 t 0 r /Helvetica findfont 30.9911 sf 0 0 m (c\255tag Eigenvar. 15) show NC gr 
 gsave  1542 2948 0 0 C 782.526 1228.02 t 0 r /Helvetica findfont 30.9911 sf 0 0 m (c\255tag Eigenvar. 16) show NC gr 
 gsave  1542 2948 0 0 C 782.526 1189.28 t 0 r /Helvetica findfont 30.9911 sf 0 0 m (c\255tag Eigenvar. 17) show NC gr 
 gsave  1542 2948 0 0 C 782.526 1152.48 t 0 r /Helvetica findfont 30.9911 sf 0 0 m (c\255tag Eigenvar. 18) show NC gr 
 gsave  1542 2948 0 0 C 782.526 1113.74 t 0 r /Helvetica findfont 30.9911 sf 0 0 m (c\255tag Eigenvar. 19) show NC gr 
 gsave  1542 2948 0 0 C 782.526 1075 t 0 r /Helvetica findfont 30.9911 sf 0 0 m (light\255tag Eigenvar. 0) show NC gr 
 gsave  1542 2948 0 0 C 782.526 1038.2 t 0 r /Helvetica findfont 30.9911 sf 0 0 m (light\255tag Eigenvar. 1) show NC gr 
 gsave  1542 2948 0 0 C 782.526 999.464 t 0 r /Helvetica findfont 30.9911 sf 0 0 m (light\255tag Eigenvar. 2) show NC gr 
 gsave  1542 2948 0 0 C 782.526 960.725 t 0 r /Helvetica findfont 30.9911 sf 0 0 m (light\255tag Eigenvar. 3) show NC gr 
 gsave  1542 2948 0 0 C 782.526 923.923 t 0 r /Helvetica findfont 30.9911 sf 0 0 m (light\255tag Eigenvar. 4) show NC gr 
 gsave  1542 2948 0 0 C 782.526 885.184 t 0 r /Helvetica findfont 30.9911 sf 0 0 m (light\255tag Eigenvar. 5) show NC gr 
 gsave  1542 2948 0 0 C 782.526 846.445 t 0 r /Helvetica findfont 30.9911 sf 0 0 m (light\255tag Eigenvar. 6) show NC gr 
 gsave  1542 2948 0 0 C 782.526 809.643 t 0 r /Helvetica findfont 30.9911 sf 0 0 m (light\255tag Eigenvar. 7) show NC gr 
 gsave  1542 2948 0 0 C 782.526 770.904 t 0 r /Helvetica findfont 30.9911 sf 0 0 m (light\255tag Eigenvar. 8) show NC gr 
 gsave  1542 2948 0 0 C 782.526 734.102 t 0 r /Helvetica findfont 30.9911 sf 0 0 m (light\255tag Eigenvar. 9) show NC gr 
 gsave  1542 2948 0 0 C 782.526 695.364 t 0 r /Helvetica findfont 30.9911 sf 0 0 m (light\255tag Eigenvar. 10) show NC gr 
 gsave  1542 2948 0 0 C 782.526 656.625 t 0 r /Helvetica findfont 30.9911 sf 0 0 m (light\255tag Eigenvar. 11) show NC gr 
 gsave  1542 2948 0 0 C 782.526 619.823 t 0 r /Helvetica findfont 30.9911 sf 0 0 m (light\255tag Eigenvar. 12) show NC gr 
 gsave  1542 2948 0 0 C 782.526 581.084 t 0 r /Helvetica findfont 30.9911 sf 0 0 m (light\255tag Eigenvar. 13) show NC gr 
 gsave  1542 2948 0 0 C 782.526 542.345 t 0 r /Helvetica findfont 30.9911 sf 0 0 m (light\255tag Eigenvar. 14) show NC gr 
 gsave  1542 2948 0 0 C 782.526 505.543 t 0 r /Helvetica findfont 30.9911 sf 0 0 m (light\255tag Eigenvar. 15) show NC gr 
 gsave  1542 2948 0 0 C 782.526 466.804 t 0 r /Helvetica findfont 30.9911 sf 0 0 m (light\255tag Eigenvar. 16) show NC gr 
 gsave  1542 2948 0 0 C 782.526 428.065 t 0 r /Helvetica findfont 30.9911 sf 0 0 m (light\255tag Eigenvar. 17) show NC gr 
 gsave  1542 2948 0 0 C 782.526 391.263 t 0 r /Helvetica findfont 30.9911 sf 0 0 m (light\255tag Eigenvar. 18) show NC gr 
 gsave  1542 2948 0 0 C 782.526 352.524 t 0 r /Helvetica findfont 30.9911 sf 0 0 m (light\255tag Eigenvar. 19) show NC gr 
 gsave  1542 2948 0 0 C 782.526 315.722 t 0 r /Helvetica findfont 30.9911 sf 0 0 m (light\255tag Eigenvar. 20) show NC gr 
 gsave  1542 2948 0 0 C 782.526 276.983 t 0 r /Helvetica findfont 30.9911 sf 0 0 m (light\255tag Eigenvar. 21) show NC gr 
 gsave  1542 2948 0 0 C 782.526 238.244 t 0 r /Helvetica findfont 30.9911 sf 0 0 m (light\255tag Eigenvar. 22) show NC gr 
 gsave  1542 2948 0 0 C 782.526 201.442 t 0 r /Helvetica findfont 30.9911 sf 0 0 m (light\255tag Eigenvar. 23) show NC gr 
 gsave  1542 2948 0 0 C 782.526 162.703 t 0 r /Helvetica findfont 30.9911 sf 0 0 m (light\255tag Eigenvar. 24) show NC gr 
 gsave  1542 2948 0 0 C 782.526 123.965 t 0 r /Helvetica findfont 30.9911 sf 0 0 m (light\255tag Eigenvar. 25) show NC gr 
 gsave  1542 2948 0 0 C 782.526 87.1626 t 0 r /Helvetica findfont 30.9911 sf 0 0 m (light\255tag Eigenvar. 32) show NC gr 
 gsave  1542 2948 0 0 C 300.227 2915.1 t 0 r /Helvetica findfont 38.7389 sf 0 0 m (Simple model) show NC gr  58 2915 m 200 X s 158 2915 m20 58 76 m 713 X s 168 117 m -41 Y s 193 97 m -21 Y s 218 97 m -21 Y s 242 97 m -21 Y s 267 97 m -21 Y s 291 117
 m -41 Y s 316 97 m -21 Y s 341 97 m -21 Y s 365 97 m -21 Y s 390 97 m -21 Y s 414 117 m -41 Y s 439 97 m -21 Y s 464 97 m -21 Y s 488 97 m -21 Y s 513 97 m -21 Y s 537 117 m -41 Y s 562 97 m -21 Y s 586 97 m -21 Y s 611 97 m -21 Y s 636 97 m -21 Y s
 660 117 m -41 Y s 168 117 m -41 Y s 144 97 m -21 Y s 119 97 m -21 Y s 95 97 m -21 Y s 70 97 m -21 Y s 660 117 m -41 Y s 685 97 m -21 Y s 709 97 m -21 Y s 734 97 m -21 Y s 759 97 m -21 Y s 58 2853 m 713 X s 168 2812 m 41 Y s 193 2832 m 21 Y s 218
 2832 m 21 Y s 242 2832 m 21 Y s 267 2832 m 21 Y s 291 2812 m 41 Y s 316 2832 m 21 Y s 341 2832 m 21 Y s 365 2832 m 21 Y s 390 2832 m 21 Y s 414 2812 m 41 Y s 439 2832 m 21 Y s 464 2832 m 21 Y s 488 2832 m 21 Y s 513 2832 m 21 Y s 537 2812 m 41 Y s
 562 2832 m 21 Y s 586 2832 m 21 Y s 611 2832 m 21 Y s 636 2832 m 21 Y s 660 2812 m 41 Y s 168 2812 m 41 Y s 144 2832 m 21 Y s 119 2832 m 21 Y s 95 2832 m 21 Y s 70 2832 m 21 Y s 660 2812 m 41 Y s 685 2832 m 21 Y s 709 2832 m 21 Y s 734 2832 m 21 Y s
 759 2832 m 21 Y s 58 76 m 2777 Y s
 gr  gr showpage
end
%%EOF
