%!PS-Adobe-2.0 EPSF-2.0
%%BoundingBox:  0 0 567 73
%%Title: : c
%%Creator: ROOT Version 6.04/14
%%CreationDate: Mon Aug 27 15:48:36 2018
%%DocumentNeededResources: ProcSet (FontSetInit)
%%EndComments
%%BeginProlog
80 dict begin
/s {stroke} def /l {lineto} def /m {moveto} def /t {translate} def
/r {rotate} def /rl {roll}  def /R {repeat} def
/d {rlineto} def /rm {rmoveto} def /gr {grestore} def /f {eofill} def
/c {setrgbcolor} def /black {0 setgray} def /sd {setdash} def
/cl {closepath} def /sf {scalefont setfont} def /lw {setlinewidth} def
/box {m dup 0 exch d exch 0 d 0 exch neg d cl} def
/NC{systemdict begin initclip end}def/C{NC box clip newpath}def
/bl {box s} def /bf {gsave box gsave f grestore 1 lw [] 0 sd s grestore} def /Y { 0 exch d} def /X { 0 d} def 
/K {{pop pop 0 moveto} exch kshow} bind def
/ita {/ang 15 def gsave [1 0 ang dup sin exch cos div 1 0 0] concat} def 
/mp {newpath /y exch def /x exch def} def
/side {[w .77 mul w .23 mul] .385 w mul sd w 0 l currentpoint t -144 r} def
/mr {mp x y w2 0 360 arc} def /m24 {mr s} def /m20 {mr f} def
/mb {mp x y w2 add m w2 neg 0 d 0 w neg d w 0 d 0 w d cl} def
/mt {mp x y w2 add m w2 neg w neg d w 0 d cl} def
/m21 {mb f} def /m25 {mb s} def /m22 {mt f} def /m26{mt s} def
/m23 {mp x y w2 sub m w2 w d w neg 0 d cl f} def
/m27 {mp x y w2 add m w3 neg w2 neg d w3 w2 neg d w3 w2 d cl s} def
/m28 {mp x w2 sub y w2 sub w3 add m w3 0 d  0 w3 neg d w3 0 d 0 w3 d w3 0 d  0 w3 d w3 neg 0 d 0 w3 d w3 neg 0 d 0 w3 neg d w3 neg 0 d cl s } def
/m29 {mp gsave x w2 sub y w2 add w3 sub m currentpoint t 4 {side} repeat cl fill gr} def
/m30 {mp gsave x w2 sub y w2 add w3 sub m currentpoint t 4 {side} repeat cl s gr} def
/m31 {mp x y w2 sub m 0 w d x w2 sub y m w 0 d x w2 sub y w2 add m w w neg d x w2 sub y w2 sub m w w d s} def
/m32 {mp x y w2 sub m w2 w d w neg 0 d cl s} def
/m33 {mp x y w2 add m w3 neg w2 neg d w3 w2 neg d w3 w2 d cl f} def
/m34 {mp x w2 sub y w2 sub w3 add m w3 0 d  0 w3 neg d w3 0 d 0 w3 d w3 0 d  0 w3 d w3 neg 0 d 0 w3 d w3 neg 0 d 0 w3 neg d w3 neg 0 d cl f } def
/m2 {mp x y w2 sub m 0 w d x w2 sub y m w 0 d s} def
/m5 {mp x w2 sub y w2 sub m w w d x w2 sub y w2 add m w w neg d s} def
%%IncludeResource: ProcSet (FontSetInit)
%%IncludeResource: font Times-Roman
%%IncludeResource: font Times-Italic
%%IncludeResource: font Times-Bold
%%IncludeResource: font Times-BoldItalic
%%IncludeResource: font Helvetica
%%IncludeResource: font Helvetica-Oblique
%%IncludeResource: font Helvetica-Bold
%%IncludeResource: font Helvetica-BoldOblique
%%IncludeResource: font Courier
%%IncludeResource: font Courier-Oblique
%%IncludeResource: font Courier-Bold
%%IncludeResource: font Courier-BoldOblique
%%IncludeResource: font Symbol
%%IncludeResource: font ZapfDingbats
/reEncode {exch findfont dup length dict begin {1 index /FID eq  {pop pop} {def} ifelse } forall /Encoding exch def currentdict end dup /FontName get exch definefont pop } def [/Times-Bold /Times-Italic /Times-BoldItalic /Helvetica /Helvetica-Oblique
 /Helvetica-Bold /Helvetica-BoldOblique /Courier /Courier-Oblique /Courier-Bold /Courier-BoldOblique /Times-Roman /AvantGarde-Book /AvantGarde-BookOblique /AvantGarde-Demi /AvantGarde-DemiOblique /Bookman-Demi /Bookman-DemiItalic /Bookman-Light
 /Bookman-LightItalic /Helvetica-Narrow /Helvetica-Narrow-Bold /Helvetica-Narrow-BoldOblique /Helvetica-Narrow-Oblique /NewCenturySchlbk-Roman /NewCenturySchlbk-Bold /NewCenturySchlbk-BoldItalic /NewCenturySchlbk-Italic /Palatino-Bold
 /Palatino-BoldItalic /Palatino-Italic /Palatino-Roman ] {ISOLatin1Encoding reEncode } forall
%%EndProlog
%%BeginSetup
%%EndSetup
newpath  gsave  .25 .25 scale  gsave  0 0 t black[  ] 0 sd 3 lw 1 1 1 c 2268 291 0 0 bf black 1 1 1 c 1049 90 85 89 bf black 1049 90 85 89 bl 1 1 1 c 1049 90 85 89 bf black 1049 90 85 89 bl 1 1 1 c black 3 lw 85 89 m 1049 X s 248 93 m -4 Y s 284 91 m
 -2 Y s 320 91 m -2 Y s 356 91 m -2 Y s 392 91 m -2 Y s 429 93 m -4 Y s 465 91 m -2 Y s 501 91 m -2 Y s 537 91 m -2 Y s 573 91 m -2 Y s 609 93 m -4 Y s 646 91 m -2 Y s 682 91 m -2 Y s 718 91 m -2 Y s 754 91 m -2 Y s 790 93 m -4 Y s 826 91 m -2 Y s
 863 91 m -2 Y s 899 91 m -2 Y s 935 91 m -2 Y s 971 93 m -4 Y s 248 93 m -4 Y s 212 91 m -2 Y s 175 91 m -2 Y s 139 91 m -2 Y s 103 91 m -2 Y s 971 93 m -4 Y s 1007 91 m -2 Y s 1043 91 m -2 Y s 1080 91 m -2 Y s 1116 91 m -2 Y s
 gsave  2268 291 0 0 C 242.156 45.5822 t 0 r /Helvetica findfont 51.28 sf 0 0 m (2) show NC gr 
 gsave  2268 291 0 0 C 216.516 45.5822 t 0 r /Symbol findfont 51.28 sf 0 0 m (-) show NC gr 
 gsave  2268 291 0 0 C 430.182 45.5822 t 0 r /Helvetica findfont 51.28 sf 0 0 m (1) show NC gr 
 gsave  2268 291 0 0 C 401.694 45.5822 t 0 r /Symbol findfont 51.28 sf 0 0 m (-) show NC gr 
 gsave  2268 291 0 0 C 592.569 45.5822 t 0 r /Helvetica findfont 51.28 sf 0 0 m (0) show NC gr 
 gsave  2268 291 0 0 C 777.747 45.5822 t 0 r /Helvetica findfont 51.28 sf 0 0 m (1) show NC gr 
 gsave  2268 291 0 0 C 954.378 45.5822 t 0 r /Helvetica findfont 51.28 sf 0 0 m (2) show NC gr  85 179 m 1049 X s 248 175 m 4 Y s 284 177 m 2 Y s 320 177 m 2 Y s 356 177 m 2 Y s 392 177 m 2 Y s 429 175 m 4 Y s 465 177 m 2 Y s 501 177 m 2 Y s 537 177
 m 2 Y s 573 177 m 2 Y s 609 175 m 4 Y s 646 177 m 2 Y s 682 177 m 2 Y s 718 177 m 2 Y s 754 177 m 2 Y s 790 175 m 4 Y s 826 177 m 2 Y s 863 177 m 2 Y s 899 177 m 2 Y s 935 177 m 2 Y s 971 175 m 4 Y s 248 175 m 4 Y s 212 177 m 2 Y s 175 177 m 2 Y s
 139 177 m 2 Y s 103 177 m 2 Y s 971 175 m 4 Y s 1007 177 m 2 Y s 1043 177 m 2 Y s 1080 177 m 2 Y s 1116 177 m 2 Y s 85 89 m 90 Y s 1 1 0 c 723 90 248 89 bf black 0 1 0 c 361 90 429 89 bf black[ 20 20] 0 sd 609 89 m 90 Y s[  ] 0 sd 751 148 m -138 X s
 613 148 m cl s 774 148 m 138 X s 912 148 m cl s 740 103 m -160 X s 580 103 m cl s 763 103 m 160 X s 923 103 m cl s /w 27 def /w2 {w 2 div} def /w3 {w 3 div} def 762 148 752 103 2 { m20} R 1 0 0 c 672 156 m -138 X s 534 156 m cl s 695 156 m 138 X s
 833 156 m cl s 819 112 m -157 X s 662 112 m cl s 842 112 m 158 X s 1000 112 m cl s black 1 0 0 c 683 156 831 112 2 { m24} R black
 gsave  2268 291 0 0 C 1150.95 145.293 t 0 r /Helvetica findfont 45.5822 sf 0 0 m (c\255tag Eigenvar. 1) show NC gr 
 gsave  2268 291 0 0 C 1150.95 102.56 t 0 r /Helvetica findfont 45.5822 sf 0 0 m (light\255tag Eigenvar. 5) show NC gr 
 gsave  2268 291 0 0 C 230.76 202.271 t 0 r /Helvetica findfont 56.9778 sf 0 0 m (MG5 Gen NPs) show NC gr  54 224 m 147 X s 128 224 m20
 gsave  2268 291 0 0 C 1071.18 207.969 t 0 r /Helvetica findfont 56.9778 sf 0 0 m (Sherpa5F NPs) show NC gr  1 0 0 c 893 224 m 147 X s 967 224 m24 black 85 89 m 1049 X s 248 93 m -4 Y s 284 91 m -2 Y s 320 91 m -2 Y s 356 91 m -2 Y s 392 91 m -2 Y s
 429 93 m -4 Y s 465 91 m -2 Y s 501 91 m -2 Y s 537 91 m -2 Y s 573 91 m -2 Y s 609 93 m -4 Y s 646 91 m -2 Y s 682 91 m -2 Y s 718 91 m -2 Y s 754 91 m -2 Y s 790 93 m -4 Y s 826 91 m -2 Y s 863 91 m -2 Y s 899 91 m -2 Y s 935 91 m -2 Y s 971 93 m
 -4 Y s 248 93 m -4 Y s 212 91 m -2 Y s 175 91 m -2 Y s 139 91 m -2 Y s 103 91 m -2 Y s 971 93 m -4 Y s 1007 91 m -2 Y s 1043 91 m -2 Y s 1080 91 m -2 Y s 1116 91 m -2 Y s 85 179 m 1049 X s 248 175 m 4 Y s 284 177 m 2 Y s 320 177 m 2 Y s 356 177 m 2
 Y s 392 177 m 2 Y s 429 175 m 4 Y s 465 177 m 2 Y s 501 177 m 2 Y s 537 177 m 2 Y s 573 177 m 2 Y s 609 175 m 4 Y s 646 177 m 2 Y s 682 177 m 2 Y s 718 177 m 2 Y s 754 177 m 2 Y s 790 175 m 4 Y s 826 177 m 2 Y s 863 177 m 2 Y s 899 177 m 2 Y s 935
 177 m 2 Y s 971 175 m 4 Y s 248 175 m 4 Y s 212 177 m 2 Y s 175 177 m 2 Y s 139 177 m 2 Y s 103 177 m 2 Y s 971 175 m 4 Y s 1007 177 m 2 Y s 1043 177 m 2 Y s 1080 177 m 2 Y s 1116 177 m 2 Y s 85 89 m 90 Y s
 gr  gr showpage
end
%%EOF
