%!PS-Adobe-2.0 EPSF-2.0
%%BoundingBox:  0 0 567 358
%%Title: : c
%%Creator: ROOT Version 6.04/14
%%CreationDate: Sun Aug 26 15:45:44 2018
%%DocumentNeededResources: ProcSet (FontSetInit)
%%EndComments
%%BeginProlog
80 dict begin
/s {stroke} def /l {lineto} def /m {moveto} def /t {translate} def
/r {rotate} def /rl {roll}  def /R {repeat} def
/d {rlineto} def /rm {rmoveto} def /gr {grestore} def /f {eofill} def
/c {setrgbcolor} def /black {0 setgray} def /sd {setdash} def
/cl {closepath} def /sf {scalefont setfont} def /lw {setlinewidth} def
/box {m dup 0 exch d exch 0 d 0 exch neg d cl} def
/NC{systemdict begin initclip end}def/C{NC box clip newpath}def
/bl {box s} def /bf {gsave box gsave f grestore 1 lw [] 0 sd s grestore} def /Y { 0 exch d} def /X { 0 d} def 
/K {{pop pop 0 moveto} exch kshow} bind def
/ita {/ang 15 def gsave [1 0 ang dup sin exch cos div 1 0 0] concat} def 
/mp {newpath /y exch def /x exch def} def
/side {[w .77 mul w .23 mul] .385 w mul sd w 0 l currentpoint t -144 r} def
/mr {mp x y w2 0 360 arc} def /m24 {mr s} def /m20 {mr f} def
/mb {mp x y w2 add m w2 neg 0 d 0 w neg d w 0 d 0 w d cl} def
/mt {mp x y w2 add m w2 neg w neg d w 0 d cl} def
/m21 {mb f} def /m25 {mb s} def /m22 {mt f} def /m26{mt s} def
/m23 {mp x y w2 sub m w2 w d w neg 0 d cl f} def
/m27 {mp x y w2 add m w3 neg w2 neg d w3 w2 neg d w3 w2 d cl s} def
/m28 {mp x w2 sub y w2 sub w3 add m w3 0 d  0 w3 neg d w3 0 d 0 w3 d w3 0 d  0 w3 d w3 neg 0 d 0 w3 d w3 neg 0 d 0 w3 neg d w3 neg 0 d cl s } def
/m29 {mp gsave x w2 sub y w2 add w3 sub m currentpoint t 4 {side} repeat cl fill gr} def
/m30 {mp gsave x w2 sub y w2 add w3 sub m currentpoint t 4 {side} repeat cl s gr} def
/m31 {mp x y w2 sub m 0 w d x w2 sub y m w 0 d x w2 sub y w2 add m w w neg d x w2 sub y w2 sub m w w d s} def
/m32 {mp x y w2 sub m w2 w d w neg 0 d cl s} def
/m33 {mp x y w2 add m w3 neg w2 neg d w3 w2 neg d w3 w2 d cl f} def
/m34 {mp x w2 sub y w2 sub w3 add m w3 0 d  0 w3 neg d w3 0 d 0 w3 d w3 0 d  0 w3 d w3 neg 0 d 0 w3 d w3 neg 0 d 0 w3 neg d w3 neg 0 d cl f } def
/m2 {mp x y w2 sub m 0 w d x w2 sub y m w 0 d s} def
/m5 {mp x w2 sub y w2 sub m w w d x w2 sub y w2 add m w w neg d s} def
%%IncludeResource: ProcSet (FontSetInit)
%%IncludeResource: font Times-Roman
%%IncludeResource: font Times-Italic
%%IncludeResource: font Times-Bold
%%IncludeResource: font Times-BoldItalic
%%IncludeResource: font Helvetica
%%IncludeResource: font Helvetica-Oblique
%%IncludeResource: font Helvetica-Bold
%%IncludeResource: font Helvetica-BoldOblique
%%IncludeResource: font Courier
%%IncludeResource: font Courier-Oblique
%%IncludeResource: font Courier-Bold
%%IncludeResource: font Courier-BoldOblique
%%IncludeResource: font Symbol
%%IncludeResource: font ZapfDingbats
/reEncode {exch findfont dup length dict begin {1 index /FID eq  {pop pop} {def} ifelse } forall /Encoding exch def currentdict end dup /FontName get exch definefont pop } def [/Times-Bold /Times-Italic /Times-BoldItalic /Helvetica /Helvetica-Oblique
 /Helvetica-Bold /Helvetica-BoldOblique /Courier /Courier-Oblique /Courier-Bold /Courier-BoldOblique /Times-Roman /AvantGarde-Book /AvantGarde-BookOblique /AvantGarde-Demi /AvantGarde-DemiOblique /Bookman-Demi /Bookman-DemiItalic /Bookman-Light
 /Bookman-LightItalic /Helvetica-Narrow /Helvetica-Narrow-Bold /Helvetica-Narrow-BoldOblique /Helvetica-Narrow-Oblique /NewCenturySchlbk-Roman /NewCenturySchlbk-Bold /NewCenturySchlbk-BoldItalic /NewCenturySchlbk-Italic /Palatino-Bold
 /Palatino-BoldItalic /Palatino-Italic /Palatino-Roman ] {ISOLatin1Encoding reEncode } forall
%%EndProlog
%%BeginSetup
%%EndSetup
newpath  gsave  .25 .25 scale  gsave  0 0 t black[  ] 0 sd 3 lw 1 1 1 c 2268 1430 0 0 bf black 1 1 1 c 1049 1187 85 108 bf black 1049 1187 85 108 bl 1 1 1 c 1049 1187 85 108 bf black 1049 1187 85 108 bl 1 1 1 c black 3 lw 85 108 m 1049 X s 248 128 m
 -20 Y s 284 118 m -10 Y s 320 118 m -10 Y s 356 118 m -10 Y s 392 118 m -10 Y s 429 128 m -20 Y s 465 118 m -10 Y s 501 118 m -10 Y s 537 118 m -10 Y s 573 118 m -10 Y s 609 128 m -20 Y s 646 118 m -10 Y s 682 118 m -10 Y s 718 118 m -10 Y s 754 118
 m -10 Y s 790 128 m -20 Y s 826 118 m -10 Y s 863 118 m -10 Y s 899 118 m -10 Y s 935 118 m -10 Y s 971 128 m -20 Y s 248 128 m -20 Y s 212 118 m -10 Y s 175 118 m -10 Y s 139 118 m -10 Y s 103 118 m -10 Y s 971 128 m -20 Y s 1007 118 m -10 Y s 1043
 118 m -10 Y s 1080 118 m -10 Y s 1116 118 m -10 Y s
 gsave  2268 1430 0 0 C 242.156 59.8267 t 0 r /Helvetica findfont 51.28 sf 0 0 m (2) show NC gr 
 gsave  2268 1430 0 0 C 216.516 59.8267 t 0 r /Symbol findfont 51.28 sf 0 0 m (-) show NC gr 
 gsave  2268 1430 0 0 C 430.182 59.8267 t 0 r /Helvetica findfont 51.28 sf 0 0 m (1) show NC gr 
 gsave  2268 1430 0 0 C 401.694 59.8267 t 0 r /Symbol findfont 51.28 sf 0 0 m (-) show NC gr 
 gsave  2268 1430 0 0 C 592.569 59.8267 t 0 r /Helvetica findfont 51.28 sf 0 0 m (0) show NC gr 
 gsave  2268 1430 0 0 C 777.747 59.8267 t 0 r /Helvetica findfont 51.28 sf 0 0 m (1) show NC gr 
 gsave  2268 1430 0 0 C 954.378 59.8267 t 0 r /Helvetica findfont 51.28 sf 0 0 m (2) show NC gr  85 1295 m 1049 X s 248 1275 m 20 Y s 284 1285 m 10 Y s 320 1285 m 10 Y s 356 1285 m 10 Y s 392 1285 m 10 Y s 429 1275 m 20 Y s 465 1285 m 10 Y s 501 1285
 m 10 Y s 537 1285 m 10 Y s 573 1285 m 10 Y s 609 1275 m 20 Y s 646 1285 m 10 Y s 682 1285 m 10 Y s 718 1285 m 10 Y s 754 1285 m 10 Y s 790 1275 m 20 Y s 826 1285 m 10 Y s 863 1285 m 10 Y s 899 1285 m 10 Y s 935 1285 m 10 Y s 971 1275 m 20 Y s 248
 1275 m 20 Y s 212 1285 m 10 Y s 175 1285 m 10 Y s 139 1285 m 10 Y s 103 1285 m 10 Y s 971 1275 m 20 Y s 1007 1285 m 10 Y s 1043 1285 m 10 Y s 1080 1285 m 10 Y s 1116 1285 m 10 Y s 85 108 m 1187 Y s 1 1 0 c 723 1187 248 108 bf black 0 1 0 c 361 1187
 429 108 bf black[ 20 20] 0 sd 609 108 m 1187 Y s[  ] 0 sd 598 1263 m -152 X s 446 1263 m cl s 621 1263 m 152 X s 773 1263 m cl s 598 1209 m -149 X s 449 1209 m cl s 621 1209 m 149 X s 770 1209 m cl s 598 1155 m -155 X s 443 1155 m cl s 621 1155 m
 155 X s 776 1155 m cl s 598 1101 m -161 X s 437 1101 m cl s 621 1101 m 161 X s 782 1101 m cl s 598 1047 m -168 X s 430 1047 m cl s 621 1047 m 168 X s 789 1047 m cl s 598 993 m -168 X s 430 993 m cl s 621 993 m 168 X s 789 993 m cl s 598 939 m -168 X
 s 430 939 m cl s 621 939 m 168 X s 789 939 m cl s 598 885 m -168 X s 430 885 m cl s 621 885 m 168 X s 789 885 m cl s 598 831 m -168 X s 430 831 m cl s 621 831 m 168 X s 789 831 m cl s 598 777 m -168 X s 430 777 m cl s 621 777 m 168 X s 789 777 m cl
 s 598 723 m -167 X s 431 723 m cl s 621 723 m 167 X s 788 723 m cl s 598 669 m -168 X s 430 669 m cl s 621 669 m 168 X s 789 669 m cl s 598 615 m -166 X s 432 615 m cl s 621 615 m 166 X s 787 615 m cl s 598 561 m -168 X s 430 561 m cl s 621 561 m
 168 X s 789 561 m cl s 598 507 m -168 X s 430 507 m cl s 621 507 m 168 X s 789 507 m cl s 598 453 m -159 X s 439 453 m cl s 621 453 m 159 X s 780 453 m cl s 598 399 m -141 X s 457 399 m cl s 621 399 m 141 X s 762 399 m cl s 598 345 m -168 X s 430
 345 m cl s 621 345 m 168 X s 789 345 m cl s 598 291 m -121 X s 477 291 m cl s 621 291 m 121 X s 742 291 m cl s 598 237 m -168 X s 430 237 m cl s 621 237 m 168 X s 789 237 m cl s 598 183 m -150 X s 448 183 m cl s 621 183 m 150 X s 771 183 m cl s 598
 130 m -161 X s 437 130 m cl s 621 130 m 161 X s 782 130 m cl s /w 27 def /w2 {w 2 div} def /w3 {w 3 div} def 609 1263 609 1209 609 1155 609 1101 609 1047 609 993 609 939 609 885 609 831 609 777 609 723 609 669 609 615 609 561 609 507 609 453 609 399
 609 345 609 291 609 237 609 183 609 130 22 { m20} R
 gsave  2268 1430 0 0 C 1150.95 1256.36 t 0 r /Helvetica findfont 45.5822 sf 0 0 m (Luminosity) show NC gr 
 gsave  2268 1430 0 0 C 1150.95 1202.23 t 0 r /Helvetica findfont 45.5822 sf 0 0 m (JES BJES) show NC gr 
 gsave  2268 1430 0 0 C 1150.95 1148.1 t 0 r /Helvetica findfont 45.5822 sf 0 0 m (JES effective NP 1) show NC gr 
 gsave  2268 1430 0 0 C 1150.95 1093.97 t 0 r /Helvetica findfont 45.5822 sf 0 0 m (JES effective NP 2) show NC gr 
 gsave  2268 1430 0 0 C 1150.95 1039.84 t 0 r /Helvetica findfont 45.5822 sf 0 0 m (JES effective NP 3) show NC gr 
 gsave  2268 1430 0 0 C 1150.95 985.716 t 0 r /Helvetica findfont 45.5822 sf 0 0 m (JES effective NP 4) show NC gr 
 gsave  2268 1430 0 0 C 1150.95 931.587 t 0 r /Helvetica findfont 45.5822 sf 0 0 m (JES effective NP 5) show NC gr 
 gsave  2268 1430 0 0 C 1150.95 877.458 t 0 r /Helvetica findfont 45.5822 sf 0 0 m (JES effective NP 6) show NC gr 
 gsave  2268 1430 0 0 C 1150.95 823.329 t 0 r /Helvetica findfont 45.5822 sf 0 0 m (JES effective NP 7) show NC gr 
 gsave  2268 1430 0 0 C 1150.95 769.2 t 0 r /Helvetica findfont 45.5822 sf 0 0 m (JES effective NP 8) show NC gr 
 gsave  2268 1430 0 0 C 1273.45 715.071 t 0 r /Helvetica findfont 45.5822 sf 0 0 m ( intercalibration modelling) show NC gr 
 gsave  2268 1430 0 0 C 1247.81 715.071 t 0 r /Symbol findfont 45.5822 sf 0 0 m (h) show NC gr 
 gsave  2268 1430 0 0 C 1150.95 715.071 t 0 r /Helvetica findfont 45.5822 sf 0 0 m (JES ) show NC gr 
 gsave  2268 1430 0 0 C 1273.45 663.791 t 0 r /Helvetica findfont 45.5822 sf 0 0 m ( intercalibration total stat) show NC gr 
 gsave  2268 1430 0 0 C 1247.81 663.791 t 0 r /Symbol findfont 45.5822 sf 0 0 m (h) show NC gr 
 gsave  2268 1430 0 0 C 1150.95 663.791 t 0 r /Helvetica findfont 45.5822 sf 0 0 m (JES ) show NC gr 
 gsave  2268 1430 0 0 C 1150.95 609.662 t 0 r /Helvetica findfont 45.5822 sf 0 0 m (JES flavour response) show NC gr 
 gsave  2268 1430 0 0 C 1507.06 555.534 t 0 r /Symbol findfont 45.5822 sf 0 0 m (m) show NC gr 
 gsave  2268 1430 0 0 C 1150.95 555.534 t 0 r /Helvetica findfont 45.5822 sf 0 0 m (JES pileup offset ) show NC gr 
 gsave  2268 1430 0 0 C 1150.95 501.405 t 0 r /Helvetica findfont 45.5822 sf 0 0 m (JES pileup offset NPV) show NC gr 
 gsave  2268 1430 0 0 C 1150.95 447.276 t 0 r /Helvetica findfont 45.5822 sf 0 0 m (JES pileup pT term) show NC gr 
 gsave  2268 1430 0 0 C 1407.35 393.147 t 0 r /Helvetica findfont 45.5822 sf 0 0 m ( topology) show NC gr 
 gsave  2268 1430 0 0 C 1384.56 393.147 t 0 r /Symbol findfont 45.5822 sf 0 0 m (r) show NC gr 
 gsave  2268 1430 0 0 C 1150.95 393.147 t 0 r /Helvetica findfont 45.5822 sf 0 0 m (JES pileup ) show NC gr 
 gsave  2268 1430 0 0 C 1273.45 339.018 t 0 r /Helvetica findfont 45.5822 sf 0 0 m ( intercalibration non\255closure) show NC gr 
 gsave  2268 1430 0 0 C 1247.81 339.018 t 0 r /Symbol findfont 45.5822 sf 0 0 m (h) show NC gr 
 gsave  2268 1430 0 0 C 1150.95 339.018 t 0 r /Helvetica findfont 45.5822 sf 0 0 m (JES ) show NC gr 
 gsave  2268 1430 0 0 C 1150.95 284.889 t 0 r /Helvetica findfont 45.5822 sf 0 0 m (JES flavour composition) show NC gr 
 gsave  2268 1430 0 0 C 1150.95 230.76 t 0 r /Helvetica findfont 45.5822 sf 0 0 m (Jet vertex tagger efficiency) show NC gr 
 gsave  2268 1430 0 0 C 1150.95 176.631 t 0 r /Helvetica findfont 45.5822 sf 0 0 m (Jet energy resolution) show NC gr 
 gsave  2268 1430 0 0 C 1150.95 122.502 t 0 r /Helvetica findfont 45.5822 sf 0 0 m (Pileup modelling) show NC gr 
 gsave  2268 1430 0 0 C 441.578 1384.56 t 0 r /Helvetica findfont 56.9778 sf 0 0 m (Simple model) show NC gr  86 1394 m 293 X s 232 1394 m20 85 108 m 1049 X s 248 128 m -20 Y s 284 118 m -10 Y s 320 118 m -10 Y s 356 118 m -10 Y s 392 118 m -10 Y s
 429 128 m -20 Y s 465 118 m -10 Y s 501 118 m -10 Y s 537 118 m -10 Y s 573 118 m -10 Y s 609 128 m -20 Y s 646 118 m -10 Y s 682 118 m -10 Y s 718 118 m -10 Y s 754 118 m -10 Y s 790 128 m -20 Y s 826 118 m -10 Y s 863 118 m -10 Y s 899 118 m -10 Y
 s 935 118 m -10 Y s 971 128 m -20 Y s 248 128 m -20 Y s 212 118 m -10 Y s 175 118 m -10 Y s 139 118 m -10 Y s 103 118 m -10 Y s 971 128 m -20 Y s 1007 118 m -10 Y s 1043 118 m -10 Y s 1080 118 m -10 Y s 1116 118 m -10 Y s 85 1295 m 1049 X s 248 1275
 m 20 Y s 284 1285 m 10 Y s 320 1285 m 10 Y s 356 1285 m 10 Y s 392 1285 m 10 Y s 429 1275 m 20 Y s 465 1285 m 10 Y s 501 1285 m 10 Y s 537 1285 m 10 Y s 573 1285 m 10 Y s 609 1275 m 20 Y s 646 1285 m 10 Y s 682 1285 m 10 Y s 718 1285 m 10 Y s 754
 1285 m 10 Y s 790 1275 m 20 Y s 826 1285 m 10 Y s 863 1285 m 10 Y s 899 1285 m 10 Y s 935 1285 m 10 Y s 971 1275 m 20 Y s 248 1275 m 20 Y s 212 1285 m 10 Y s 175 1285 m 10 Y s 139 1285 m 10 Y s 103 1285 m 10 Y s 971 1275 m 20 Y s 1007 1285 m 10 Y s
 1043 1285 m 10 Y s 1080 1285 m 10 Y s 1116 1285 m 10 Y s 85 108 m 1187 Y s
 gr  gr showpage
end
%%EOF
