%!PS-Adobe-2.0 EPSF-2.0
%%BoundingBox:  0 0 255 737
%%Title: : c
%%Creator: ROOT Version 6.04/14
%%CreationDate: Fri Aug 24 13:18:15 2018
%%DocumentNeededResources: ProcSet (FontSetInit)
%%EndComments
%%BeginProlog
80 dict begin
/s {stroke} def /l {lineto} def /m {moveto} def /t {translate} def
/r {rotate} def /rl {roll}  def /R {repeat} def
/d {rlineto} def /rm {rmoveto} def /gr {grestore} def /f {eofill} def
/c {setrgbcolor} def /black {0 setgray} def /sd {setdash} def
/cl {closepath} def /sf {scalefont setfont} def /lw {setlinewidth} def
/box {m dup 0 exch d exch 0 d 0 exch neg d cl} def
/NC{systemdict begin initclip end}def/C{NC box clip newpath}def
/bl {box s} def /bf {gsave box gsave f grestore 1 lw [] 0 sd s grestore} def /Y { 0 exch d} def /X { 0 d} def 
/K {{pop pop 0 moveto} exch kshow} bind def
/ita {/ang 15 def gsave [1 0 ang dup sin exch cos div 1 0 0] concat} def 
/mp {newpath /y exch def /x exch def} def
/side {[w .77 mul w .23 mul] .385 w mul sd w 0 l currentpoint t -144 r} def
/mr {mp x y w2 0 360 arc} def /m24 {mr s} def /m20 {mr f} def
/mb {mp x y w2 add m w2 neg 0 d 0 w neg d w 0 d 0 w d cl} def
/mt {mp x y w2 add m w2 neg w neg d w 0 d cl} def
/m21 {mb f} def /m25 {mb s} def /m22 {mt f} def /m26{mt s} def
/m23 {mp x y w2 sub m w2 w d w neg 0 d cl f} def
/m27 {mp x y w2 add m w3 neg w2 neg d w3 w2 neg d w3 w2 d cl s} def
/m28 {mp x w2 sub y w2 sub w3 add m w3 0 d  0 w3 neg d w3 0 d 0 w3 d w3 0 d  0 w3 d w3 neg 0 d 0 w3 d w3 neg 0 d 0 w3 neg d w3 neg 0 d cl s } def
/m29 {mp gsave x w2 sub y w2 add w3 sub m currentpoint t 4 {side} repeat cl fill gr} def
/m30 {mp gsave x w2 sub y w2 add w3 sub m currentpoint t 4 {side} repeat cl s gr} def
/m31 {mp x y w2 sub m 0 w d x w2 sub y m w 0 d x w2 sub y w2 add m w w neg d x w2 sub y w2 sub m w w d s} def
/m32 {mp x y w2 sub m w2 w d w neg 0 d cl s} def
/m33 {mp x y w2 add m w3 neg w2 neg d w3 w2 neg d w3 w2 d cl f} def
/m34 {mp x w2 sub y w2 sub w3 add m w3 0 d  0 w3 neg d w3 0 d 0 w3 d w3 0 d  0 w3 d w3 neg 0 d 0 w3 d w3 neg 0 d 0 w3 neg d w3 neg 0 d cl f } def
/m2 {mp x y w2 sub m 0 w d x w2 sub y m w 0 d s} def
/m5 {mp x w2 sub y w2 sub m w w d x w2 sub y w2 add m w w neg d s} def
%%IncludeResource: ProcSet (FontSetInit)
%%IncludeResource: font Times-Roman
%%IncludeResource: font Times-Italic
%%IncludeResource: font Times-Bold
%%IncludeResource: font Times-BoldItalic
%%IncludeResource: font Helvetica
%%IncludeResource: font Helvetica-Oblique
%%IncludeResource: font Helvetica-Bold
%%IncludeResource: font Helvetica-BoldOblique
%%IncludeResource: font Courier
%%IncludeResource: font Courier-Oblique
%%IncludeResource: font Courier-Bold
%%IncludeResource: font Courier-BoldOblique
%%IncludeResource: font Symbol
%%IncludeResource: font ZapfDingbats
/reEncode {exch findfont dup length dict begin {1 index /FID eq  {pop pop} {def} ifelse } forall /Encoding exch def currentdict end dup /FontName get exch definefont pop } def [/Times-Bold /Times-Italic /Times-BoldItalic /Helvetica /Helvetica-Oblique
 /Helvetica-Bold /Helvetica-BoldOblique /Courier /Courier-Oblique /Courier-Bold /Courier-BoldOblique /Times-Roman /AvantGarde-Book /AvantGarde-BookOblique /AvantGarde-Demi /AvantGarde-DemiOblique /Bookman-Demi /Bookman-DemiItalic /Bookman-Light
 /Bookman-LightItalic /Helvetica-Narrow /Helvetica-Narrow-Bold /Helvetica-Narrow-BoldOblique /Helvetica-Narrow-Oblique /NewCenturySchlbk-Roman /NewCenturySchlbk-Bold /NewCenturySchlbk-BoldItalic /NewCenturySchlbk-Italic /Palatino-Bold
 /Palatino-BoldItalic /Palatino-Italic /Palatino-Roman ] {ISOLatin1Encoding reEncode } forall
%%EndProlog
%%BeginSetup
%%EndSetup
newpath  gsave  .25 .25 scale  gsave  0 0 t black[  ] 0 sd 3 lw 1 1 1 c 1019 2948 0 0 bf black 1 1 1 c 472 2834 38 51 bf black 472 2834 38 51 bl 1 1 1 c 472 2834 38 51 bf black 472 2834 38 51 bl 1 1 1 c black 3 lw 38 51 m 472 X s 111 92 m -41 Y s 128
 71 m -20 Y s 144 71 m -20 Y s 160 71 m -20 Y s 176 71 m -20 Y s 193 92 m -41 Y s 209 71 m -20 Y s 225 71 m -20 Y s 241 71 m -20 Y s 258 71 m -20 Y s 274 92 m -41 Y s 290 71 m -20 Y s 306 71 m -20 Y s 323 71 m -20 Y s 339 71 m -20 Y s 355 92 m -41 Y
 s 372 71 m -20 Y s 388 71 m -20 Y s 404 71 m -20 Y s 420 71 m -20 Y s 437 92 m -41 Y s 111 92 m -41 Y s 95 71 m -20 Y s 79 71 m -20 Y s 63 71 m -20 Y s 46 71 m -20 Y s 437 92 m -41 Y s 453 71 m -20 Y s 469 71 m -20 Y s 485 71 m -20 Y s 502 71 m -20
 Y s
 gsave  1019 2948 0 0 C 108.854 16.6483 t 0 r /Helvetica findfont 23.0515 sf 0 0 m (2) show NC gr 
 gsave  1019 2948 0 0 C 97.3286 16.6483 t 0 r /Symbol findfont 23.0515 sf 0 0 m (-) show NC gr 
 gsave  1019 2948 0 0 C 193.377 16.6483 t 0 r /Helvetica findfont 23.0515 sf 0 0 m (1) show NC gr 
 gsave  1019 2948 0 0 C 180.57 16.6483 t 0 r /Symbol findfont 23.0515 sf 0 0 m (-) show NC gr 
 gsave  1019 2948 0 0 C 266.373 16.6483 t 0 r /Helvetica findfont 23.0515 sf 0 0 m (0) show NC gr 
 gsave  1019 2948 0 0 C 349.615 16.6483 t 0 r /Helvetica findfont 23.0515 sf 0 0 m (1) show NC gr 
 gsave  1019 2948 0 0 C 429.014 16.6483 t 0 r /Helvetica findfont 23.0515 sf 0 0 m (2) show NC gr  38 2885 m 472 X s 111 2844 m 41 Y s 128 2864 m 21 Y s 144 2864 m 21 Y s 160 2864 m 21 Y s 176 2864 m 21 Y s 193 2844 m 41 Y s 209 2864 m 21 Y s 225
 2864 m 21 Y s 241 2864 m 21 Y s 258 2864 m 21 Y s 274 2844 m 41 Y s 290 2864 m 21 Y s 306 2864 m 21 Y s 323 2864 m 21 Y s 339 2864 m 21 Y s 355 2844 m 41 Y s 372 2864 m 21 Y s 388 2864 m 21 Y s 404 2864 m 21 Y s 420 2864 m 21 Y s 437 2844 m 41 Y s
 111 2844 m 41 Y s 95 2864 m 21 Y s 79 2864 m 21 Y s 63 2864 m 21 Y s 46 2864 m 21 Y s 437 2844 m 41 Y s 453 2864 m 21 Y s 469 2864 m 21 Y s 485 2864 m 21 Y s 502 2864 m 21 Y s 38 51 m 2834 Y s 1 1 0 c 326 2834 111 51 bf black 0 1 0 c 162 2834 193 51
 bf black[ 20 20] 0 sd 274 51 m 2834 Y s[  ] 0 sd 273 2867 m -68 X s 205 2867 m cl s 283 2867 m 69 X s 352 2867 m cl s 277 2842 m -54 X s 223 2842 m cl s 287 2842 m 54 X s 341 2842 m cl s 266 2816 m -73 X s 193 2816 m cl s 276 2816 m 74 X s 350 2816
 m cl s 269 2791 m -75 X s 194 2791 m cl s 279 2791 m 75 X s 354 2791 m cl s 270 2766 m -76 X s 194 2766 m cl s 280 2766 m 75 X s 355 2766 m cl s 260 2741 m -75 X s 185 2741 m cl s 270 2741 m 74 X s 344 2741 m cl s 264 2715 m -75 X s 189 2715 m cl s
 274 2715 m 76 X s 350 2715 m cl s 273 2690 m -75 X s 198 2690 m cl s 283 2690 m 75 X s 358 2690 m cl s 268 2665 m -75 X s 193 2665 m cl s 278 2665 m 75 X s 353 2665 m cl s 262 2639 m -75 X s 187 2639 m cl s 272 2639 m 75 X s 347 2639 m cl s 278 2589
 m -75 X s 203 2589 m cl s 288 2589 m 76 X s 364 2589 m cl s 266 2563 m -75 X s 191 2563 m cl s 276 2563 m 76 X s 352 2563 m cl s 269 2538 m -76 X s 193 2538 m cl s 279 2538 m 76 X s 355 2538 m cl s 269 2513 m -76 X s 193 2513 m cl s 279 2513 m 76 X
 s 355 2513 m cl s 269 2487 m -76 X s 193 2487 m cl s 279 2487 m 76 X s 355 2487 m cl s 269 2462 m -76 X s 193 2462 m cl s 279 2462 m 76 X s 355 2462 m cl s 269 2437 m -76 X s 193 2437 m cl s 279 2437 m 76 X s 355 2437 m cl s 269 2412 m -76 X s 193
 2412 m cl s 279 2412 m 76 X s 355 2412 m cl s 269 2386 m -76 X s 193 2386 m cl s 279 2386 m 76 X s 355 2386 m cl s 269 2361 m -76 X s 193 2361 m cl s 279 2361 m 76 X s 355 2361 m cl s 269 2336 m -76 X s 193 2336 m cl s 279 2336 m 76 X s 355 2336 m
 cl s 269 2310 m -76 X s 193 2310 m cl s 279 2310 m 76 X s 355 2310 m cl s 269 2285 m -76 X s 193 2285 m cl s 279 2285 m 76 X s 355 2285 m cl s 264 2260 m -76 X s 188 2260 m cl s 274 2260 m 75 X s 349 2260 m cl s 251 2234 m -45 X s 206 2234 m cl s
 261 2234 m 46 X s 307 2234 m cl s 258 2209 m -64 X s 194 2209 m cl s 268 2209 m 64 X s 332 2209 m cl s 331 2184 m -70 X s 261 2184 m cl s 341 2184 m 71 X s 412 2184 m cl s 282 2159 m -65 X s 217 2159 m cl s 292 2159 m 66 X s 358 2159 m cl s 271 2133
 m -76 X s 195 2133 m cl s 281 2133 m 75 X s 356 2133 m cl s 265 2108 m -75 X s 190 2108 m cl s 275 2108 m 76 X s 351 2108 m cl s 268 2083 m -75 X s 193 2083 m cl s 278 2083 m 76 X s 354 2083 m cl s 260 2057 m -75 X s 185 2057 m cl s 271 2057 m 75 X
 s 346 2057 m cl s 268 2032 m -76 X s 192 2032 m cl s 278 2032 m 76 X s 354 2032 m cl s 272 2007 m -76 X s 196 2007 m cl s 282 2007 m 76 X s 358 2007 m cl s 267 1981 m -76 X s 191 1981 m cl s 277 1981 m 76 X s 353 1981 m cl s 270 1956 m -76 X s 194
 1956 m cl s 280 1956 m 75 X s 355 1956 m cl s 269 1931 m -75 X s 194 1931 m cl s 280 1931 m 75 X s 355 1931 m cl s 268 1905 m -75 X s 193 1905 m cl s 279 1905 m 75 X s 354 1905 m cl s 269 1880 m -76 X s 193 1880 m cl s 279 1880 m 76 X s 355 1880 m
 cl s 269 1855 m -76 X s 193 1855 m cl s 279 1855 m 75 X s 354 1855 m cl s 269 1830 m -76 X s 193 1830 m cl s 279 1830 m 76 X s 355 1830 m cl s 269 1804 m -75 X s 194 1804 m cl s 279 1804 m 76 X s 355 1804 m cl s 271 1779 m -75 X s 196 1779 m cl s
 281 1779 m 76 X s 357 1779 m cl s 269 1754 m -76 X s 193 1754 m cl s 279 1754 m 76 X s 355 1754 m cl s 134 1728 m -54 X s 80 1728 m cl s 144 1728 m 54 X s 198 1728 m cl s 320 1703 m -65 X s 255 1703 m cl s 330 1703 m 65 X s 395 1703 m cl s 214 1678
 m -67 X s 147 1678 m cl s 225 1678 m 67 X s 292 1678 m cl s 273 1652 m -74 X s 199 1652 m cl s 283 1652 m 74 X s 357 1652 m cl s 242 1627 m -67 X s 175 1627 m cl s 252 1627 m 67 X s 319 1627 m cl s 263 1602 m -73 X s 190 1602 m cl s 273 1602 m 73 X
 s 346 1602 m cl s 246 1577 m -74 X s 172 1577 m cl s 256 1577 m 74 X s 330 1577 m cl s 266 1551 m -75 X s 191 1551 m cl s 276 1551 m 76 X s 352 1551 m cl s 244 1526 m -74 X s 170 1526 m cl s 254 1526 m 75 X s 329 1526 m cl s 263 1501 m -75 X s 188
 1501 m cl s 273 1501 m 75 X s 348 1501 m cl s 281 1475 m -75 X s 206 1475 m cl s 292 1475 m 75 X s 367 1475 m cl s 268 1450 m -75 X s 193 1450 m cl s 279 1450 m 75 X s 354 1450 m cl s 266 1425 m -75 X s 191 1425 m cl s 277 1425 m 75 X s 352 1425 m
 cl s 269 1399 m -75 X s 194 1399 m cl s 280 1399 m 75 X s 355 1399 m cl s 270 1374 m -76 X s 194 1374 m cl s 280 1374 m 76 X s 356 1374 m cl s 269 1349 m -76 X s 193 1349 m cl s 279 1349 m 76 X s 355 1349 m cl s 272 1323 m -76 X s 196 1323 m cl s
 282 1323 m 75 X s 357 1323 m cl s 269 1298 m -76 X s 193 1298 m cl s 279 1298 m 76 X s 355 1298 m cl s 269 1273 m -76 X s 193 1273 m cl s 279 1273 m 76 X s 355 1273 m cl s 269 1248 m -76 X s 193 1248 m cl s 279 1248 m 75 X s 354 1248 m cl s 269 1222
 m -76 X s 193 1222 m cl s 279 1222 m 76 X s 355 1222 m cl s 269 1197 m -76 X s 193 1197 m cl s 279 1197 m 76 X s 355 1197 m cl s 269 1146 m -76 X s 193 1146 m cl s 279 1146 m 76 X s 355 1146 m cl s 269 1121 m -76 X s 193 1121 m cl s 279 1121 m 75 X
 s 354 1121 m cl s 269 994 m -76 X s 193 994 m cl s 279 994 m 76 X s 355 994 m cl s 126 969 m -65 X s 61 969 m cl s 136 969 m 66 X s 202 969 m cl s 292 944 m -69 X s 223 944 m cl s 303 944 m 68 X s 371 944 m cl s 227 919 m -72 X s 155 919 m cl s 238
 919 m 72 X s 310 919 m cl s 269 893 m -76 X s 193 893 m cl s 279 893 m 76 X s 355 893 m cl s 266 868 m -75 X s 191 868 m cl s 277 868 m 75 X s 352 868 m cl s 269 843 m -76 X s 193 843 m cl s 279 843 m 76 X s 355 843 m cl s 269 817 m -76 X s 193 817
 m cl s 279 817 m 76 X s 355 817 m cl s 269 792 m -76 X s 193 792 m cl s 279 792 m 76 X s 355 792 m cl s 269 767 m -76 X s 193 767 m cl s 279 767 m 76 X s 355 767 m cl s 269 741 m -74 X s 195 741 m cl s 280 741 m 74 X s 354 741 m cl s 266 716 m -75 X
 s 191 716 m cl s 277 716 m 75 X s 352 716 m cl s 270 691 m -74 X s 196 691 m cl s 281 691 m 74 X s 355 691 m cl s 268 666 m -76 X s 192 666 m cl s 278 666 m 75 X s 353 666 m cl s 270 640 m -76 X s 194 640 m cl s 280 640 m 75 X s 355 640 m cl s 180
 615 m -72 X s 108 615 m cl s 190 615 m 71 X s 261 615 m cl s 201 590 m -64 X s 137 590 m cl s 211 590 m 63 X s 274 590 m cl s 270 564 m -76 X s 194 564 m cl s 280 564 m 76 X s 356 564 m cl s 289 539 m -54 X s 235 539 m cl s 299 539 m 54 X s 353 539
 m cl s 272 514 m -76 X s 196 514 m cl s 282 514 m 75 X s 357 514 m cl s 263 488 m -70 X s 193 488 m cl s 274 488 m 70 X s 344 488 m cl s 270 463 m -73 X s 197 463 m cl s 280 463 m 72 X s 352 463 m cl s /w 12 def /w2 {w 2 div} def /w3 {w 3 div} def
 278 2867 282 2842 271 2816 274 2791 275 2766 265 2741 269 2715 278 2690 273 2665 267 2639 10 { m20} R 283 2589 271 2563 274 2538 274 2513 274 2487 274 2462 274 2437 274 2412 274 2386 274 2361 274 2336 274 2310 274 2285 269 2260 256 2234 263 2209 336
 2184 287 2159 276 2133 270 2108 273 2083 265 2057 273 2032 277 2007 272 1981 275 1956 275 1931 273 1905 274 1880 274 1855 274 1830 274 1804 276 1779 274 1754 139 1728 325 1703 220 1678 278 1652 247 1627 268 1602 251 1577 271 1551 249 1526 268 1501
 286 1475 273 1450 272 1425 274 1399 275 1374 274 1349 277 1323 274 1298 274 1273 274 1248 274 1222 274 1197 56 { m20} R 274 1146 274 1121 2 { m20} R 274 994 131 969 297 944 233 919 274 893 272 868 274 843 274 817 274 792 274 767 275 741 271 716 276
 691 273 666 275 640 185 615 206 590 275 564 294 539 277 514 269 488 275 463 22 { m20} R 1 0 0 c 274 2872 m -68 X s 206 2872 m cl s 285 2872 m 68 X s 353 2872 m cl s 276 2847 m -54 X s 222 2847 m cl s 286 2847 m 55 X s 341 2847 m cl s 262 2822 m -73
 X s 189 2822 m cl s 272 2822 m 74 X s 346 2822 m cl s 266 2796 m -74 X s 192 2796 m cl s 277 2796 m 74 X s 351 2796 m cl s 269 2771 m -75 X s 194 2771 m cl s 280 2771 m 75 X s 355 2771 m cl s 259 2746 m -75 X s 184 2746 m cl s 269 2746 m 74 X s 343
 2746 m cl s 267 2720 m -75 X s 192 2720 m cl s 277 2720 m 76 X s 353 2720 m cl s 273 2695 m -75 X s 198 2695 m cl s 283 2695 m 76 X s 359 2695 m cl s 267 2670 m -75 X s 192 2670 m cl s 278 2670 m 75 X s 353 2670 m cl s 263 2644 m -75 X s 188 2644 m
 cl s 273 2644 m 75 X s 348 2644 m cl s 269 2619 m -76 X s 193 2619 m cl s 279 2619 m 76 X s 355 2619 m cl s 277 2594 m -75 X s 202 2594 m cl s 288 2594 m 75 X s 363 2594 m cl s 266 2568 m -75 X s 191 2568 m cl s 277 2568 m 75 X s 352 2568 m cl s 269
 2543 m -76 X s 193 2543 m cl s 279 2543 m 76 X s 355 2543 m cl s 269 2518 m -76 X s 193 2518 m cl s 279 2518 m 76 X s 355 2518 m cl s 269 2493 m -76 X s 193 2493 m cl s 279 2493 m 76 X s 355 2493 m cl s 269 2467 m -76 X s 193 2467 m cl s 279 2467 m
 76 X s 355 2467 m cl s 269 2442 m -76 X s 193 2442 m cl s 279 2442 m 76 X s 355 2442 m cl s 269 2417 m -76 X s 193 2417 m cl s 279 2417 m 76 X s 355 2417 m cl s 269 2391 m -76 X s 193 2391 m cl s 279 2391 m 76 X s 355 2391 m cl s 269 2366 m -76 X s
 193 2366 m cl s 279 2366 m 76 X s 355 2366 m cl s 269 2341 m -76 X s 193 2341 m cl s 279 2341 m 76 X s 355 2341 m cl s 269 2315 m -76 X s 193 2315 m cl s 279 2315 m 76 X s 355 2315 m cl s 269 2290 m -76 X s 193 2290 m cl s 279 2290 m 76 X s 355 2290
 m cl s 265 2265 m -76 X s 189 2265 m cl s 275 2265 m 75 X s 350 2265 m cl s 253 2239 m -47 X s 206 2239 m cl s 264 2239 m 47 X s 311 2239 m cl s 265 2214 m -66 X s 199 2214 m cl s 275 2214 m 67 X s 342 2214 m cl s 339 2189 m -71 X s 268 2189 m cl s
 350 2189 m 71 X s 421 2189 m cl s 288 2164 m -67 X s 221 2164 m cl s 299 2164 m 68 X s 367 2164 m cl s 271 2138 m -75 X s 196 2138 m cl s 281 2138 m 76 X s 357 2138 m cl s 266 2113 m -75 X s 191 2113 m cl s 276 2113 m 76 X s 352 2113 m cl s 269 2088
 m -76 X s 193 2088 m cl s 279 2088 m 75 X s 354 2088 m cl s 261 2062 m -75 X s 186 2062 m cl s 271 2062 m 76 X s 347 2062 m cl s 268 2037 m -76 X s 192 2037 m cl s 278 2037 m 76 X s 354 2037 m cl s 272 2012 m -76 X s 196 2012 m cl s 282 2012 m 76 X
 s 358 2012 m cl s 267 1986 m -75 X s 192 1986 m cl s 278 1986 m 75 X s 353 1986 m cl s 270 1961 m -76 X s 194 1961 m cl s 280 1961 m 75 X s 355 1961 m cl s 270 1936 m -76 X s 194 1936 m cl s 280 1936 m 76 X s 356 1936 m cl s 268 1911 m -75 X s 193
 1911 m cl s 279 1911 m 75 X s 354 1911 m cl s 269 1885 m -76 X s 193 1885 m cl s 279 1885 m 76 X s 355 1885 m cl s 269 1860 m -76 X s 193 1860 m cl s 279 1860 m 75 X s 354 1860 m cl s 269 1835 m -76 X s 193 1835 m cl s 279 1835 m 76 X s 355 1835 m
 cl s 269 1809 m -75 X s 194 1809 m cl s 279 1809 m 76 X s 355 1809 m cl s 271 1784 m -76 X s 195 1784 m cl s 281 1784 m 76 X s 357 1784 m cl s 269 1759 m -76 X s 193 1759 m cl s 279 1759 m 76 X s 355 1759 m cl s 138 1733 m -54 X s 84 1733 m cl s 148
 1733 m 53 X s 201 1733 m cl s 324 1708 m -65 X s 259 1708 m cl s 334 1708 m 65 X s 399 1708 m cl s 210 1683 m -68 X s 142 1683 m cl s 220 1683 m 68 X s 288 1683 m cl s 272 1657 m -74 X s 198 1657 m cl s 282 1657 m 74 X s 356 1657 m cl s 244 1632 m
 -67 X s 177 1632 m cl s 254 1632 m 67 X s 321 1632 m cl s 260 1607 m -73 X s 187 1607 m cl s 270 1607 m 73 X s 343 1607 m cl s 248 1582 m -74 X s 174 1582 m cl s 258 1582 m 75 X s 333 1582 m cl s 266 1556 m -75 X s 191 1556 m cl s 277 1556 m 75 X s
 352 1556 m cl s 246 1531 m -74 X s 172 1531 m cl s 257 1531 m 74 X s 331 1531 m cl s 263 1506 m -75 X s 188 1506 m cl s 274 1506 m 75 X s 349 1506 m cl s 281 1480 m -75 X s 206 1480 m cl s 292 1480 m 75 X s 367 1480 m cl s 268 1455 m -75 X s 193
 1455 m cl s 279 1455 m 75 X s 354 1455 m cl s 266 1430 m -75 X s 191 1430 m cl s 277 1430 m 75 X s 352 1430 m cl s 269 1404 m -75 X s 194 1404 m cl s 279 1404 m 76 X s 355 1404 m cl s 270 1379 m -76 X s 194 1379 m cl s 280 1379 m 76 X s 356 1379 m
 cl s 269 1354 m -76 X s 193 1354 m cl s 279 1354 m 76 X s 355 1354 m cl s 272 1329 m -76 X s 196 1329 m cl s 282 1329 m 75 X s 357 1329 m cl s 269 1303 m -76 X s 193 1303 m cl s 279 1303 m 76 X s 355 1303 m cl s 269 1278 m -76 X s 193 1278 m cl s
 279 1278 m 76 X s 355 1278 m cl s 269 1253 m -76 X s 193 1253 m cl s 279 1253 m 75 X s 354 1253 m cl s 269 1227 m -76 X s 193 1227 m cl s 279 1227 m 76 X s 355 1227 m cl s 269 1202 m -76 X s 193 1202 m cl s 279 1202 m 76 X s 355 1202 m cl s 269 1177
 m -76 X s 193 1177 m cl s 279 1177 m 76 X s 355 1177 m cl s 269 1151 m -76 X s 193 1151 m cl s 279 1151 m 76 X s 355 1151 m cl s 269 1126 m -76 X s 193 1126 m cl s 279 1126 m 75 X s 354 1126 m cl s 269 1101 m -76 X s 193 1101 m cl s 279 1101 m 76 X
 s 355 1101 m cl s 269 1075 m -76 X s 193 1075 m cl s 279 1075 m 76 X s 355 1075 m cl s 269 1050 m -76 X s 193 1050 m cl s 279 1050 m 76 X s 355 1050 m cl s 269 1025 m -76 X s 193 1025 m cl s 279 1025 m 76 X s 355 1025 m cl s 269 1000 m -76 X s 193
 1000 m cl s 279 1000 m 76 X s 355 1000 m cl s 134 974 m -66 X s 68 974 m cl s 144 974 m 66 X s 210 974 m cl s 293 949 m -69 X s 224 949 m cl s 303 949 m 69 X s 372 949 m cl s 226 924 m -72 X s 154 924 m cl s 237 924 m 72 X s 309 924 m cl s 269 898 m
 -76 X s 193 898 m cl s 279 898 m 76 X s 355 898 m cl s 266 873 m -75 X s 191 873 m cl s 277 873 m 75 X s 352 873 m cl s 269 848 m -76 X s 193 848 m cl s 279 848 m 76 X s 355 848 m cl s 269 822 m -76 X s 193 822 m cl s 279 822 m 76 X s 355 822 m cl s
 269 797 m -76 X s 193 797 m cl s 279 797 m 76 X s 355 797 m cl s 269 772 m -76 X s 193 772 m cl s 279 772 m 76 X s 355 772 m cl s 271 746 m -75 X s 196 746 m cl s 281 746 m 75 X s 356 746 m cl s 266 721 m -75 X s 191 721 m cl s 277 721 m 75 X s 352
 721 m cl s 269 696 m -75 X s 194 696 m cl s 279 696 m 74 X s 353 696 m cl s 267 671 m -75 X s 192 671 m cl s 278 671 m 75 X s 353 671 m cl s 270 645 m -75 X s 195 645 m cl s 280 645 m 75 X s 355 645 m cl s 182 620 m -71 X s 111 620 m cl s 192 620 m
 72 X s 264 620 m cl s 205 595 m -64 X s 141 595 m cl s 215 595 m 64 X s 279 595 m cl s 270 569 m -76 X s 194 569 m cl s 280 569 m 75 X s 355 569 m cl s 292 544 m -56 X s 236 544 m cl s 302 544 m 55 X s 357 544 m cl s 272 519 m -76 X s 196 519 m cl s
 282 519 m 75 X s 357 519 m cl s 265 493 m -70 X s 195 493 m cl s 275 493 m 70 X s 345 493 m cl s 273 468 m -72 X s 201 468 m cl s 283 468 m 72 X s 355 468 m cl s 268 443 m -76 X s 192 443 m cl s 278 443 m 76 X s 354 443 m cl s 270 418 m -76 X s 194
 418 m cl s 280 418 m 75 X s 355 418 m cl s 269 392 m -75 X s 194 392 m cl s 280 392 m 74 X s 354 392 m cl s 269 367 m -76 X s 193 367 m cl s 279 367 m 76 X s 355 367 m cl s 269 342 m -76 X s 193 342 m cl s 279 342 m 76 X s 355 342 m cl s 269 316 m
 -76 X s 193 316 m cl s 279 316 m 76 X s 355 316 m cl s 268 291 m -76 X s 192 291 m cl s 278 291 m 76 X s 354 291 m cl s 269 266 m -76 X s 193 266 m cl s 279 266 m 76 X s 355 266 m cl s 269 240 m -76 X s 193 240 m cl s 279 240 m 76 X s 355 240 m cl s
 269 215 m -76 X s 193 215 m cl s 279 215 m 76 X s 355 215 m cl s 269 190 m -76 X s 193 190 m cl s 279 190 m 76 X s 355 190 m cl s 269 164 m -76 X s 193 164 m cl s 279 164 m 76 X s 355 164 m cl s 269 139 m -76 X s 193 139 m cl s 279 139 m 76 X s 355
 139 m cl s 269 114 m -76 X s 193 114 m cl s 279 114 m 76 X s 355 114 m cl s 269 89 m -76 X s 193 89 m cl s 279 89 m 75 X s 354 89 m cl s 269 63 m -76 X s 193 63 m cl s 279 63 m 75 X s 354 63 m cl s black 1 0 0 c 279 2872 281 2847 267 2822 271 2796
 274 2771 264 2746 272 2720 278 2695 273 2670 268 2644 274 2619 283 2594 271 2568 274 2543 274 2518 274 2493 274 2467 274 2442 274 2417 274 2391 274 2366 274 2341 274 2315 274 2290 270 2265 258 2239 270 2214 345 2189 294 2164 276 2138 271 2113 274
 2088 266 2062 273 2037 277 2012 273 1986 275 1961 275 1936 273 1911 274 1885 274 1860 274 1835 274 1809 276 1784 274 1759 143 1733 329 1708 215 1683 277 1657 249 1632 265 1607 253 1582 271 1556 251 1531 269 1506 287 1480 273 1455 272 1430 274 1404
 275 1379 274 1354 277 1329 274 1303 274 1278 274 1253 274 1227 274 1202 274 1177 274 1151 274 1126 274 1101 274 1075 274 1050 274 1025 274 1000 139 974 298 949 231 924 274 898 272 873 274 848 274 822 274 797 274 772 276 746 271 721 274 696 273 671
 275 645 187 620 210 595 275 569 297 544 277 519 270 493 278 468 273 443 275 418 274 392 274 367 100 { m24} R 274 342 274 316 273 291 274 266 274 240 274 215 274 190 274 164 274 139 274 114 274 89 274 63 12 { m24} R black
 gsave  1019 2948 0 0 C 517.378 2866.07 t 0 r /Helvetica findfont 20.4902 sf 0 0 m (Luminosity) show NC gr 
 gsave  1019 2948 0 0 C 517.378 2841.74 t 0 r /Helvetica findfont 20.4902 sf 0 0 m (b\255tag Eigenvar. 0) show NC gr 
 gsave  1019 2948 0 0 C 517.378 2816.13 t 0 r /Helvetica findfont 20.4902 sf 0 0 m (b\255tag Eigenvar. 1) show NC gr 
 gsave  1019 2948 0 0 C 517.378 2790.51 t 0 r /Helvetica findfont 20.4902 sf 0 0 m (b\255tag Eigenvar. 2) show NC gr 
 gsave  1019 2948 0 0 C 517.378 2764.9 t 0 r /Helvetica findfont 20.4902 sf 0 0 m (b\255tag Eigenvar. 3) show NC gr 
 gsave  1019 2948 0 0 C 517.378 2739.29 t 0 r /Helvetica findfont 20.4902 sf 0 0 m (b\255tag Eigenvar. 4) show NC gr 
 gsave  1019 2948 0 0 C 517.378 2714.96 t 0 r /Helvetica findfont 20.4902 sf 0 0 m (b\255tag Eigenvar. 5) show NC gr 
 gsave  1019 2948 0 0 C 517.378 2689.34 t 0 r /Helvetica findfont 20.4902 sf 0 0 m (b\255tag Eigenvar. 6) show NC gr 
 gsave  1019 2948 0 0 C 517.378 2663.73 t 0 r /Helvetica findfont 20.4902 sf 0 0 m (b\255tag Eigenvar. 7) show NC gr 
 gsave  1019 2948 0 0 C 517.378 2638.12 t 0 r /Helvetica findfont 20.4902 sf 0 0 m (b\255tag Eigenvar. 8) show NC gr 
 gsave  1019 2948 0 0 C 517.378 2613.78 t 0 r /Helvetica findfont 20.4902 sf 0 0 m (b\255tag Eigenvar. 9) show NC gr 
 gsave  1019 2948 0 0 C 517.378 2588.17 t 0 r /Helvetica findfont 20.4902 sf 0 0 m (b\255tag Eigenvar. 10) show NC gr 
 gsave  1019 2948 0 0 C 517.378 2562.56 t 0 r /Helvetica findfont 20.4902 sf 0 0 m (b\255tag Eigenvar. 11) show NC gr 
 gsave  1019 2948 0 0 C 517.378 2536.95 t 0 r /Helvetica findfont 20.4902 sf 0 0 m (b\255tag Eigenvar. 15) show NC gr 
 gsave  1019 2948 0 0 C 517.378 2512.61 t 0 r /Helvetica findfont 20.4902 sf 0 0 m (b\255tag Eigenvar. 16) show NC gr 
 gsave  1019 2948 0 0 C 517.378 2487 t 0 r /Helvetica findfont 20.4902 sf 0 0 m (b\255tag Eigenvar. 17) show NC gr 
 gsave  1019 2948 0 0 C 517.378 2461.39 t 0 r /Helvetica findfont 20.4902 sf 0 0 m (b\255tag Eigenvar. 18) show NC gr 
 gsave  1019 2948 0 0 C 517.378 2435.78 t 0 r /Helvetica findfont 20.4902 sf 0 0 m (b\255tag Eigenvar. 19) show NC gr 
 gsave  1019 2948 0 0 C 517.378 2411.44 t 0 r /Helvetica findfont 20.4902 sf 0 0 m (b\255tag Eigenvar. 20) show NC gr 
 gsave  1019 2948 0 0 C 517.378 2385.83 t 0 r /Helvetica findfont 20.4902 sf 0 0 m (b\255tag Eigenvar. 22) show NC gr 
 gsave  1019 2948 0 0 C 517.378 2360.22 t 0 r /Helvetica findfont 20.4902 sf 0 0 m (b\255tag Eigenvar. 23) show NC gr 
 gsave  1019 2948 0 0 C 517.378 2334.61 t 0 r /Helvetica findfont 20.4902 sf 0 0 m (b\255tag Eigenvar. 24) show NC gr 
 gsave  1019 2948 0 0 C 517.378 2310.27 t 0 r /Helvetica findfont 20.4902 sf 0 0 m (b\255tag Eigenvar. 25) show NC gr 
 gsave  1019 2948 0 0 C 517.378 2284.66 t 0 r /Helvetica findfont 20.4902 sf 0 0 m (b\255tag Eigenvar. 26) show NC gr 
 gsave  1019 2948 0 0 C 517.378 2259.05 t 0 r /Helvetica findfont 20.4902 sf 0 0 m (b\255tag Eigenvar. 27) show NC gr 
 gsave  1019 2948 0 0 C 517.378 2233.43 t 0 r /Helvetica findfont 20.4902 sf 0 0 m (c\255tag Eigenvar. 0) show NC gr 
 gsave  1019 2948 0 0 C 517.378 2209.1 t 0 r /Helvetica findfont 20.4902 sf 0 0 m (c\255tag Eigenvar. 1) show NC gr 
 gsave  1019 2948 0 0 C 517.378 2183.49 t 0 r /Helvetica findfont 20.4902 sf 0 0 m (c\255tag Eigenvar. 2) show NC gr 
 gsave  1019 2948 0 0 C 517.378 2157.88 t 0 r /Helvetica findfont 20.4902 sf 0 0 m (c\255tag Eigenvar. 3) show NC gr 
 gsave  1019 2948 0 0 C 517.378 2132.26 t 0 r /Helvetica findfont 20.4902 sf 0 0 m (c\255tag Eigenvar. 4) show NC gr 
 gsave  1019 2948 0 0 C 517.378 2106.65 t 0 r /Helvetica findfont 20.4902 sf 0 0 m (c\255tag Eigenvar. 5) show NC gr 
 gsave  1019 2948 0 0 C 517.378 2082.32 t 0 r /Helvetica findfont 20.4902 sf 0 0 m (c\255tag Eigenvar. 6) show NC gr 
 gsave  1019 2948 0 0 C 517.378 2056.71 t 0 r /Helvetica findfont 20.4902 sf 0 0 m (c\255tag Eigenvar. 7) show NC gr 
 gsave  1019 2948 0 0 C 517.378 2031.09 t 0 r /Helvetica findfont 20.4902 sf 0 0 m (c\255tag Eigenvar. 8) show NC gr 
 gsave  1019 2948 0 0 C 517.378 2005.48 t 0 r /Helvetica findfont 20.4902 sf 0 0 m (c\255tag Eigenvar. 9) show NC gr 
 gsave  1019 2948 0 0 C 517.378 1981.15 t 0 r /Helvetica findfont 20.4902 sf 0 0 m (c\255tag Eigenvar. 10) show NC gr 
 gsave  1019 2948 0 0 C 517.378 1955.54 t 0 r /Helvetica findfont 20.4902 sf 0 0 m (c\255tag Eigenvar. 11) show NC gr 
 gsave  1019 2948 0 0 C 517.378 1929.92 t 0 r /Helvetica findfont 20.4902 sf 0 0 m (c\255tag Eigenvar. 12) show NC gr 
 gsave  1019 2948 0 0 C 517.378 1904.31 t 0 r /Helvetica findfont 20.4902 sf 0 0 m (c\255tag Eigenvar. 13) show NC gr 
 gsave  1019 2948 0 0 C 517.378 1879.98 t 0 r /Helvetica findfont 20.4902 sf 0 0 m (c\255tag Eigenvar. 14) show NC gr 
 gsave  1019 2948 0 0 C 517.378 1854.37 t 0 r /Helvetica findfont 20.4902 sf 0 0 m (c\255tag Eigenvar. 15) show NC gr 
 gsave  1019 2948 0 0 C 517.378 1828.75 t 0 r /Helvetica findfont 20.4902 sf 0 0 m (c\255tag Eigenvar. 16) show NC gr 
 gsave  1019 2948 0 0 C 517.378 1803.14 t 0 r /Helvetica findfont 20.4902 sf 0 0 m (c\255tag Eigenvar. 17) show NC gr 
 gsave  1019 2948 0 0 C 517.378 1778.81 t 0 r /Helvetica findfont 20.4902 sf 0 0 m (c\255tag Eigenvar. 18) show NC gr 
 gsave  1019 2948 0 0 C 517.378 1753.2 t 0 r /Helvetica findfont 20.4902 sf 0 0 m (c\255tag Eigenvar. 19) show NC gr 
 gsave  1019 2948 0 0 C 517.378 1727.58 t 0 r /Helvetica findfont 20.4902 sf 0 0 m (light\255tag Eigenvar. 0) show NC gr 
 gsave  1019 2948 0 0 C 517.378 1701.97 t 0 r /Helvetica findfont 20.4902 sf 0 0 m (light\255tag Eigenvar. 1) show NC gr 
 gsave  1019 2948 0 0 C 517.378 1677.64 t 0 r /Helvetica findfont 20.4902 sf 0 0 m (light\255tag Eigenvar. 2) show NC gr 
 gsave  1019 2948 0 0 C 517.378 1652.02 t 0 r /Helvetica findfont 20.4902 sf 0 0 m (light\255tag Eigenvar. 3) show NC gr 
 gsave  1019 2948 0 0 C 517.378 1626.41 t 0 r /Helvetica findfont 20.4902 sf 0 0 m (light\255tag Eigenvar. 4) show NC gr 
 gsave  1019 2948 0 0 C 517.378 1600.8 t 0 r /Helvetica findfont 20.4902 sf 0 0 m (light\255tag Eigenvar. 5) show NC gr 
 gsave  1019 2948 0 0 C 517.378 1576.47 t 0 r /Helvetica findfont 20.4902 sf 0 0 m (light\255tag Eigenvar. 6) show NC gr 
 gsave  1019 2948 0 0 C 517.378 1550.85 t 0 r /Helvetica findfont 20.4902 sf 0 0 m (light\255tag Eigenvar. 7) show NC gr 
 gsave  1019 2948 0 0 C 517.378 1525.24 t 0 r /Helvetica findfont 20.4902 sf 0 0 m (light\255tag Eigenvar. 8) show NC gr 
 gsave  1019 2948 0 0 C 517.378 1499.63 t 0 r /Helvetica findfont 20.4902 sf 0 0 m (light\255tag Eigenvar. 9) show NC gr 
 gsave  1019 2948 0 0 C 517.378 1474.02 t 0 r /Helvetica findfont 20.4902 sf 0 0 m (light\255tag Eigenvar. 10) show NC gr 
 gsave  1019 2948 0 0 C 517.378 1449.68 t 0 r /Helvetica findfont 20.4902 sf 0 0 m (light\255tag Eigenvar. 11) show NC gr 
 gsave  1019 2948 0 0 C 517.378 1424.07 t 0 r /Helvetica findfont 20.4902 sf 0 0 m (light\255tag Eigenvar. 12) show NC gr 
 gsave  1019 2948 0 0 C 517.378 1398.46 t 0 r /Helvetica findfont 20.4902 sf 0 0 m (light\255tag Eigenvar. 13) show NC gr 
 gsave  1019 2948 0 0 C 517.378 1372.85 t 0 r /Helvetica findfont 20.4902 sf 0 0 m (light\255tag Eigenvar. 14) show NC gr 
 gsave  1019 2948 0 0 C 517.378 1348.51 t 0 r /Helvetica findfont 20.4902 sf 0 0 m (light\255tag Eigenvar. 15) show NC gr 
 gsave  1019 2948 0 0 C 517.378 1322.9 t 0 r /Helvetica findfont 20.4902 sf 0 0 m (light\255tag Eigenvar. 16) show NC gr 
 gsave  1019 2948 0 0 C 517.378 1297.29 t 0 r /Helvetica findfont 20.4902 sf 0 0 m (light\255tag Eigenvar. 17) show NC gr 
 gsave  1019 2948 0 0 C 517.378 1271.67 t 0 r /Helvetica findfont 20.4902 sf 0 0 m (light\255tag Eigenvar. 18) show NC gr 
 gsave  1019 2948 0 0 C 517.378 1247.34 t 0 r /Helvetica findfont 20.4902 sf 0 0 m (light\255tag Eigenvar. 19) show NC gr 
 gsave  1019 2948 0 0 C 517.378 1221.73 t 0 r /Helvetica findfont 20.4902 sf 0 0 m (light\255tag Eigenvar. 20) show NC gr 
 gsave  1019 2948 0 0 C 517.378 1196.12 t 0 r /Helvetica findfont 20.4902 sf 0 0 m (light\255tag Eigenvar. 24) show NC gr 
 gsave  1019 2948 0 0 C 517.378 1170.5 t 0 r /Helvetica findfont 20.4902 sf 0 0 m (light\255tag Eigenvar. 25) show NC gr 
 gsave  1019 2948 0 0 C 517.378 1146.17 t 0 r /Helvetica findfont 20.4902 sf 0 0 m (light\255tag Eigenvar. 26) show NC gr 
 gsave  1019 2948 0 0 C 517.378 1120.56 t 0 r /Helvetica findfont 20.4902 sf 0 0 m (light\255tag Eigenvar. 28) show NC gr 
 gsave  1019 2948 0 0 C 517.378 1094.95 t 0 r /Helvetica findfont 20.4902 sf 0 0 m (light\255tag Eigenvar. 30) show NC gr 
 gsave  1019 2948 0 0 C 517.378 1069.33 t 0 r /Helvetica findfont 20.4902 sf 0 0 m (light\255tag Eigenvar. 31) show NC gr 
 gsave  1019 2948 0 0 C 517.378 1045 t 0 r /Helvetica findfont 20.4902 sf 0 0 m (light\255tag Eigenvar. 32) show NC gr 
 gsave  1019 2948 0 0 C 517.378 1019.39 t 0 r /Helvetica findfont 20.4902 sf 0 0 m (light\255tag Eigenvar. 33) show NC gr 
 gsave  1019 2948 0 0 C 517.378 993.776 t 0 r /Helvetica findfont 20.4902 sf 0 0 m (light\255tag Eigenvar. 35) show NC gr 
 gsave  1019 2948 0 0 C 517.378 968.163 t 0 r /Helvetica findfont 20.4902 sf 0 0 m (JES BJES) show NC gr 
 gsave  1019 2948 0 0 C 517.378 943.831 t 0 r /Helvetica findfont 20.4902 sf 0 0 m (JES effective NP 1) show NC gr 
 gsave  1019 2948 0 0 C 517.378 918.218 t 0 r /Helvetica findfont 20.4902 sf 0 0 m (JES effective NP 2) show NC gr 
 gsave  1019 2948 0 0 C 517.378 892.606 t 0 r /Helvetica findfont 20.4902 sf 0 0 m (JES effective NP 3) show NC gr 
 gsave  1019 2948 0 0 C 517.378 866.993 t 0 r /Helvetica findfont 20.4902 sf 0 0 m (JES effective NP 4) show NC gr 
 gsave  1019 2948 0 0 C 517.378 842.661 t 0 r /Helvetica findfont 20.4902 sf 0 0 m (JES effective NP 5) show NC gr 
 gsave  1019 2948 0 0 C 517.378 817.048 t 0 r /Helvetica findfont 20.4902 sf 0 0 m (JES effective NP 6) show NC gr 
 gsave  1019 2948 0 0 C 517.378 791.435 t 0 r /Helvetica findfont 20.4902 sf 0 0 m (JES effective NP 7) show NC gr 
 gsave  1019 2948 0 0 C 517.378 765.822 t 0 r /Helvetica findfont 20.4902 sf 0 0 m (JES effective NP 8) show NC gr 
 gsave  1019 2948 0 0 C 572.446 740.209 t 0 r /Helvetica findfont 20.4902 sf 0 0 m ( intercalibration modelling) show NC gr 
 gsave  1019 2948 0 0 C 560.92 740.209 t 0 r /Symbol findfont 20.4902 sf 0 0 m (h) show NC gr 
 gsave  1019 2948 0 0 C 517.378 740.209 t 0 r /Helvetica findfont 20.4902 sf 0 0 m (JES ) show NC gr 
 gsave  1019 2948 0 0 C 572.446 715.877 t 0 r /Helvetica findfont 20.4902 sf 0 0 m ( intercalibration total stat) show NC gr 
 gsave  1019 2948 0 0 C 560.92 715.877 t 0 r /Symbol findfont 20.4902 sf 0 0 m (h) show NC gr 
 gsave  1019 2948 0 0 C 517.378 715.877 t 0 r /Helvetica findfont 20.4902 sf 0 0 m (JES ) show NC gr 
 gsave  1019 2948 0 0 C 517.378 690.265 t 0 r /Helvetica findfont 20.4902 sf 0 0 m (JES flavour response) show NC gr 
 gsave  1019 2948 0 0 C 677.458 664.652 t 0 r /Symbol findfont 20.4902 sf 0 0 m (m) show NC gr 
 gsave  1019 2948 0 0 C 517.378 664.652 t 0 r /Helvetica findfont 20.4902 sf 0 0 m (JES pileup offset ) show NC gr 
 gsave  1019 2948 0 0 C 517.378 639.039 t 0 r /Helvetica findfont 20.4902 sf 0 0 m (JES pileup offset NPV) show NC gr 
 gsave  1019 2948 0 0 C 517.378 614.707 t 0 r /Helvetica findfont 20.4902 sf 0 0 m (JES pileup pT term) show NC gr 
 gsave  1019 2948 0 0 C 632.636 589.094 t 0 r /Helvetica findfont 20.4902 sf 0 0 m ( topology) show NC gr 
 gsave  1019 2948 0 0 C 622.391 589.094 t 0 r /Symbol findfont 20.4902 sf 0 0 m (r) show NC gr 
 gsave  1019 2948 0 0 C 517.378 589.094 t 0 r /Helvetica findfont 20.4902 sf 0 0 m (JES pileup ) show NC gr 
 gsave  1019 2948 0 0 C 572.446 563.481 t 0 r /Helvetica findfont 20.4902 sf 0 0 m ( intercalibration non\255closure) show NC gr 
 gsave  1019 2948 0 0 C 560.92 563.481 t 0 r /Symbol findfont 20.4902 sf 0 0 m (h) show NC gr 
 gsave  1019 2948 0 0 C 517.378 563.481 t 0 r /Helvetica findfont 20.4902 sf 0 0 m (JES ) show NC gr 
 gsave  1019 2948 0 0 C 517.378 537.868 t 0 r /Helvetica findfont 20.4902 sf 0 0 m (JES flavour composition) show NC gr 
 gsave  1019 2948 0 0 C 517.378 513.536 t 0 r /Helvetica findfont 20.4902 sf 0 0 m (Jet vertex tagger efficiency) show NC gr 
 gsave  1019 2948 0 0 C 517.378 487.924 t 0 r /Helvetica findfont 20.4902 sf 0 0 m (Jet energy resolution) show NC gr 
 gsave  1019 2948 0 0 C 517.378 462.311 t 0 r /Helvetica findfont 20.4902 sf 0 0 m (Pileup modelling) show NC gr 
 gsave  1019 2948 0 0 C 517.378 436.698 t 0 r /Helvetica findfont 20.4902 sf 0 0 m (Electron energy resolution) show NC gr 
 gsave  1019 2948 0 0 C 517.378 412.366 t 0 r /Helvetica findfont 20.4902 sf 0 0 m (Electron energy scale) show NC gr 
 gsave  1019 2948 0 0 C 517.378 386.753 t 0 r /Helvetica findfont 20.4902 sf 0 0 m (Electron ID efficiency) show NC gr 
 gsave  1019 2948 0 0 C 517.378 361.14 t 0 r /Helvetica findfont 20.4902 sf 0 0 m (Electron isolation efficiency) show NC gr 
 gsave  1019 2948 0 0 C 517.378 335.527 t 0 r /Helvetica findfont 20.4902 sf 0 0 m (Electron reconstruction efficiency) show NC gr 
 gsave  1019 2948 0 0 C 517.378 311.195 t 0 r /Helvetica findfont 20.4902 sf 0 0 m (Muon energy resolution \(ID\)) show NC gr 
 gsave  1019 2948 0 0 C 517.378 285.583 t 0 r /Helvetica findfont 20.4902 sf 0 0 m (Muon energy resolution \(MS\)) show NC gr 
 gsave  1019 2948 0 0 C 517.378 259.97 t 0 r /Helvetica findfont 20.4902 sf 0 0 m (Muon energy scale) show NC gr 
 gsave  1019 2948 0 0 C 517.378 234.357 t 0 r /Helvetica findfont 20.4902 sf 0 0 m (Muon ID efficiency \(syst\)) show NC gr 
 gsave  1019 2948 0 0 C 517.378 210.025 t 0 r /Helvetica findfont 20.4902 sf 0 0 m (Muon low pT ID efficiency \(stat\)) show NC gr 
 gsave  1019 2948 0 0 C 517.378 184.412 t 0 r /Helvetica findfont 20.4902 sf 0 0 m (Muon low pT ID efficiency \(syst\)) show NC gr 
 gsave  1019 2948 0 0 C 517.378 158.799 t 0 r /Helvetica findfont 20.4902 sf 0 0 m (Muon trig efficiency \(stat\)) show NC gr 
 gsave  1019 2948 0 0 C 517.378 133.186 t 0 r /Helvetica findfont 20.4902 sf 0 0 m (Muon trig efficiency \(syst\)) show NC gr 
 gsave  1019 2948 0 0 C 517.378 107.574 t 0 r /Helvetica findfont 20.4902 sf 0 0 m (Muon TTVA efficiency \(stat\)) show NC gr 
 gsave  1019 2948 0 0 C 517.378 83.2415 t 0 r /Helvetica findfont 20.4902 sf 0 0 m (MET soft reso \(para.\)) show NC gr 
 gsave  1019 2948 0 0 C 517.378 57.6288 t 0 r /Helvetica findfont 20.4902 sf 0 0 m (MET soft reso \(perp.\)) show NC gr 
 gsave  1019 2948 0 0 C 103.732 2921.14 t 0 r /Helvetica findfont 25.6128 sf 0 0 m (Simple model) show NC gr  24 2921 m 66 X s 57 2921 m20
 gsave  1019 2948 0 0 C 503.291 2921.14 t 0 r /Helvetica findfont 25.6128 sf 0 0 m (`Full' model) show NC gr  1 0 0 c 423 2921 m 66 X s 456 2921 m24 black 38 51 m 472 X s 111 92 m -41 Y s 128 71 m -20 Y s 144 71 m -20 Y s 160 71 m -20 Y s 176 71 m
 -20 Y s 193 92 m -41 Y s 209 71 m -20 Y s 225 71 m -20 Y s 241 71 m -20 Y s 258 71 m -20 Y s 274 92 m -41 Y s 290 71 m -20 Y s 306 71 m -20 Y s 323 71 m -20 Y s 339 71 m -20 Y s 355 92 m -41 Y s 372 71 m -20 Y s 388 71 m -20 Y s 404 71 m -20 Y s 420
 71 m -20 Y s 437 92 m -41 Y s 111 92 m -41 Y s 95 71 m -20 Y s 79 71 m -20 Y s 63 71 m -20 Y s 46 71 m -20 Y s 437 92 m -41 Y s 453 71 m -20 Y s 469 71 m -20 Y s 485 71 m -20 Y s 502 71 m -20 Y s 38 2885 m 472 X s 111 2844 m 41 Y s 128 2864 m 21 Y s
 144 2864 m 21 Y s 160 2864 m 21 Y s 176 2864 m 21 Y s 193 2844 m 41 Y s 209 2864 m 21 Y s 225 2864 m 21 Y s 241 2864 m 21 Y s 258 2864 m 21 Y s 274 2844 m 41 Y s 290 2864 m 21 Y s 306 2864 m 21 Y s 323 2864 m 21 Y s 339 2864 m 21 Y s 355 2844 m 41 Y
 s 372 2864 m 21 Y s 388 2864 m 21 Y s 404 2864 m 21 Y s 420 2864 m 21 Y s 437 2844 m 41 Y s 111 2844 m 41 Y s 95 2864 m 21 Y s 79 2864 m 21 Y s 63 2864 m 21 Y s 46 2864 m 21 Y s 437 2844 m 41 Y s 453 2864 m 21 Y s 469 2864 m 21 Y s 485 2864 m 21 Y s
 502 2864 m 21 Y s 38 51 m 2834 Y s
 gr  gr showpage
end
%%EOF
