%!PS-Adobe-2.0 EPSF-2.0
%%BoundingBox:  0 0 380 737
%%Title: : c
%%Creator: ROOT Version 6.04/14
%%CreationDate: Sun Aug 26 18:25:58 2018
%%DocumentNeededResources: ProcSet (FontSetInit)
%%EndComments
%%BeginProlog
80 dict begin
/s {stroke} def /l {lineto} def /m {moveto} def /t {translate} def
/r {rotate} def /rl {roll}  def /R {repeat} def
/d {rlineto} def /rm {rmoveto} def /gr {grestore} def /f {eofill} def
/c {setrgbcolor} def /black {0 setgray} def /sd {setdash} def
/cl {closepath} def /sf {scalefont setfont} def /lw {setlinewidth} def
/box {m dup 0 exch d exch 0 d 0 exch neg d cl} def
/NC{systemdict begin initclip end}def/C{NC box clip newpath}def
/bl {box s} def /bf {gsave box gsave f grestore 1 lw [] 0 sd s grestore} def /Y { 0 exch d} def /X { 0 d} def 
/K {{pop pop 0 moveto} exch kshow} bind def
/ita {/ang 15 def gsave [1 0 ang dup sin exch cos div 1 0 0] concat} def 
/mp {newpath /y exch def /x exch def} def
/side {[w .77 mul w .23 mul] .385 w mul sd w 0 l currentpoint t -144 r} def
/mr {mp x y w2 0 360 arc} def /m24 {mr s} def /m20 {mr f} def
/mb {mp x y w2 add m w2 neg 0 d 0 w neg d w 0 d 0 w d cl} def
/mt {mp x y w2 add m w2 neg w neg d w 0 d cl} def
/m21 {mb f} def /m25 {mb s} def /m22 {mt f} def /m26{mt s} def
/m23 {mp x y w2 sub m w2 w d w neg 0 d cl f} def
/m27 {mp x y w2 add m w3 neg w2 neg d w3 w2 neg d w3 w2 d cl s} def
/m28 {mp x w2 sub y w2 sub w3 add m w3 0 d  0 w3 neg d w3 0 d 0 w3 d w3 0 d  0 w3 d w3 neg 0 d 0 w3 d w3 neg 0 d 0 w3 neg d w3 neg 0 d cl s } def
/m29 {mp gsave x w2 sub y w2 add w3 sub m currentpoint t 4 {side} repeat cl fill gr} def
/m30 {mp gsave x w2 sub y w2 add w3 sub m currentpoint t 4 {side} repeat cl s gr} def
/m31 {mp x y w2 sub m 0 w d x w2 sub y m w 0 d x w2 sub y w2 add m w w neg d x w2 sub y w2 sub m w w d s} def
/m32 {mp x y w2 sub m w2 w d w neg 0 d cl s} def
/m33 {mp x y w2 add m w3 neg w2 neg d w3 w2 neg d w3 w2 d cl f} def
/m34 {mp x w2 sub y w2 sub w3 add m w3 0 d  0 w3 neg d w3 0 d 0 w3 d w3 0 d  0 w3 d w3 neg 0 d 0 w3 d w3 neg 0 d 0 w3 neg d w3 neg 0 d cl f } def
/m2 {mp x y w2 sub m 0 w d x w2 sub y m w 0 d s} def
/m5 {mp x w2 sub y w2 sub m w w d x w2 sub y w2 add m w w neg d s} def
%%IncludeResource: ProcSet (FontSetInit)
%%IncludeResource: font Times-Roman
%%IncludeResource: font Times-Italic
%%IncludeResource: font Times-Bold
%%IncludeResource: font Times-BoldItalic
%%IncludeResource: font Helvetica
%%IncludeResource: font Helvetica-Oblique
%%IncludeResource: font Helvetica-Bold
%%IncludeResource: font Helvetica-BoldOblique
%%IncludeResource: font Courier
%%IncludeResource: font Courier-Oblique
%%IncludeResource: font Courier-Bold
%%IncludeResource: font Courier-BoldOblique
%%IncludeResource: font Symbol
%%IncludeResource: font ZapfDingbats
/reEncode {exch findfont dup length dict begin {1 index /FID eq  {pop pop} {def} ifelse } forall /Encoding exch def currentdict end dup /FontName get exch definefont pop } def [/Times-Bold /Times-Italic /Times-BoldItalic /Helvetica /Helvetica-Oblique
 /Helvetica-Bold /Helvetica-BoldOblique /Courier /Courier-Oblique /Courier-Bold /Courier-BoldOblique /Times-Roman /AvantGarde-Book /AvantGarde-BookOblique /AvantGarde-Demi /AvantGarde-DemiOblique /Bookman-Demi /Bookman-DemiItalic /Bookman-Light
 /Bookman-LightItalic /Helvetica-Narrow /Helvetica-Narrow-Bold /Helvetica-Narrow-BoldOblique /Helvetica-Narrow-Oblique /NewCenturySchlbk-Roman /NewCenturySchlbk-Bold /NewCenturySchlbk-BoldItalic /NewCenturySchlbk-Italic /Palatino-Bold
 /Palatino-BoldItalic /Palatino-Italic /Palatino-Roman ] {ISOLatin1Encoding reEncode } forall
%%EndProlog
%%BeginSetup
%%EndSetup
newpath  gsave  .25 .25 scale  gsave  0 0 t black[  ] 0 sd 3 lw 1 1 1 c 1522 2948 0 0 bf black 1 1 1 c 704 2779 57 75 bf black 704 2779 57 75 bl 1 1 1 c 704 2779 57 75 bf black 704 2779 57 75 bl 1 1 1 c black 3 lw 57 75 m 704 X s 166 116 m -41 Y s
 191 96 m -21 Y s 215 96 m -21 Y s 239 96 m -21 Y s 263 96 m -21 Y s 288 116 m -41 Y s 312 96 m -21 Y s 336 96 m -21 Y s 360 96 m -21 Y s 385 96 m -21 Y s 409 116 m -41 Y s 433 96 m -21 Y s 458 96 m -21 Y s 482 96 m -21 Y s 506 96 m -21 Y s 530 116 m
 -41 Y s 555 96 m -21 Y s 579 96 m -21 Y s 603 96 m -21 Y s 627 96 m -21 Y s 652 116 m -41 Y s 166 116 m -41 Y s 142 96 m -21 Y s 118 96 m -21 Y s 93 96 m -21 Y s 69 96 m -21 Y s 652 116 m -41 Y s 676 96 m -21 Y s 700 96 m -21 Y s 725 96 m -21 Y s
 749 96 m -21 Y s
 gsave  1522 2948 0 0 C 162.505 32.501 t 0 r /Helvetica findfont 34.4128 sf 0 0 m (2) show NC gr 
 gsave  1522 2948 0 0 C 145.299 32.501 t 0 r /Symbol findfont 34.4128 sf 0 0 m (-) show NC gr 
 gsave  1522 2948 0 0 C 288.685 32.501 t 0 r /Helvetica findfont 34.4128 sf 0 0 m (1) show NC gr 
 gsave  1522 2948 0 0 C 269.567 32.501 t 0 r /Symbol findfont 34.4128 sf 0 0 m (-) show NC gr 
 gsave  1522 2948 0 0 C 397.659 32.501 t 0 r /Helvetica findfont 34.4128 sf 0 0 m (0) show NC gr 
 gsave  1522 2948 0 0 C 521.928 32.501 t 0 r /Helvetica findfont 34.4128 sf 0 0 m (1) show NC gr 
 gsave  1522 2948 0 0 C 640.461 32.501 t 0 r /Helvetica findfont 34.4128 sf 0 0 m (2) show NC gr  57 2854 m 704 X s 166 2813 m 41 Y s 191 2834 m 20 Y s 215 2834 m 20 Y s 239 2834 m 20 Y s 263 2834 m 20 Y s 288 2813 m 41 Y s 312 2834 m 20 Y s 336 2834
 m 20 Y s 360 2834 m 20 Y s 385 2834 m 20 Y s 409 2813 m 41 Y s 433 2834 m 20 Y s 458 2834 m 20 Y s 482 2834 m 20 Y s 506 2834 m 20 Y s 530 2813 m 41 Y s 555 2834 m 20 Y s 579 2834 m 20 Y s 603 2834 m 20 Y s 627 2834 m 20 Y s 652 2813 m 41 Y s 166
 2813 m 41 Y s 142 2834 m 20 Y s 118 2834 m 20 Y s 93 2834 m 20 Y s 69 2834 m 20 Y s 652 2813 m 41 Y s 676 2834 m 20 Y s 700 2834 m 20 Y s 725 2834 m 20 Y s 749 2834 m 20 Y s 57 75 m 2779 Y s 1 1 0 c 486 2779 166 75 bf black 0 1 0 c 242 2779 288 75
 bf black[ 20 20] 0 sd 409 75 m 2779 Y s[  ] 0 sd 413 2828 m -80 X s 333 2828 m cl s 428 2828 m 81 X s 509 2828 m cl s 397 2790 m -109 X s 288 2790 m cl s 412 2790 m 110 X s 522 2790 m cl s 401 2753 m -111 X s 290 2753 m cl s 416 2753 m 112 X s 528
 2753 m cl s 402 2715 m -112 X s 290 2715 m cl s 418 2715 m 112 X s 530 2715 m cl s 388 2678 m -112 X s 276 2678 m cl s 403 2678 m 111 X s 514 2678 m cl s 394 2640 m -112 X s 282 2640 m cl s 410 2640 m 112 X s 522 2640 m cl s 408 2603 m -113 X s 295
 2603 m cl s 423 2603 m 112 X s 535 2603 m cl s 400 2565 m -113 X s 287 2565 m cl s 415 2565 m 112 X s 527 2565 m cl s 391 2527 m -112 X s 279 2527 m cl s 407 2527 m 111 X s 518 2527 m cl s 415 2452 m -112 X s 303 2452 m cl s 430 2452 m 113 X s 543
 2452 m cl s 397 2415 m -113 X s 284 2415 m cl s 413 2415 m 113 X s 526 2415 m cl s 401 2377 m -113 X s 288 2377 m cl s 417 2377 m 113 X s 530 2377 m cl s 401 2340 m -113 X s 288 2340 m cl s 417 2340 m 113 X s 530 2340 m cl s 401 2302 m -113 X s 288
 2302 m cl s 417 2302 m 113 X s 530 2302 m cl s 401 2265 m -113 X s 288 2265 m cl s 417 2265 m 113 X s 530 2265 m cl s 401 2227 m -113 X s 288 2227 m cl s 417 2227 m 113 X s 530 2227 m cl s 401 2189 m -113 X s 288 2189 m cl s 417 2189 m 113 X s 530
 2189 m cl s 401 2152 m -113 X s 288 2152 m cl s 417 2152 m 113 X s 530 2152 m cl s 401 2114 m -113 X s 288 2114 m cl s 417 2114 m 113 X s 530 2114 m cl s 401 2077 m -113 X s 288 2077 m cl s 417 2077 m 113 X s 530 2077 m cl s 401 2039 m -113 X s 288
 2039 m cl s 417 2039 m 113 X s 530 2039 m cl s 401 2002 m -113 X s 288 2002 m cl s 417 2002 m 113 X s 530 2002 m cl s 393 1964 m -112 X s 281 1964 m cl s 409 1964 m 112 X s 521 1964 m cl s 375 1927 m -68 X s 307 1927 m cl s 390 1927 m 68 X s 458
 1927 m cl s 384 1889 m -95 X s 289 1889 m cl s 400 1889 m 95 X s 495 1889 m cl s 494 1851 m -104 X s 390 1851 m cl s 510 1851 m 105 X s 615 1851 m cl s 421 1814 m -98 X s 323 1814 m cl s 436 1814 m 98 X s 534 1814 m cl s 404 1776 m -113 X s 291 1776
 m cl s 419 1776 m 113 X s 532 1776 m cl s 396 1739 m -113 X s 283 1739 m cl s 411 1739 m 113 X s 524 1739 m cl s 400 1701 m -112 X s 288 1701 m cl s 416 1701 m 113 X s 529 1701 m cl s 389 1664 m -113 X s 276 1664 m cl s 404 1664 m 113 X s 517 1664 m
 cl s 400 1626 m -113 X s 287 1626 m cl s 415 1626 m 113 X s 528 1626 m cl s 406 1589 m -113 X s 293 1589 m cl s 421 1589 m 113 X s 534 1589 m cl s 399 1551 m -113 X s 286 1551 m cl s 414 1551 m 113 X s 527 1551 m cl s 402 1513 m -112 X s 290 1513 m
 cl s 418 1513 m 112 X s 530 1513 m cl s 402 1476 m -113 X s 289 1476 m cl s 417 1476 m 113 X s 530 1476 m cl s 401 1438 m -113 X s 288 1438 m cl s 416 1438 m 113 X s 529 1438 m cl s 402 1401 m -113 X s 289 1401 m cl s 417 1401 m 113 X s 530 1401 m
 cl s 401 1363 m -113 X s 288 1363 m cl s 416 1363 m 113 X s 529 1363 m cl s 401 1326 m -113 X s 288 1326 m cl s 416 1326 m 113 X s 529 1326 m cl s 402 1288 m -113 X s 289 1288 m cl s 417 1288 m 113 X s 530 1288 m cl s 405 1251 m -113 X s 292 1251 m
 cl s 420 1251 m 113 X s 533 1251 m cl s 401 1213 m -113 X s 288 1213 m cl s 417 1213 m 113 X s 530 1213 m cl s 200 1175 m -80 X s 120 1175 m cl s 215 1175 m 80 X s 295 1175 m cl s 478 1138 m -97 X s 381 1138 m cl s 493 1138 m 96 X s 589 1138 m cl s
 320 1100 m -101 X s 219 1100 m cl s 335 1100 m 102 X s 437 1100 m cl s 407 1063 m -110 X s 297 1063 m cl s 422 1063 m 110 X s 532 1063 m cl s 361 1025 m -99 X s 262 1025 m cl s 377 1025 m 99 X s 476 1025 m cl s 393 988 m -109 X s 284 988 m cl s 408
 988 m 109 X s 517 988 m cl s 367 950 m -111 X s 256 950 m cl s 382 950 m 111 X s 493 950 m cl s 397 913 m -112 X s 285 913 m cl s 413 913 m 112 X s 525 913 m cl s 365 875 m -111 X s 254 875 m cl s 380 875 m 111 X s 491 875 m cl s 392 837 m -112 X s
 280 837 m cl s 407 837 m 113 X s 520 837 m cl s 420 800 m -112 X s 308 800 m cl s 435 800 m 112 X s 547 800 m cl s 401 762 m -113 X s 288 762 m cl s 416 762 m 113 X s 529 762 m cl s 398 725 m -113 X s 285 725 m cl s 413 725 m 113 X s 526 725 m cl s
 402 687 m -113 X s 289 687 m cl s 417 687 m 113 X s 530 687 m cl s 403 650 m -113 X s 290 650 m cl s 418 650 m 113 X s 531 650 m cl s 401 612 m -113 X s 288 612 m cl s 417 612 m 112 X s 529 612 m cl s 406 575 m -113 X s 293 575 m cl s 421 575 m 113
 X s 534 575 m cl s 401 537 m -113 X s 288 537 m cl s 417 537 m 113 X s 530 537 m cl s 401 499 m -113 X s 288 499 m cl s 416 499 m 113 X s 529 499 m cl s 401 462 m -113 X s 288 462 m cl s 416 462 m 113 X s 529 462 m cl s 401 424 m -112 X s 289 424 m
 cl s 417 424 m 113 X s 530 424 m cl s 401 387 m -113 X s 288 387 m cl s 417 387 m 113 X s 530 387 m cl s 401 312 m -113 X s 288 312 m cl s 417 312 m 112 X s 529 312 m cl s 401 274 m -113 X s 288 274 m cl s 416 274 m 113 X s 529 274 m cl s 401 86 m
 -113 X s 288 86 m cl s 417 86 m 113 X s 530 86 m cl s /w 18 def /w2 {w 2 div} def /w3 {w 3 div} def 421 2828 405 2790 409 2753 410 2715 395 2678 402 2640 415 2603 407 2565 399 2527 9 { m20} R 423 2452 405 2415 409 2377 409 2340 409 2302 409 2265 409
 2227 409 2189 409 2152 409 2114 409 2077 409 2039 409 2002 401 1964 382 1927 392 1889 502 1851 429 1814 412 1776 404 1739 408 1701 396 1664 408 1626 414 1589 406 1551 410 1513 410 1476 408 1438 409 1401 409 1363 409 1326 410 1288 412 1251 409 1213
 207 1175 485 1138 328 1100 415 1063 369 1025 400 988 374 950 405 913 372 875 400 837 428 800 408 762 405 725 410 687 410 650 409 612 413 575 409 537 409 499 409 462 409 424 409 387 56 { m20} R 409 312 409 274 2 { m20} R 409 86 m20 1 0 0 c 412 2835 m
 -81 X s 331 2835 m cl s 428 2835 m 81 X s 509 2835 m cl s 391 2798 m -109 X s 282 2798 m cl s 407 2798 m 109 X s 516 2798 m cl s 398 2760 m -112 X s 286 2760 m cl s 413 2760 m 111 X s 524 2760 m cl s 402 2723 m -113 X s 289 2723 m cl s 417 2723 m
 113 X s 530 2723 m cl s 386 2685 m -111 X s 275 2685 m cl s 401 2685 m 112 X s 513 2685 m cl s 399 2648 m -113 X s 286 2648 m cl s 414 2648 m 113 X s 527 2648 m cl s 408 2610 m -112 X s 296 2610 m cl s 423 2610 m 112 X s 535 2610 m cl s 399 2572 m
 -112 X s 287 2572 m cl s 415 2572 m 112 X s 527 2572 m cl s 392 2535 m -112 X s 280 2535 m cl s 407 2535 m 112 X s 519 2535 m cl s 401 2497 m -113 X s 288 2497 m cl s 417 2497 m 113 X s 530 2497 m cl s 414 2460 m -112 X s 302 2460 m cl s 430 2460 m
 112 X s 542 2460 m cl s 397 2422 m -112 X s 285 2422 m cl s 413 2422 m 113 X s 526 2422 m cl s 401 2385 m -113 X s 288 2385 m cl s 417 2385 m 113 X s 530 2385 m cl s 401 2347 m -113 X s 288 2347 m cl s 417 2347 m 113 X s 530 2347 m cl s 401 2310 m
 -113 X s 288 2310 m cl s 417 2310 m 113 X s 530 2310 m cl s 401 2272 m -113 X s 288 2272 m cl s 417 2272 m 113 X s 530 2272 m cl s 401 2234 m -113 X s 288 2234 m cl s 417 2234 m 113 X s 530 2234 m cl s 401 2197 m -113 X s 288 2197 m cl s 417 2197 m
 113 X s 530 2197 m cl s 401 2159 m -113 X s 288 2159 m cl s 417 2159 m 112 X s 529 2159 m cl s 401 2122 m -113 X s 288 2122 m cl s 417 2122 m 113 X s 530 2122 m cl s 401 2084 m -113 X s 288 2084 m cl s 417 2084 m 113 X s 530 2084 m cl s 401 2047 m
 -113 X s 288 2047 m cl s 417 2047 m 113 X s 530 2047 m cl s 401 2009 m -113 X s 288 2009 m cl s 417 2009 m 113 X s 530 2009 m cl s 395 1972 m -112 X s 283 1972 m cl s 411 1972 m 112 X s 523 1972 m cl s 378 1934 m -70 X s 308 1934 m cl s 393 1934 m
 71 X s 464 1934 m cl s 396 1897 m -99 X s 297 1897 m cl s 411 1897 m 99 X s 510 1897 m cl s 507 1859 m -107 X s 400 1859 m cl s 522 1859 m 107 X s 629 1859 m cl s 431 1821 m -101 X s 330 1821 m cl s 446 1821 m 101 X s 547 1821 m cl s 405 1784 m -113
 X s 292 1784 m cl s 420 1784 m 112 X s 532 1784 m cl s 397 1746 m -113 X s 284 1746 m cl s 412 1746 m 113 X s 525 1746 m cl s 401 1709 m -113 X s 288 1709 m cl s 416 1709 m 113 X s 529 1709 m cl s 390 1671 m -113 X s 277 1671 m cl s 405 1671 m 113 X
 s 518 1671 m cl s 400 1634 m -113 X s 287 1634 m cl s 415 1634 m 113 X s 528 1634 m cl s 406 1596 m -113 X s 293 1596 m cl s 421 1596 m 113 X s 534 1596 m cl s 399 1559 m -113 X s 286 1559 m cl s 415 1559 m 112 X s 527 1559 m cl s 402 1521 m -112 X
 s 290 1521 m cl s 418 1521 m 112 X s 530 1521 m cl s 403 1483 m -113 X s 290 1483 m cl s 418 1483 m 113 X s 531 1483 m cl s 401 1446 m -113 X s 288 1446 m cl s 416 1446 m 113 X s 529 1446 m cl s 402 1408 m -113 X s 289 1408 m cl s 417 1408 m 113 X s
 530 1408 m cl s 401 1371 m -113 X s 288 1371 m cl s 416 1371 m 113 X s 529 1371 m cl s 401 1333 m -113 X s 288 1333 m cl s 416 1333 m 113 X s 529 1333 m cl s 402 1296 m -113 X s 289 1296 m cl s 417 1296 m 113 X s 530 1296 m cl s 404 1258 m -113 X s
 291 1258 m cl s 419 1258 m 113 X s 532 1258 m cl s 401 1221 m -113 X s 288 1221 m cl s 417 1221 m 113 X s 530 1221 m cl s 205 1183 m -79 X s 126 1183 m cl s 221 1183 m 80 X s 301 1183 m cl s 484 1145 m -97 X s 387 1145 m cl s 499 1145 m 97 X s 596
 1145 m cl s 313 1108 m -101 X s 212 1108 m cl s 328 1108 m 102 X s 430 1108 m cl s 406 1070 m -110 X s 296 1070 m cl s 422 1070 m 110 X s 532 1070 m cl s 364 1033 m -99 X s 265 1033 m cl s 380 1033 m 99 X s 479 1033 m cl s 388 995 m -109 X s 279 995
 m cl s 404 995 m 109 X s 513 995 m cl s 371 958 m -111 X s 260 958 m cl s 386 958 m 111 X s 497 958 m cl s 398 920 m -113 X s 285 920 m cl s 413 920 m 113 X s 526 920 m cl s 368 883 m -111 X s 257 883 m cl s 383 883 m 111 X s 494 883 m cl s 393 845
 m -112 X s 281 845 m cl s 409 845 m 112 X s 521 845 m cl s 420 807 m -112 X s 308 807 m cl s 435 807 m 113 X s 548 807 m cl s 400 770 m -112 X s 288 770 m cl s 416 770 m 113 X s 529 770 m cl s 398 732 m -113 X s 285 732 m cl s 413 732 m 113 X s 526
 732 m cl s 402 695 m -113 X s 289 695 m cl s 417 695 m 113 X s 530 695 m cl s 403 657 m -113 X s 290 657 m cl s 418 657 m 113 X s 531 657 m cl s 401 620 m -112 X s 289 620 m cl s 417 620 m 113 X s 530 620 m cl s 405 582 m -112 X s 293 582 m cl s 421
 582 m 112 X s 533 582 m cl s 401 545 m -113 X s 288 545 m cl s 417 545 m 112 X s 529 545 m cl s 401 507 m -113 X s 288 507 m cl s 417 507 m 112 X s 529 507 m cl s 401 469 m -113 X s 288 469 m cl s 416 469 m 113 X s 529 469 m cl s 401 432 m -112 X s
 289 432 m cl s 417 432 m 113 X s 530 432 m cl s 401 394 m -113 X s 288 394 m cl s 417 394 m 113 X s 530 394 m cl s 401 357 m -113 X s 288 357 m cl s 417 357 m 113 X s 530 357 m cl s 401 319 m -113 X s 288 319 m cl s 417 319 m 112 X s 529 319 m cl s
 401 282 m -113 X s 288 282 m cl s 416 282 m 113 X s 529 282 m cl s 401 244 m -113 X s 288 244 m cl s 417 244 m 113 X s 530 244 m cl s 401 207 m -113 X s 288 207 m cl s 417 207 m 113 X s 530 207 m cl s 401 169 m -113 X s 288 169 m cl s 417 169 m 113
 X s 530 169 m cl s 401 131 m -113 X s 288 131 m cl s 417 131 m 113 X s 530 131 m cl s 401 94 m -113 X s 288 94 m cl s 417 94 m 113 X s 530 94 m cl s black 1 0 0 c 420 2835 399 2798 405 2760 410 2723 394 2685 407 2648 416 2610 407 2572 400 2535 409
 2497 422 2460 405 2422 409 2385 409 2347 409 2310 409 2272 409 2234 409 2197 409 2159 409 2122 409 2084 409 2047 409 2009 403 1972 386 1934 403 1897 514 1859 438 1821 412 1784 405 1746 409 1709 398 1671 408 1634 413 1596 407 1559 410 1521 410 1483
 408 1446 409 1408 409 1371 409 1333 410 1296 412 1258 409 1221 213 1183 491 1145 321 1108 414 1070 372 1033 396 995 378 958 405 920 375 883 401 845 428 807 408 770 405 732 410 695 410 657 409 620 413 582 409 545 409 507 409 469 409 432 409 394 409
 357 409 319 409 282 409 244 409 207 409 169 409 131 409 94 74 { m24} R black
 gsave  1522 2948 0 0 C 772.377 2827.59 t 0 r /Helvetica findfont 30.5892 sf 0 0 m (b\255tag Eigenvar. 0) show NC gr 
 gsave  1522 2948 0 0 C 772.377 2789.35 t 0 r /Helvetica findfont 30.5892 sf 0 0 m (b\255tag Eigenvar. 1) show NC gr 
 gsave  1522 2948 0 0 C 772.377 2751.11 t 0 r /Helvetica findfont 30.5892 sf 0 0 m (b\255tag Eigenvar. 2) show NC gr 
 gsave  1522 2948 0 0 C 772.377 2714.79 t 0 r /Helvetica findfont 30.5892 sf 0 0 m (b\255tag Eigenvar. 3) show NC gr 
 gsave  1522 2948 0 0 C 772.377 2676.55 t 0 r /Helvetica findfont 30.5892 sf 0 0 m (b\255tag Eigenvar. 4) show NC gr 
 gsave  1522 2948 0 0 C 772.377 2638.32 t 0 r /Helvetica findfont 30.5892 sf 0 0 m (b\255tag Eigenvar. 5) show NC gr 
 gsave  1522 2948 0 0 C 772.377 2601.99 t 0 r /Helvetica findfont 30.5892 sf 0 0 m (b\255tag Eigenvar. 6) show NC gr 
 gsave  1522 2948 0 0 C 772.377 2563.76 t 0 r /Helvetica findfont 30.5892 sf 0 0 m (b\255tag Eigenvar. 7) show NC gr 
 gsave  1522 2948 0 0 C 772.377 2527.43 t 0 r /Helvetica findfont 30.5892 sf 0 0 m (b\255tag Eigenvar. 8) show NC gr 
 gsave  1522 2948 0 0 C 772.377 2489.19 t 0 r /Helvetica findfont 30.5892 sf 0 0 m (b\255tag Eigenvar. 9) show NC gr 
 gsave  1522 2948 0 0 C 772.377 2450.96 t 0 r /Helvetica findfont 30.5892 sf 0 0 m (b\255tag Eigenvar. 10) show NC gr 
 gsave  1522 2948 0 0 C 772.377 2414.63 t 0 r /Helvetica findfont 30.5892 sf 0 0 m (b\255tag Eigenvar. 11) show NC gr 
 gsave  1522 2948 0 0 C 772.377 2376.4 t 0 r /Helvetica findfont 30.5892 sf 0 0 m (b\255tag Eigenvar. 15) show NC gr 
 gsave  1522 2948 0 0 C 772.377 2338.16 t 0 r /Helvetica findfont 30.5892 sf 0 0 m (b\255tag Eigenvar. 16) show NC gr 
 gsave  1522 2948 0 0 C 772.377 2301.84 t 0 r /Helvetica findfont 30.5892 sf 0 0 m (b\255tag Eigenvar. 17) show NC gr 
 gsave  1522 2948 0 0 C 772.377 2263.6 t 0 r /Helvetica findfont 30.5892 sf 0 0 m (b\255tag Eigenvar. 18) show NC gr 
 gsave  1522 2948 0 0 C 772.377 2225.36 t 0 r /Helvetica findfont 30.5892 sf 0 0 m (b\255tag Eigenvar. 19) show NC gr 
 gsave  1522 2948 0 0 C 772.377 2189.04 t 0 r /Helvetica findfont 30.5892 sf 0 0 m (b\255tag Eigenvar. 20) show NC gr 
 gsave  1522 2948 0 0 C 772.377 2150.8 t 0 r /Helvetica findfont 30.5892 sf 0 0 m (b\255tag Eigenvar. 22) show NC gr 
 gsave  1522 2948 0 0 C 772.377 2112.56 t 0 r /Helvetica findfont 30.5892 sf 0 0 m (b\255tag Eigenvar. 23) show NC gr 
 gsave  1522 2948 0 0 C 772.377 2076.24 t 0 r /Helvetica findfont 30.5892 sf 0 0 m (b\255tag Eigenvar. 24) show NC gr 
 gsave  1522 2948 0 0 C 772.377 2038 t 0 r /Helvetica findfont 30.5892 sf 0 0 m (b\255tag Eigenvar. 25) show NC gr 
 gsave  1522 2948 0 0 C 772.377 2001.68 t 0 r /Helvetica findfont 30.5892 sf 0 0 m (b\255tag Eigenvar. 26) show NC gr 
 gsave  1522 2948 0 0 C 772.377 1963.44 t 0 r /Helvetica findfont 30.5892 sf 0 0 m (b\255tag Eigenvar. 27) show NC gr 
 gsave  1522 2948 0 0 C 772.377 1925.21 t 0 r /Helvetica findfont 30.5892 sf 0 0 m (c\255tag Eigenvar. 0) show NC gr 
 gsave  1522 2948 0 0 C 772.377 1888.88 t 0 r /Helvetica findfont 30.5892 sf 0 0 m (c\255tag Eigenvar. 1) show NC gr 
 gsave  1522 2948 0 0 C 772.377 1850.64 t 0 r /Helvetica findfont 30.5892 sf 0 0 m (c\255tag Eigenvar. 2) show NC gr 
 gsave  1522 2948 0 0 C 772.377 1812.41 t 0 r /Helvetica findfont 30.5892 sf 0 0 m (c\255tag Eigenvar. 3) show NC gr 
 gsave  1522 2948 0 0 C 772.377 1776.08 t 0 r /Helvetica findfont 30.5892 sf 0 0 m (c\255tag Eigenvar. 4) show NC gr 
 gsave  1522 2948 0 0 C 772.377 1737.85 t 0 r /Helvetica findfont 30.5892 sf 0 0 m (c\255tag Eigenvar. 5) show NC gr 
 gsave  1522 2948 0 0 C 772.377 1699.61 t 0 r /Helvetica findfont 30.5892 sf 0 0 m (c\255tag Eigenvar. 6) show NC gr 
 gsave  1522 2948 0 0 C 772.377 1663.29 t 0 r /Helvetica findfont 30.5892 sf 0 0 m (c\255tag Eigenvar. 7) show NC gr 
 gsave  1522 2948 0 0 C 772.377 1625.05 t 0 r /Helvetica findfont 30.5892 sf 0 0 m (c\255tag Eigenvar. 8) show NC gr 
 gsave  1522 2948 0 0 C 772.377 1586.81 t 0 r /Helvetica findfont 30.5892 sf 0 0 m (c\255tag Eigenvar. 9) show NC gr 
 gsave  1522 2948 0 0 C 772.377 1550.49 t 0 r /Helvetica findfont 30.5892 sf 0 0 m (c\255tag Eigenvar. 10) show NC gr 
 gsave  1522 2948 0 0 C 772.377 1512.25 t 0 r /Helvetica findfont 30.5892 sf 0 0 m (c\255tag Eigenvar. 11) show NC gr 
 gsave  1522 2948 0 0 C 772.377 1474.02 t 0 r /Helvetica findfont 30.5892 sf 0 0 m (c\255tag Eigenvar. 12) show NC gr 
 gsave  1522 2948 0 0 C 772.377 1437.69 t 0 r /Helvetica findfont 30.5892 sf 0 0 m (c\255tag Eigenvar. 13) show NC gr 
 gsave  1522 2948 0 0 C 772.377 1399.45 t 0 r /Helvetica findfont 30.5892 sf 0 0 m (c\255tag Eigenvar. 14) show NC gr 
 gsave  1522 2948 0 0 C 772.377 1363.13 t 0 r /Helvetica findfont 30.5892 sf 0 0 m (c\255tag Eigenvar. 15) show NC gr 
 gsave  1522 2948 0 0 C 772.377 1324.89 t 0 r /Helvetica findfont 30.5892 sf 0 0 m (c\255tag Eigenvar. 16) show NC gr 
 gsave  1522 2948 0 0 C 772.377 1286.66 t 0 r /Helvetica findfont 30.5892 sf 0 0 m (c\255tag Eigenvar. 17) show NC gr 
 gsave  1522 2948 0 0 C 772.377 1250.33 t 0 r /Helvetica findfont 30.5892 sf 0 0 m (c\255tag Eigenvar. 18) show NC gr 
 gsave  1522 2948 0 0 C 772.377 1212.1 t 0 r /Helvetica findfont 30.5892 sf 0 0 m (c\255tag Eigenvar. 19) show NC gr 
 gsave  1522 2948 0 0 C 772.377 1173.86 t 0 r /Helvetica findfont 30.5892 sf 0 0 m (light\255tag Eigenvar. 0) show NC gr 
 gsave  1522 2948 0 0 C 772.377 1137.53 t 0 r /Helvetica findfont 30.5892 sf 0 0 m (light\255tag Eigenvar. 1) show NC gr 
 gsave  1522 2948 0 0 C 772.377 1099.3 t 0 r /Helvetica findfont 30.5892 sf 0 0 m (light\255tag Eigenvar. 2) show NC gr 
 gsave  1522 2948 0 0 C 772.377 1061.06 t 0 r /Helvetica findfont 30.5892 sf 0 0 m (light\255tag Eigenvar. 3) show NC gr 
 gsave  1522 2948 0 0 C 772.377 1024.74 t 0 r /Helvetica findfont 30.5892 sf 0 0 m (light\255tag Eigenvar. 4) show NC gr 
 gsave  1522 2948 0 0 C 772.377 986.501 t 0 r /Helvetica findfont 30.5892 sf 0 0 m (light\255tag Eigenvar. 5) show NC gr 
 gsave  1522 2948 0 0 C 772.377 948.264 t 0 r /Helvetica findfont 30.5892 sf 0 0 m (light\255tag Eigenvar. 6) show NC gr 
 gsave  1522 2948 0 0 C 772.377 911.94 t 0 r /Helvetica findfont 30.5892 sf 0 0 m (light\255tag Eigenvar. 7) show NC gr 
 gsave  1522 2948 0 0 C 772.377 873.703 t 0 r /Helvetica findfont 30.5892 sf 0 0 m (light\255tag Eigenvar. 8) show NC gr 
 gsave  1522 2948 0 0 C 772.377 837.379 t 0 r /Helvetica findfont 30.5892 sf 0 0 m (light\255tag Eigenvar. 9) show NC gr 
 gsave  1522 2948 0 0 C 772.377 799.142 t 0 r /Helvetica findfont 30.5892 sf 0 0 m (light\255tag Eigenvar. 10) show NC gr 
 gsave  1522 2948 0 0 C 772.377 760.906 t 0 r /Helvetica findfont 30.5892 sf 0 0 m (light\255tag Eigenvar. 11) show NC gr 
 gsave  1522 2948 0 0 C 772.377 724.581 t 0 r /Helvetica findfont 30.5892 sf 0 0 m (light\255tag Eigenvar. 12) show NC gr 
 gsave  1522 2948 0 0 C 772.377 686.345 t 0 r /Helvetica findfont 30.5892 sf 0 0 m (light\255tag Eigenvar. 13) show NC gr 
 gsave  1522 2948 0 0 C 772.377 648.108 t 0 r /Helvetica findfont 30.5892 sf 0 0 m (light\255tag Eigenvar. 14) show NC gr 
 gsave  1522 2948 0 0 C 772.377 611.783 t 0 r /Helvetica findfont 30.5892 sf 0 0 m (light\255tag Eigenvar. 15) show NC gr 
 gsave  1522 2948 0 0 C 772.377 573.547 t 0 r /Helvetica findfont 30.5892 sf 0 0 m (light\255tag Eigenvar. 16) show NC gr 
 gsave  1522 2948 0 0 C 772.377 535.311 t 0 r /Helvetica findfont 30.5892 sf 0 0 m (light\255tag Eigenvar. 17) show NC gr 
 gsave  1522 2948 0 0 C 772.377 498.986 t 0 r /Helvetica findfont 30.5892 sf 0 0 m (light\255tag Eigenvar. 18) show NC gr 
 gsave  1522 2948 0 0 C 772.377 460.749 t 0 r /Helvetica findfont 30.5892 sf 0 0 m (light\255tag Eigenvar. 19) show NC gr 
 gsave  1522 2948 0 0 C 772.377 422.513 t 0 r /Helvetica findfont 30.5892 sf 0 0 m (light\255tag Eigenvar. 20) show NC gr 
 gsave  1522 2948 0 0 C 772.377 386.188 t 0 r /Helvetica findfont 30.5892 sf 0 0 m (light\255tag Eigenvar. 24) show NC gr 
 gsave  1522 2948 0 0 C 772.377 347.952 t 0 r /Helvetica findfont 30.5892 sf 0 0 m (light\255tag Eigenvar. 25) show NC gr 
 gsave  1522 2948 0 0 C 772.377 311.627 t 0 r /Helvetica findfont 30.5892 sf 0 0 m (light\255tag Eigenvar. 26) show NC gr 
 gsave  1522 2948 0 0 C 772.377 273.391 t 0 r /Helvetica findfont 30.5892 sf 0 0 m (light\255tag Eigenvar. 28) show NC gr 
 gsave  1522 2948 0 0 C 772.377 235.154 t 0 r /Helvetica findfont 30.5892 sf 0 0 m (light\255tag Eigenvar. 30) show NC gr 
 gsave  1522 2948 0 0 C 772.377 198.83 t 0 r /Helvetica findfont 30.5892 sf 0 0 m (light\255tag Eigenvar. 31) show NC gr 
 gsave  1522 2948 0 0 C 772.377 160.593 t 0 r /Helvetica findfont 30.5892 sf 0 0 m (light\255tag Eigenvar. 32) show NC gr 
 gsave  1522 2948 0 0 C 772.377 122.357 t 0 r /Helvetica findfont 30.5892 sf 0 0 m (light\255tag Eigenvar. 33) show NC gr 
 gsave  1522 2948 0 0 C 772.377 86.0321 t 0 r /Helvetica findfont 30.5892 sf 0 0 m (light\255tag Eigenvar. 35) show NC gr 
 gsave  1522 2948 0 0 C 154.858 2915.53 t 0 r /Helvetica findfont 38.2365 sf 0 0 m (Simple model) show NC gr  36 2915 m 99 X s 86 2915 m20
 gsave  1522 2948 0 0 C 753.258 2915.53 t 0 r /Helvetica findfont 38.2365 sf 0 0 m (`Full' model) show NC gr  1 0 0 c 634 2915 m 98 X s 683 2915 m24 black 57 75 m 704 X s 166 116 m -41 Y s 191 96 m -21 Y s 215 96 m -21 Y s 239 96 m -21 Y s 263 96 m
 -21 Y s 288 116 m -41 Y s 312 96 m -21 Y s 336 96 m -21 Y s 360 96 m -21 Y s 385 96 m -21 Y s 409 116 m -41 Y s 433 96 m -21 Y s 458 96 m -21 Y s 482 96 m -21 Y s 506 96 m -21 Y s 530 116 m -41 Y s 555 96 m -21 Y s 579 96 m -21 Y s 603 96 m -21 Y s
 627 96 m -21 Y s 652 116 m -41 Y s 166 116 m -41 Y s 142 96 m -21 Y s 118 96 m -21 Y s 93 96 m -21 Y s 69 96 m -21 Y s 652 116 m -41 Y s 676 96 m -21 Y s 700 96 m -21 Y s 725 96 m -21 Y s 749 96 m -21 Y s 57 2854 m 704 X s 166 2813 m 41 Y s 191 2834
 m 20 Y s 215 2834 m 20 Y s 239 2834 m 20 Y s 263 2834 m 20 Y s 288 2813 m 41 Y s 312 2834 m 20 Y s 336 2834 m 20 Y s 360 2834 m 20 Y s 385 2834 m 20 Y s 409 2813 m 41 Y s 433 2834 m 20 Y s 458 2834 m 20 Y s 482 2834 m 20 Y s 506 2834 m 20 Y s 530
 2813 m 41 Y s 555 2834 m 20 Y s 579 2834 m 20 Y s 603 2834 m 20 Y s 627 2834 m 20 Y s 652 2813 m 41 Y s 166 2813 m 41 Y s 142 2834 m 20 Y s 118 2834 m 20 Y s 93 2834 m 20 Y s 69 2834 m 20 Y s 652 2813 m 41 Y s 676 2834 m 20 Y s 700 2834 m 20 Y s 725
 2834 m 20 Y s 749 2834 m 20 Y s 57 75 m 2779 Y s
 gr  gr showpage
end
%%EOF
