%!PS-Adobe-2.0 EPSF-2.0
%%BoundingBox:  0 0 567 201
%%Title: : c
%%Creator: ROOT Version 6.04/14
%%CreationDate: Thu Aug 30 10:30:38 2018
%%DocumentNeededResources: ProcSet (FontSetInit)
%%EndComments
%%BeginProlog
80 dict begin
/s {stroke} def /l {lineto} def /m {moveto} def /t {translate} def
/r {rotate} def /rl {roll}  def /R {repeat} def
/d {rlineto} def /rm {rmoveto} def /gr {grestore} def /f {eofill} def
/c {setrgbcolor} def /black {0 setgray} def /sd {setdash} def
/cl {closepath} def /sf {scalefont setfont} def /lw {setlinewidth} def
/box {m dup 0 exch d exch 0 d 0 exch neg d cl} def
/NC{systemdict begin initclip end}def/C{NC box clip newpath}def
/bl {box s} def /bf {gsave box gsave f grestore 1 lw [] 0 sd s grestore} def /Y { 0 exch d} def /X { 0 d} def 
/K {{pop pop 0 moveto} exch kshow} bind def
/ita {/ang 15 def gsave [1 0 ang dup sin exch cos div 1 0 0] concat} def 
/mp {newpath /y exch def /x exch def} def
/side {[w .77 mul w .23 mul] .385 w mul sd w 0 l currentpoint t -144 r} def
/mr {mp x y w2 0 360 arc} def /m24 {mr s} def /m20 {mr f} def
/mb {mp x y w2 add m w2 neg 0 d 0 w neg d w 0 d 0 w d cl} def
/mt {mp x y w2 add m w2 neg w neg d w 0 d cl} def
/m21 {mb f} def /m25 {mb s} def /m22 {mt f} def /m26{mt s} def
/m23 {mp x y w2 sub m w2 w d w neg 0 d cl f} def
/m27 {mp x y w2 add m w3 neg w2 neg d w3 w2 neg d w3 w2 d cl s} def
/m28 {mp x w2 sub y w2 sub w3 add m w3 0 d  0 w3 neg d w3 0 d 0 w3 d w3 0 d  0 w3 d w3 neg 0 d 0 w3 d w3 neg 0 d 0 w3 neg d w3 neg 0 d cl s } def
/m29 {mp gsave x w2 sub y w2 add w3 sub m currentpoint t 4 {side} repeat cl fill gr} def
/m30 {mp gsave x w2 sub y w2 add w3 sub m currentpoint t 4 {side} repeat cl s gr} def
/m31 {mp x y w2 sub m 0 w d x w2 sub y m w 0 d x w2 sub y w2 add m w w neg d x w2 sub y w2 sub m w w d s} def
/m32 {mp x y w2 sub m w2 w d w neg 0 d cl s} def
/m33 {mp x y w2 add m w3 neg w2 neg d w3 w2 neg d w3 w2 d cl f} def
/m34 {mp x w2 sub y w2 sub w3 add m w3 0 d  0 w3 neg d w3 0 d 0 w3 d w3 0 d  0 w3 d w3 neg 0 d 0 w3 d w3 neg 0 d 0 w3 neg d w3 neg 0 d cl f } def
/m2 {mp x y w2 sub m 0 w d x w2 sub y m w 0 d s} def
/m5 {mp x w2 sub y w2 sub m w w d x w2 sub y w2 add m w w neg d s} def
%%IncludeResource: ProcSet (FontSetInit)
%%IncludeResource: font Times-Roman
%%IncludeResource: font Times-Italic
%%IncludeResource: font Times-Bold
%%IncludeResource: font Times-BoldItalic
%%IncludeResource: font Helvetica
%%IncludeResource: font Helvetica-Oblique
%%IncludeResource: font Helvetica-Bold
%%IncludeResource: font Helvetica-BoldOblique
%%IncludeResource: font Courier
%%IncludeResource: font Courier-Oblique
%%IncludeResource: font Courier-Bold
%%IncludeResource: font Courier-BoldOblique
%%IncludeResource: font Symbol
%%IncludeResource: font ZapfDingbats
/reEncode {exch findfont dup length dict begin {1 index /FID eq  {pop pop} {def} ifelse } forall /Encoding exch def currentdict end dup /FontName get exch definefont pop } def [/Times-Bold /Times-Italic /Times-BoldItalic /Helvetica /Helvetica-Oblique
 /Helvetica-Bold /Helvetica-BoldOblique /Courier /Courier-Oblique /Courier-Bold /Courier-BoldOblique /Times-Roman /AvantGarde-Book /AvantGarde-BookOblique /AvantGarde-Demi /AvantGarde-DemiOblique /Bookman-Demi /Bookman-DemiItalic /Bookman-Light
 /Bookman-LightItalic /Helvetica-Narrow /Helvetica-Narrow-Bold /Helvetica-Narrow-BoldOblique /Helvetica-Narrow-Oblique /NewCenturySchlbk-Roman /NewCenturySchlbk-Bold /NewCenturySchlbk-BoldItalic /NewCenturySchlbk-Italic /Palatino-Bold
 /Palatino-BoldItalic /Palatino-Italic /Palatino-Roman ] {ISOLatin1Encoding reEncode } forall
%%EndProlog
%%BeginSetup
%%EndSetup
newpath  gsave  .25 .25 scale  gsave  0 0 t black[  ] 0 sd 3 lw 1 1 1 c 2268 803 0 0 bf black 1 1 1 c 1049 570 85 104 bf black 1049 570 85 104 bl 1 1 1 c 1049 570 85 104 bf black 1049 570 85 104 bl 1 1 1 c black 3 lw 85 104 m 1049 X s 248 115 m -11 Y
 s 284 109 m -5 Y s 320 109 m -5 Y s 356 109 m -5 Y s 392 109 m -5 Y s 429 115 m -11 Y s 465 109 m -5 Y s 501 109 m -5 Y s 537 109 m -5 Y s 573 109 m -5 Y s 609 115 m -11 Y s 646 109 m -5 Y s 682 109 m -5 Y s 718 109 m -5 Y s 754 109 m -5 Y s 790 115
 m -11 Y s 826 109 m -5 Y s 863 109 m -5 Y s 899 109 m -5 Y s 935 109 m -5 Y s 971 115 m -11 Y s 248 115 m -11 Y s 212 109 m -5 Y s 175 109 m -5 Y s 139 109 m -5 Y s 103 109 m -5 Y s 971 115 m -11 Y s 1007 109 m -5 Y s 1043 109 m -5 Y s 1080 109 m -5
 Y s 1116 109 m -5 Y s
 gsave  2268 803 0 0 C 242.156 56.9778 t 0 r /Helvetica findfont 51.28 sf 0 0 m (2) show NC gr 
 gsave  2268 803 0 0 C 216.516 56.9778 t 0 r /Symbol findfont 51.28 sf 0 0 m (-) show NC gr 
 gsave  2268 803 0 0 C 430.182 56.9778 t 0 r /Helvetica findfont 51.28 sf 0 0 m (1) show NC gr 
 gsave  2268 803 0 0 C 401.694 56.9778 t 0 r /Symbol findfont 51.28 sf 0 0 m (-) show NC gr 
 gsave  2268 803 0 0 C 592.569 56.9778 t 0 r /Helvetica findfont 51.28 sf 0 0 m (0) show NC gr 
 gsave  2268 803 0 0 C 777.747 56.9778 t 0 r /Helvetica findfont 51.28 sf 0 0 m (1) show NC gr 
 gsave  2268 803 0 0 C 954.378 56.9778 t 0 r /Helvetica findfont 51.28 sf 0 0 m (2) show NC gr  85 674 m 1049 X s 248 663 m 11 Y s 284 668 m 6 Y s 320 668 m 6 Y s 356 668 m 6 Y s 392 668 m 6 Y s 429 663 m 11 Y s 465 668 m 6 Y s 501 668 m 6 Y s 537
 668 m 6 Y s 573 668 m 6 Y s 609 663 m 11 Y s 646 668 m 6 Y s 682 668 m 6 Y s 718 668 m 6 Y s 754 668 m 6 Y s 790 663 m 11 Y s 826 668 m 6 Y s 863 668 m 6 Y s 899 668 m 6 Y s 935 668 m 6 Y s 971 663 m 11 Y s 248 663 m 11 Y s 212 668 m 6 Y s 175 668 m
 6 Y s 139 668 m 6 Y s 103 668 m 6 Y s 971 663 m 11 Y s 1007 668 m 6 Y s 1043 668 m 6 Y s 1080 668 m 6 Y s 1116 668 m 6 Y s 85 104 m 570 Y s 1 1 0 c 723 570 248 104 bf black 0 1 0 c 361 570 429 104 bf black[ 20 20] 0 sd 609 104 m 570 Y s[  ] 0 sd 603
 632 m -152 X s 451 632 m cl s 626 632 m 152 X s 778 632 m cl s 614 581 m -168 X s 446 581 m cl s 637 581 m 167 X s 804 581 m cl s 643 529 m -154 X s 489 529 m cl s 666 529 m 154 X s 820 529 m cl s 537 477 m -161 X s 376 477 m cl s 560 477 m 161 X s
 721 477 m cl s 651 425 m -167 X s 484 425 m cl s 674 425 m 166 X s 840 425 m cl s 583 373 m -168 X s 415 373 m cl s 606 373 m 167 X s 773 373 m cl s 516 321 m -146 X s 370 321 m cl s 539 321 m 146 X s 685 321 m cl s 633 270 m -127 X s 506 270 m cl s
 656 270 m 127 X s 783 270 m cl s 550 218 m -165 X s 385 218 m cl s 573 218 m 165 X s 738 218 m cl s 693 166 m -156 X s 537 166 m cl s 716 166 m 156 X s 872 166 m cl s 618 114 m -161 X s 457 114 m cl s 641 114 m 161 X s 802 114 m cl s /w 27 def /w2
 {w 2 div} def /w3 {w 3 div} def 615 632 625 581 655 529 548 477 662 425 594 373 528 321 644 270 561 218 704 166 629 114 11 { m20} R 1 0 0 c 549 643 m -153 X s 396 643 m cl s 572 643 m 152 X s 724 643 m cl s 597 591 m -167 X s 430 591 m cl s 620 591
 m 167 X s 787 591 m cl s 565 539 m -157 X s 408 539 m cl s 588 539 m 156 X s 744 539 m cl s 574 487 m -160 X s 414 487 m cl s 597 487 m 160 X s 757 487 m cl s 633 435 m -166 X s 467 435 m cl s 656 435 m 166 X s 822 435 m cl s 588 384 m -164 X s 424
 384 m cl s 611 384 m 163 X s 774 384 m cl s 509 332 m -145 X s 364 332 m cl s 532 332 m 145 X s 677 332 m cl s 532 280 m -128 X s 404 280 m cl s 554 280 m 128 X s 682 280 m cl s 566 228 m -164 X s 402 228 m cl s 588 228 m 164 X s 752 228 m cl s 689
 176 m -160 X s 529 176 m cl s 712 176 m 160 X s 872 176 m cl s 647 124 m -161 X s 486 124 m cl s 670 124 m 161 X s 831 124 m cl s black 1 0 0 c 560 643 609 591 576 539 585 487 644 435 599 384 521 332 543 280 577 228 701 176 659 124 11 { m24} R 0 0 1
 c 585 653 m -159 X s 426 653 m cl s 599 653 m 159 X s 758 653 m cl s 610 601 m -171 X s 439 601 m cl s 624 601 m 172 X s 796 601 m cl s 628 549 m -165 X s 463 549 m cl s 641 549 m 165 X s 806 549 m cl s 571 498 m -170 X s 401 498 m cl s 585 498 m
 169 X s 754 498 m cl s 613 446 m -172 X s 441 446 m cl s 627 446 m 172 X s 799 446 m cl s 596 394 m -172 X s 424 394 m cl s 610 394 m 173 X s 783 394 m cl s 633 342 m -159 X s 474 342 m cl s 647 342 m 159 X s 806 342 m cl s 594 290 m -151 X s 443
 290 m cl s 607 290 m 151 X s 758 290 m cl s 596 238 m -172 X s 424 238 m cl s 610 238 m 171 X s 781 238 m cl s 632 187 m -168 X s 464 187 m cl s 646 187 m 168 X s 814 187 m cl s 631 135 m -167 X s 464 135 m cl s 645 135 m 167 X s 812 135 m cl s
 black 0 0 1 c 592 653 617 601 635 549 578 498 620 446 603 394 640 342 601 290 603 238 639 187 638 135 11 { m22} R black
 gsave  2268 803 0 0 C 1150.95 635.302 t 0 r /Helvetica findfont 45.5822 sf 0 0 m (Luminosity) show NC gr 
 gsave  2268 803 0 0 C 1150.95 584.022 t 0 r /Helvetica findfont 45.5822 sf 0 0 m (JES BJES) show NC gr 
 gsave  2268 803 0 0 C 1150.95 532.742 t 0 r /Helvetica findfont 45.5822 sf 0 0 m (JES effective NP 1) show NC gr 
 gsave  2268 803 0 0 C 1150.95 481.462 t 0 r /Helvetica findfont 45.5822 sf 0 0 m (JES effective NP 2) show NC gr 
 gsave  2268 803 0 0 C 1273.45 430.182 t 0 r /Helvetica findfont 45.5822 sf 0 0 m ( intercalibration modelling) show NC gr 
 gsave  2268 803 0 0 C 1247.81 430.182 t 0 r /Symbol findfont 45.5822 sf 0 0 m (h) show NC gr 
 gsave  2268 803 0 0 C 1150.95 430.182 t 0 r /Helvetica findfont 45.5822 sf 0 0 m (JES ) show NC gr 
 gsave  2268 803 0 0 C 1150.95 376.053 t 0 r /Helvetica findfont 45.5822 sf 0 0 m (JES pileup pT term) show NC gr 
 gsave  2268 803 0 0 C 1407.35 324.773 t 0 r /Helvetica findfont 45.5822 sf 0 0 m ( topology) show NC gr 
 gsave  2268 803 0 0 C 1384.56 324.773 t 0 r /Symbol findfont 45.5822 sf 0 0 m (r) show NC gr 
 gsave  2268 803 0 0 C 1150.95 324.773 t 0 r /Helvetica findfont 45.5822 sf 0 0 m (JES pileup ) show NC gr 
 gsave  2268 803 0 0 C 1150.95 273.493 t 0 r /Helvetica findfont 45.5822 sf 0 0 m (JES flavour composition) show NC gr 
 gsave  2268 803 0 0 C 1150.95 222.213 t 0 r /Helvetica findfont 45.5822 sf 0 0 m (JES flavour response) show NC gr 
 gsave  2268 803 0 0 C 1150.95 170.933 t 0 r /Helvetica findfont 45.5822 sf 0 0 m (Jet energy resolution) show NC gr 
 gsave  2268 803 0 0 C 1150.95 116.804 t 0 r /Helvetica findfont 45.5822 sf 0 0 m (Pileup modelling) show NC gr 
 gsave  2268 803 0 0 C 162.387 754.956 t 0 r /Helvetica findfont 56.9778 sf 0 0 m (Initial) show NC gr  44 767 m 98 X s 93 767 m20
 gsave  2268 803 0 0 C 515.649 754.956 t 0 r /Helvetica findfont 56.9778 sf 0 0 m (New) show NC gr  1 0 0 c 398 767 m 98 X s 447 767 m24 black
 gsave  2268 803 0 0 C 1216.48 723.618 t 0 r /Helvetica findfont 37.0356 sf 0 0 m (+light) show NC gr 
 gsave  2268 803 0 0 C 1205.08 723.618 t 0 r /Helvetica findfont 37.0356 sf 0 0 m (t) show NC gr  6 lw 1205 752 m 11 X s
 gsave  2268 803 0 0 C 1193.68 723.618 t 0 r /Helvetica findfont 37.0356 sf 0 0 m (t) show NC gr 
 gsave  2268 803 0 0 C 843.271 754.956 t 0 r /Helvetica findfont 56.9778 sf 0 0 m (New, 1bin CR) show NC gr  0 0 1 c 3 lw 725 767 m 98 X s 774 767 m22 black 85 104 m 1049 X s 248 115 m -11 Y s 284 109 m -5 Y s 320 109 m -5 Y s 356 109 m -5 Y s 392
 109 m -5 Y s 429 115 m -11 Y s 465 109 m -5 Y s 501 109 m -5 Y s 537 109 m -5 Y s 573 109 m -5 Y s 609 115 m -11 Y s 646 109 m -5 Y s 682 109 m -5 Y s 718 109 m -5 Y s 754 109 m -5 Y s 790 115 m -11 Y s 826 109 m -5 Y s 863 109 m -5 Y s 899 109 m -5
 Y s 935 109 m -5 Y s 971 115 m -11 Y s 248 115 m -11 Y s 212 109 m -5 Y s 175 109 m -5 Y s 139 109 m -5 Y s 103 109 m -5 Y s 971 115 m -11 Y s 1007 109 m -5 Y s 1043 109 m -5 Y s 1080 109 m -5 Y s 1116 109 m -5 Y s 85 674 m 1049 X s 248 663 m 11 Y s
 284 668 m 6 Y s 320 668 m 6 Y s 356 668 m 6 Y s 392 668 m 6 Y s 429 663 m 11 Y s 465 668 m 6 Y s 501 668 m 6 Y s 537 668 m 6 Y s 573 668 m 6 Y s 609 663 m 11 Y s 646 668 m 6 Y s 682 668 m 6 Y s 718 668 m 6 Y s 754 668 m 6 Y s 790 663 m 11 Y s 826
 668 m 6 Y s 863 668 m 6 Y s 899 668 m 6 Y s 935 668 m 6 Y s 971 663 m 11 Y s 248 663 m 11 Y s 212 668 m 6 Y s 175 668 m 6 Y s 139 668 m 6 Y s 103 668 m 6 Y s 971 663 m 11 Y s 1007 668 m 6 Y s 1043 668 m 6 Y s 1080 668 m 6 Y s 1116 668 m 6 Y s 85 104
 m 570 Y s
 gr  gr showpage
end
%%EOF
