%!PS-Adobe-2.0 EPSF-2.0
%%BoundingBox:  0 0 567 130
%%Title: : c
%%Creator: ROOT Version 6.04/14
%%CreationDate: Thu Aug 30 10:30:38 2018
%%DocumentNeededResources: ProcSet (FontSetInit)
%%EndComments
%%BeginProlog
80 dict begin
/s {stroke} def /l {lineto} def /m {moveto} def /t {translate} def
/r {rotate} def /rl {roll}  def /R {repeat} def
/d {rlineto} def /rm {rmoveto} def /gr {grestore} def /f {eofill} def
/c {setrgbcolor} def /black {0 setgray} def /sd {setdash} def
/cl {closepath} def /sf {scalefont setfont} def /lw {setlinewidth} def
/box {m dup 0 exch d exch 0 d 0 exch neg d cl} def
/NC{systemdict begin initclip end}def/C{NC box clip newpath}def
/bl {box s} def /bf {gsave box gsave f grestore 1 lw [] 0 sd s grestore} def /Y { 0 exch d} def /X { 0 d} def 
/K {{pop pop 0 moveto} exch kshow} bind def
/ita {/ang 15 def gsave [1 0 ang dup sin exch cos div 1 0 0] concat} def 
/mp {newpath /y exch def /x exch def} def
/side {[w .77 mul w .23 mul] .385 w mul sd w 0 l currentpoint t -144 r} def
/mr {mp x y w2 0 360 arc} def /m24 {mr s} def /m20 {mr f} def
/mb {mp x y w2 add m w2 neg 0 d 0 w neg d w 0 d 0 w d cl} def
/mt {mp x y w2 add m w2 neg w neg d w 0 d cl} def
/m21 {mb f} def /m25 {mb s} def /m22 {mt f} def /m26{mt s} def
/m23 {mp x y w2 sub m w2 w d w neg 0 d cl f} def
/m27 {mp x y w2 add m w3 neg w2 neg d w3 w2 neg d w3 w2 d cl s} def
/m28 {mp x w2 sub y w2 sub w3 add m w3 0 d  0 w3 neg d w3 0 d 0 w3 d w3 0 d  0 w3 d w3 neg 0 d 0 w3 d w3 neg 0 d 0 w3 neg d w3 neg 0 d cl s } def
/m29 {mp gsave x w2 sub y w2 add w3 sub m currentpoint t 4 {side} repeat cl fill gr} def
/m30 {mp gsave x w2 sub y w2 add w3 sub m currentpoint t 4 {side} repeat cl s gr} def
/m31 {mp x y w2 sub m 0 w d x w2 sub y m w 0 d x w2 sub y w2 add m w w neg d x w2 sub y w2 sub m w w d s} def
/m32 {mp x y w2 sub m w2 w d w neg 0 d cl s} def
/m33 {mp x y w2 add m w3 neg w2 neg d w3 w2 neg d w3 w2 d cl f} def
/m34 {mp x w2 sub y w2 sub w3 add m w3 0 d  0 w3 neg d w3 0 d 0 w3 d w3 0 d  0 w3 d w3 neg 0 d 0 w3 d w3 neg 0 d 0 w3 neg d w3 neg 0 d cl f } def
/m2 {mp x y w2 sub m 0 w d x w2 sub y m w 0 d s} def
/m5 {mp x w2 sub y w2 sub m w w d x w2 sub y w2 add m w w neg d s} def
%%IncludeResource: ProcSet (FontSetInit)
%%IncludeResource: font Times-Roman
%%IncludeResource: font Times-Italic
%%IncludeResource: font Times-Bold
%%IncludeResource: font Times-BoldItalic
%%IncludeResource: font Helvetica
%%IncludeResource: font Helvetica-Oblique
%%IncludeResource: font Helvetica-Bold
%%IncludeResource: font Helvetica-BoldOblique
%%IncludeResource: font Courier
%%IncludeResource: font Courier-Oblique
%%IncludeResource: font Courier-Bold
%%IncludeResource: font Courier-BoldOblique
%%IncludeResource: font Symbol
%%IncludeResource: font ZapfDingbats
/reEncode {exch findfont dup length dict begin {1 index /FID eq  {pop pop} {def} ifelse } forall /Encoding exch def currentdict end dup /FontName get exch definefont pop } def [/Times-Bold /Times-Italic /Times-BoldItalic /Helvetica /Helvetica-Oblique
 /Helvetica-Bold /Helvetica-BoldOblique /Courier /Courier-Oblique /Courier-Bold /Courier-BoldOblique /Times-Roman /AvantGarde-Book /AvantGarde-BookOblique /AvantGarde-Demi /AvantGarde-DemiOblique /Bookman-Demi /Bookman-DemiItalic /Bookman-Light
 /Bookman-LightItalic /Helvetica-Narrow /Helvetica-Narrow-Bold /Helvetica-Narrow-BoldOblique /Helvetica-Narrow-Oblique /NewCenturySchlbk-Roman /NewCenturySchlbk-Bold /NewCenturySchlbk-BoldItalic /NewCenturySchlbk-Italic /Palatino-Bold
 /Palatino-BoldItalic /Palatino-Italic /Palatino-Roman ] {ISOLatin1Encoding reEncode } forall
%%EndProlog
%%BeginSetup
%%EndSetup
newpath  gsave  .25 .25 scale  gsave  0 0 t black[  ] 0 sd 3 lw 1 1 1 c 2268 518 0 0 bf black 1 1 1 c 1049 296 85 99 bf black 1049 296 85 99 bl 1 1 1 c 1049 296 85 99 bf black 1049 296 85 99 bl 1 1 1 c black 3 lw 85 99 m 1049 X s 248 106 m -7 Y s 284
 102 m -3 Y s 320 102 m -3 Y s 356 102 m -3 Y s 392 102 m -3 Y s 429 106 m -7 Y s 465 102 m -3 Y s 501 102 m -3 Y s 537 102 m -3 Y s 573 102 m -3 Y s 609 106 m -7 Y s 646 102 m -3 Y s 682 102 m -3 Y s 718 102 m -3 Y s 754 102 m -3 Y s 790 106 m -7 Y
 s 826 102 m -3 Y s 863 102 m -3 Y s 899 102 m -3 Y s 935 102 m -3 Y s 971 106 m -7 Y s 248 106 m -7 Y s 212 102 m -3 Y s 175 102 m -3 Y s 139 102 m -3 Y s 103 102 m -3 Y s 971 106 m -7 Y s 1007 102 m -3 Y s 1043 102 m -3 Y s 1080 102 m -3 Y s 1116
 102 m -3 Y s
 gsave  2268 518 0 0 C 242.156 54.1289 t 0 r /Helvetica findfont 51.28 sf 0 0 m (2) show NC gr 
 gsave  2268 518 0 0 C 216.516 54.1289 t 0 r /Symbol findfont 51.28 sf 0 0 m (-) show NC gr 
 gsave  2268 518 0 0 C 430.182 54.1289 t 0 r /Helvetica findfont 51.28 sf 0 0 m (1) show NC gr 
 gsave  2268 518 0 0 C 401.694 54.1289 t 0 r /Symbol findfont 51.28 sf 0 0 m (-) show NC gr 
 gsave  2268 518 0 0 C 592.569 54.1289 t 0 r /Helvetica findfont 51.28 sf 0 0 m (0) show NC gr 
 gsave  2268 518 0 0 C 777.747 54.1289 t 0 r /Helvetica findfont 51.28 sf 0 0 m (1) show NC gr 
 gsave  2268 518 0 0 C 954.378 54.1289 t 0 r /Helvetica findfont 51.28 sf 0 0 m (2) show NC gr  85 395 m 1049 X s 248 388 m 7 Y s 284 391 m 4 Y s 320 391 m 4 Y s 356 391 m 4 Y s 392 391 m 4 Y s 429 388 m 7 Y s 465 391 m 4 Y s 501 391 m 4 Y s 537 391
 m 4 Y s 573 391 m 4 Y s 609 388 m 7 Y s 646 391 m 4 Y s 682 391 m 4 Y s 718 391 m 4 Y s 754 391 m 4 Y s 790 388 m 7 Y s 826 391 m 4 Y s 863 391 m 4 Y s 899 391 m 4 Y s 935 391 m 4 Y s 971 388 m 7 Y s 248 388 m 7 Y s 212 391 m 4 Y s 175 391 m 4 Y s
 139 391 m 4 Y s 103 391 m 4 Y s 971 388 m 7 Y s 1007 391 m 4 Y s 1043 391 m 4 Y s 1080 391 m 4 Y s 1116 391 m 4 Y s 85 99 m 296 Y s 1 1 0 c 723 296 248 99 bf black 0 1 0 c 361 296 429 99 bf black[ 20 20] 0 sd 609 99 m 296 Y s[  ] 0 sd 618 356 m -165
 X s 453 356 m cl s 641 356 m 164 X s 805 356 m cl s 619 306 m -152 X s 467 306 m cl s 641 306 m 152 X s 793 306 m cl s 538 257 m -165 X s 373 257 m cl s 561 257 m 165 X s 726 257 m cl s 273 207 m -130 X s 143 207 m cl s 296 207 m 130 X s 426 207 m
 cl s 757 158 m -152 X s 605 158 m cl s 780 158 m 152 X s 932 158 m cl s 654 109 m -155 X s 499 109 m cl s 677 109 m 156 X s 833 109 m cl s /w 27 def /w2 {w 2 div} def /w3 {w 3 div} def 629 356 630 306 549 257 285 207 768 158 666 109 6 { m20} R 1 0 0
 c 629 365 m -160 X s 469 365 m cl s 652 365 m 160 X s 812 365 m cl s 608 316 m -148 X s 460 316 m cl s 631 316 m 148 X s 779 316 m cl s 569 267 m -162 X s 407 267 m cl s 592 267 m 162 X s 754 267 m cl s 425 217 m -129 X s 296 217 m cl s 447 217 m
 129 X s 576 217 m cl s 715 168 m -161 X s 554 168 m cl s 738 168 m 161 X s 899 168 m cl s 623 119 m -157 X s 466 119 m cl s 646 119 m 158 X s 804 119 m cl s black 1 0 0 c 641 365 619 316 580 267 436 217 726 168 635 119 6 { m24} R 0 0 1 c 644 375 m
 -161 X s 483 375 m cl s 658 375 m 162 X s 820 375 m cl s 648 326 m -157 X s 491 326 m cl s 662 326 m 157 X s 819 326 m cl s 575 277 m -166 X s 409 277 m cl s 588 277 m 166 X s 754 277 m cl s 476 227 m -151 X s 325 227 m cl s 489 227 m 150 X s 639
 227 m cl s 711 178 m -168 X s 543 178 m cl s 725 178 m 168 X s 893 178 m cl s 610 128 m -166 X s 444 128 m cl s 623 128 m 166 X s 789 128 m cl s black 0 0 1 c 651 375 655 326 582 277 482 227 718 178 616 128 6 { m22} R black
 gsave  2268 518 0 0 C 1150.95 358.96 t 0 r /Helvetica findfont 45.5822 sf 0 0 m (c\255tag Eigenvar. 0) show NC gr 
 gsave  2268 518 0 0 C 1150.95 310.529 t 0 r /Helvetica findfont 45.5822 sf 0 0 m (c\255tag Eigenvar. 1) show NC gr 
 gsave  2268 518 0 0 C 1150.95 259.249 t 0 r /Helvetica findfont 45.5822 sf 0 0 m (c\255tag Eigenvar. 2) show NC gr 
 gsave  2268 518 0 0 C 1150.95 210.818 t 0 r /Helvetica findfont 45.5822 sf 0 0 m (light\255tag Eigenvar. 0) show NC gr 
 gsave  2268 518 0 0 C 1150.95 162.387 t 0 r /Helvetica findfont 45.5822 sf 0 0 m (light\255tag Eigenvar. 1) show NC gr 
 gsave  2268 518 0 0 C 1150.95 111.107 t 0 r /Helvetica findfont 45.5822 sf 0 0 m (light\255tag Eigenvar. 2) show NC gr 
 gsave  2268 518 0 0 C 162.387 461.52 t 0 r /Helvetica findfont 56.9778 sf 0 0 m (Initial) show NC gr  44 477 m 98 X s 93 477 m20
 gsave  2268 518 0 0 C 521.347 461.52 t 0 r /Helvetica findfont 56.9778 sf 0 0 m (New) show NC gr  1 0 0 c 404 477 m 98 X s 453 477 m24 black
 gsave  2268 518 0 0 C 1210.78 430.182 t 0 r /Helvetica findfont 37.0356 sf 0 0 m (+light) show NC gr 
 gsave  2268 518 0 0 C 1199.38 430.182 t 0 r /Helvetica findfont 37.0356 sf 0 0 m (t) show NC gr  6 lw 1199 459 m 12 X s
 gsave  2268 518 0 0 C 1187.99 430.182 t 0 r /Helvetica findfont 37.0356 sf 0 0 m (t) show NC gr 
 gsave  2268 518 0 0 C 837.574 461.52 t 0 r /Helvetica findfont 56.9778 sf 0 0 m (New, 1bin CR) show NC gr  0 0 1 c 3 lw 721 477 m 98 X s 770 477 m22 black 85 99 m 1049 X s 248 106 m -7 Y s 284 102 m -3 Y s 320 102 m -3 Y s 356 102 m -3 Y s 392 102 m
 -3 Y s 429 106 m -7 Y s 465 102 m -3 Y s 501 102 m -3 Y s 537 102 m -3 Y s 573 102 m -3 Y s 609 106 m -7 Y s 646 102 m -3 Y s 682 102 m -3 Y s 718 102 m -3 Y s 754 102 m -3 Y s 790 106 m -7 Y s 826 102 m -3 Y s 863 102 m -3 Y s 899 102 m -3 Y s 935
 102 m -3 Y s 971 106 m -7 Y s 248 106 m -7 Y s 212 102 m -3 Y s 175 102 m -3 Y s 139 102 m -3 Y s 103 102 m -3 Y s 971 106 m -7 Y s 1007 102 m -3 Y s 1043 102 m -3 Y s 1080 102 m -3 Y s 1116 102 m -3 Y s 85 395 m 1049 X s 248 388 m 7 Y s 284 391 m 4
 Y s 320 391 m 4 Y s 356 391 m 4 Y s 392 391 m 4 Y s 429 388 m 7 Y s 465 391 m 4 Y s 501 391 m 4 Y s 537 391 m 4 Y s 573 391 m 4 Y s 609 388 m 7 Y s 646 391 m 4 Y s 682 391 m 4 Y s 718 391 m 4 Y s 754 391 m 4 Y s 790 388 m 7 Y s 826 391 m 4 Y s 863
 391 m 4 Y s 899 391 m 4 Y s 935 391 m 4 Y s 971 388 m 7 Y s 248 388 m 7 Y s 212 391 m 4 Y s 175 391 m 4 Y s 139 391 m 4 Y s 103 391 m 4 Y s 971 388 m 7 Y s 1007 391 m 4 Y s 1043 391 m 4 Y s 1080 391 m 4 Y s 1116 391 m 4 Y s 85 99 m 296 Y s
 gr  gr showpage
end
%%EOF
