%!PS-Adobe-2.0 EPSF-2.0
%%BoundingBox:  0 0 567 158
%%Title: : c
%%Creator: ROOT Version 6.04/14
%%CreationDate: Tue Aug 28 20:08:59 2018
%%DocumentNeededResources: ProcSet (FontSetInit)
%%EndComments
%%BeginProlog
80 dict begin
/s {stroke} def /l {lineto} def /m {moveto} def /t {translate} def
/r {rotate} def /rl {roll}  def /R {repeat} def
/d {rlineto} def /rm {rmoveto} def /gr {grestore} def /f {eofill} def
/c {setrgbcolor} def /black {0 setgray} def /sd {setdash} def
/cl {closepath} def /sf {scalefont setfont} def /lw {setlinewidth} def
/box {m dup 0 exch d exch 0 d 0 exch neg d cl} def
/NC{systemdict begin initclip end}def/C{NC box clip newpath}def
/bl {box s} def /bf {gsave box gsave f grestore 1 lw [] 0 sd s grestore} def /Y { 0 exch d} def /X { 0 d} def 
/K {{pop pop 0 moveto} exch kshow} bind def
/ita {/ang 15 def gsave [1 0 ang dup sin exch cos div 1 0 0] concat} def 
/mp {newpath /y exch def /x exch def} def
/side {[w .77 mul w .23 mul] .385 w mul sd w 0 l currentpoint t -144 r} def
/mr {mp x y w2 0 360 arc} def /m24 {mr s} def /m20 {mr f} def
/mb {mp x y w2 add m w2 neg 0 d 0 w neg d w 0 d 0 w d cl} def
/mt {mp x y w2 add m w2 neg w neg d w 0 d cl} def
/m21 {mb f} def /m25 {mb s} def /m22 {mt f} def /m26{mt s} def
/m23 {mp x y w2 sub m w2 w d w neg 0 d cl f} def
/m27 {mp x y w2 add m w3 neg w2 neg d w3 w2 neg d w3 w2 d cl s} def
/m28 {mp x w2 sub y w2 sub w3 add m w3 0 d  0 w3 neg d w3 0 d 0 w3 d w3 0 d  0 w3 d w3 neg 0 d 0 w3 d w3 neg 0 d 0 w3 neg d w3 neg 0 d cl s } def
/m29 {mp gsave x w2 sub y w2 add w3 sub m currentpoint t 4 {side} repeat cl fill gr} def
/m30 {mp gsave x w2 sub y w2 add w3 sub m currentpoint t 4 {side} repeat cl s gr} def
/m31 {mp x y w2 sub m 0 w d x w2 sub y m w 0 d x w2 sub y w2 add m w w neg d x w2 sub y w2 sub m w w d s} def
/m32 {mp x y w2 sub m w2 w d w neg 0 d cl s} def
/m33 {mp x y w2 add m w3 neg w2 neg d w3 w2 neg d w3 w2 d cl f} def
/m34 {mp x w2 sub y w2 sub w3 add m w3 0 d  0 w3 neg d w3 0 d 0 w3 d w3 0 d  0 w3 d w3 neg 0 d 0 w3 d w3 neg 0 d 0 w3 neg d w3 neg 0 d cl f } def
/m2 {mp x y w2 sub m 0 w d x w2 sub y m w 0 d s} def
/m5 {mp x w2 sub y w2 sub m w w d x w2 sub y w2 add m w w neg d s} def
%%IncludeResource: ProcSet (FontSetInit)
%%IncludeResource: font Times-Roman
%%IncludeResource: font Times-Italic
%%IncludeResource: font Times-Bold
%%IncludeResource: font Times-BoldItalic
%%IncludeResource: font Helvetica
%%IncludeResource: font Helvetica-Oblique
%%IncludeResource: font Helvetica-Bold
%%IncludeResource: font Helvetica-BoldOblique
%%IncludeResource: font Courier
%%IncludeResource: font Courier-Oblique
%%IncludeResource: font Courier-Bold
%%IncludeResource: font Courier-BoldOblique
%%IncludeResource: font Symbol
%%IncludeResource: font ZapfDingbats
/reEncode {exch findfont dup length dict begin {1 index /FID eq  {pop pop} {def} ifelse } forall /Encoding exch def currentdict end dup /FontName get exch definefont pop } def [/Times-Bold /Times-Italic /Times-BoldItalic /Helvetica /Helvetica-Oblique
 /Helvetica-Bold /Helvetica-BoldOblique /Courier /Courier-Oblique /Courier-Bold /Courier-BoldOblique /Times-Roman /AvantGarde-Book /AvantGarde-BookOblique /AvantGarde-Demi /AvantGarde-DemiOblique /Bookman-Demi /Bookman-DemiItalic /Bookman-Light
 /Bookman-LightItalic /Helvetica-Narrow /Helvetica-Narrow-Bold /Helvetica-Narrow-BoldOblique /Helvetica-Narrow-Oblique /NewCenturySchlbk-Roman /NewCenturySchlbk-Bold /NewCenturySchlbk-BoldItalic /NewCenturySchlbk-Italic /Palatino-Bold
 /Palatino-BoldItalic /Palatino-Italic /Palatino-Roman ] {ISOLatin1Encoding reEncode } forall
%%EndProlog
%%BeginSetup
%%EndSetup
newpath  gsave  .25 .25 scale  gsave  0 0 t black[  ] 0 sd 3 lw 1 1 1 c 2268 632 0 0 bf black 1 1 1 c 1049 405 85 101 bf black 1049 405 85 101 bl 1 1 1 c 1049 405 85 101 bf black 1049 405 85 101 bl 1 1 1 c black 3 lw 85 101 m 1049 X s 248 110 m -9 Y
 s 284 106 m -5 Y s 320 106 m -5 Y s 356 106 m -5 Y s 392 106 m -5 Y s 429 110 m -9 Y s 465 106 m -5 Y s 501 106 m -5 Y s 537 106 m -5 Y s 573 106 m -5 Y s 609 110 m -9 Y s 646 106 m -5 Y s 682 106 m -5 Y s 718 106 m -5 Y s 754 106 m -5 Y s 790 110 m
 -9 Y s 826 106 m -5 Y s 863 106 m -5 Y s 899 106 m -5 Y s 935 106 m -5 Y s 971 110 m -9 Y s 248 110 m -9 Y s 212 106 m -5 Y s 175 106 m -5 Y s 139 106 m -5 Y s 103 106 m -5 Y s 971 110 m -9 Y s 1007 106 m -5 Y s 1043 106 m -5 Y s 1080 106 m -5 Y s
 1116 106 m -5 Y s
 gsave  2268 632 0 0 C 242.156 56.9778 t 0 r /Helvetica findfont 51.28 sf 0 0 m (2) show NC gr 
 gsave  2268 632 0 0 C 216.516 56.9778 t 0 r /Symbol findfont 51.28 sf 0 0 m (-) show NC gr 
 gsave  2268 632 0 0 C 430.182 56.9778 t 0 r /Helvetica findfont 51.28 sf 0 0 m (1) show NC gr 
 gsave  2268 632 0 0 C 401.694 56.9778 t 0 r /Symbol findfont 51.28 sf 0 0 m (-) show NC gr 
 gsave  2268 632 0 0 C 592.569 56.9778 t 0 r /Helvetica findfont 51.28 sf 0 0 m (0) show NC gr 
 gsave  2268 632 0 0 C 777.747 56.9778 t 0 r /Helvetica findfont 51.28 sf 0 0 m (1) show NC gr 
 gsave  2268 632 0 0 C 954.378 56.9778 t 0 r /Helvetica findfont 51.28 sf 0 0 m (2) show NC gr  85 506 m 1049 X s 248 497 m 9 Y s 284 502 m 4 Y s 320 502 m 4 Y s 356 502 m 4 Y s 392 502 m 4 Y s 429 497 m 9 Y s 465 502 m 4 Y s 501 502 m 4 Y s 537 502
 m 4 Y s 573 502 m 4 Y s 609 497 m 9 Y s 646 502 m 4 Y s 682 502 m 4 Y s 718 502 m 4 Y s 754 502 m 4 Y s 790 497 m 9 Y s 826 502 m 4 Y s 863 502 m 4 Y s 899 502 m 4 Y s 935 502 m 4 Y s 971 497 m 9 Y s 248 497 m 9 Y s 212 502 m 4 Y s 175 502 m 4 Y s
 139 502 m 4 Y s 103 502 m 4 Y s 971 497 m 9 Y s 1007 502 m 4 Y s 1043 502 m 4 Y s 1080 502 m 4 Y s 1116 502 m 4 Y s 85 101 m 405 Y s 1 1 0 c 723 405 248 101 bf black 0 1 0 c 361 405 429 101 bf black[ 20 20] 0 sd 609 101 m 405 Y s[  ] 0 sd 288 471 m
 -146 X s 142 471 m cl s 310 471 m 146 X s 456 471 m cl s 649 420 m -153 X s 496 420 m cl s 672 420 m 153 X s 825 420 m cl s 490 369 m -160 X s 330 369 m cl s 513 369 m 160 X s 673 369 m cl s 416 319 m -158 X s 258 319 m cl s 439 319 m 158 X s 597
 319 m cl s 462 268 m -142 X s 320 268 m cl s 484 268 m 142 X s 626 268 m cl s 624 218 m -120 X s 504 218 m cl s 647 218 m 120 X s 767 218 m cl s 615 167 m -152 X s 463 167 m cl s 638 167 m 153 X s 791 167 m cl s 596 116 m -159 X s 437 116 m cl s 619
 116 m 159 X s 778 116 m cl s /w 27 def /w2 {w 2 div} def /w3 {w 3 div} def 299 471 660 420 502 369 427 319 473 268 635 218 627 167 608 116 8 { m20} R 1 0 0 c 599 481 m -167 X s 432 481 m cl s 622 481 m 167 X s 789 481 m cl s 703 430 m -159 X s 544
 430 m cl s 725 430 m 159 X s 884 430 m cl s 499 379 m -163 X s 336 379 m cl s 522 379 m 162 X s 684 379 m cl s 587 329 m -168 X s 419 329 m cl s 610 329 m 167 X s 777 329 m cl s 611 278 m -139 X s 472 278 m cl s 634 278 m 138 X s 772 278 m cl s 668
 228 m -121 X s 547 228 m cl s 691 228 m 122 X s 813 228 m cl s 617 177 m -147 X s 470 177 m cl s 640 177 m 148 X s 788 177 m cl s 575 126 m -161 X s 414 126 m cl s 597 126 m 161 X s 758 126 m cl s black 1 0 0 c 610 481 714 430 510 379 598 329 622
 278 680 228 629 177 586 126 8 { m24} R black
 gsave  2268 632 0 0 C 1150.95 470.067 t 0 r /Helvetica findfont 45.5822 sf 0 0 m (JES BJES) show NC gr 
 gsave  2268 632 0 0 C 1150.95 418.787 t 0 r /Helvetica findfont 45.5822 sf 0 0 m (JES effective NP 1) show NC gr 
 gsave  2268 632 0 0 C 1150.95 367.507 t 0 r /Helvetica findfont 45.5822 sf 0 0 m (JES effective NP 2) show NC gr 
 gsave  2268 632 0 0 C 1150.95 316.227 t 0 r /Helvetica findfont 45.5822 sf 0 0 m (JES pileup pT term) show NC gr 
 gsave  2268 632 0 0 C 1407.35 267.796 t 0 r /Helvetica findfont 45.5822 sf 0 0 m ( topology) show NC gr 
 gsave  2268 632 0 0 C 1384.56 267.796 t 0 r /Symbol findfont 45.5822 sf 0 0 m (r) show NC gr 
 gsave  2268 632 0 0 C 1150.95 267.796 t 0 r /Helvetica findfont 45.5822 sf 0 0 m (JES pileup ) show NC gr 
 gsave  2268 632 0 0 C 1150.95 216.516 t 0 r /Helvetica findfont 45.5822 sf 0 0 m (JES flavour composition) show NC gr 
 gsave  2268 632 0 0 C 1150.95 165.236 t 0 r /Helvetica findfont 45.5822 sf 0 0 m (Jet energy resolution) show NC gr 
 gsave  2268 632 0 0 C 1150.95 113.956 t 0 r /Helvetica findfont 45.5822 sf 0 0 m (Pileup modelling) show NC gr 
 gsave  2268 632 0 0 C 230.76 581.174 t 0 r /Helvetica findfont 56.9778 sf 0 0 m (No merge) show NC gr  54 594 m 147 X s 128 594 m20
 gsave  2268 632 0 0 C 1150.95 581.174 t 0 r /Helvetica findfont 56.9778 sf 0 0 m (All CRs) show NC gr  1 0 0 c 974 594 m 147 X s 1047 594 m24 black 85 101 m 1049 X s 248 110 m -9 Y s 284 106 m -5 Y s 320 106 m -5 Y s 356 106 m -5 Y s 392 106 m -5 Y
 s 429 110 m -9 Y s 465 106 m -5 Y s 501 106 m -5 Y s 537 106 m -5 Y s 573 106 m -5 Y s 609 110 m -9 Y s 646 106 m -5 Y s 682 106 m -5 Y s 718 106 m -5 Y s 754 106 m -5 Y s 790 110 m -9 Y s 826 106 m -5 Y s 863 106 m -5 Y s 899 106 m -5 Y s 935 106 m
 -5 Y s 971 110 m -9 Y s 248 110 m -9 Y s 212 106 m -5 Y s 175 106 m -5 Y s 139 106 m -5 Y s 103 106 m -5 Y s 971 110 m -9 Y s 1007 106 m -5 Y s 1043 106 m -5 Y s 1080 106 m -5 Y s 1116 106 m -5 Y s 85 506 m 1049 X s 248 497 m 9 Y s 284 502 m 4 Y s
 320 502 m 4 Y s 356 502 m 4 Y s 392 502 m 4 Y s 429 497 m 9 Y s 465 502 m 4 Y s 501 502 m 4 Y s 537 502 m 4 Y s 573 502 m 4 Y s 609 497 m 9 Y s 646 502 m 4 Y s 682 502 m 4 Y s 718 502 m 4 Y s 754 502 m 4 Y s 790 497 m 9 Y s 826 502 m 4 Y s 863 502 m
 4 Y s 899 502 m 4 Y s 935 502 m 4 Y s 971 497 m 9 Y s 248 497 m 9 Y s 212 502 m 4 Y s 175 502 m 4 Y s 139 502 m 4 Y s 103 502 m 4 Y s 971 497 m 9 Y s 1007 502 m 4 Y s 1043 502 m 4 Y s 1080 502 m 4 Y s 1116 502 m 4 Y s 85 101 m 405 Y s
 gr  gr showpage
end
%%EOF
