%!PS-Adobe-2.0 EPSF-2.0
%%BoundingBox:  0 0 567 130
%%Title: : c
%%Creator: ROOT Version 6.04/14
%%CreationDate: Tue Aug 28 20:09:00 2018
%%DocumentNeededResources: ProcSet (FontSetInit)
%%EndComments
%%BeginProlog
80 dict begin
/s {stroke} def /l {lineto} def /m {moveto} def /t {translate} def
/r {rotate} def /rl {roll}  def /R {repeat} def
/d {rlineto} def /rm {rmoveto} def /gr {grestore} def /f {eofill} def
/c {setrgbcolor} def /black {0 setgray} def /sd {setdash} def
/cl {closepath} def /sf {scalefont setfont} def /lw {setlinewidth} def
/box {m dup 0 exch d exch 0 d 0 exch neg d cl} def
/NC{systemdict begin initclip end}def/C{NC box clip newpath}def
/bl {box s} def /bf {gsave box gsave f grestore 1 lw [] 0 sd s grestore} def /Y { 0 exch d} def /X { 0 d} def 
/K {{pop pop 0 moveto} exch kshow} bind def
/ita {/ang 15 def gsave [1 0 ang dup sin exch cos div 1 0 0] concat} def 
/mp {newpath /y exch def /x exch def} def
/side {[w .77 mul w .23 mul] .385 w mul sd w 0 l currentpoint t -144 r} def
/mr {mp x y w2 0 360 arc} def /m24 {mr s} def /m20 {mr f} def
/mb {mp x y w2 add m w2 neg 0 d 0 w neg d w 0 d 0 w d cl} def
/mt {mp x y w2 add m w2 neg w neg d w 0 d cl} def
/m21 {mb f} def /m25 {mb s} def /m22 {mt f} def /m26{mt s} def
/m23 {mp x y w2 sub m w2 w d w neg 0 d cl f} def
/m27 {mp x y w2 add m w3 neg w2 neg d w3 w2 neg d w3 w2 d cl s} def
/m28 {mp x w2 sub y w2 sub w3 add m w3 0 d  0 w3 neg d w3 0 d 0 w3 d w3 0 d  0 w3 d w3 neg 0 d 0 w3 d w3 neg 0 d 0 w3 neg d w3 neg 0 d cl s } def
/m29 {mp gsave x w2 sub y w2 add w3 sub m currentpoint t 4 {side} repeat cl fill gr} def
/m30 {mp gsave x w2 sub y w2 add w3 sub m currentpoint t 4 {side} repeat cl s gr} def
/m31 {mp x y w2 sub m 0 w d x w2 sub y m w 0 d x w2 sub y w2 add m w w neg d x w2 sub y w2 sub m w w d s} def
/m32 {mp x y w2 sub m w2 w d w neg 0 d cl s} def
/m33 {mp x y w2 add m w3 neg w2 neg d w3 w2 neg d w3 w2 d cl f} def
/m34 {mp x w2 sub y w2 sub w3 add m w3 0 d  0 w3 neg d w3 0 d 0 w3 d w3 0 d  0 w3 d w3 neg 0 d 0 w3 d w3 neg 0 d 0 w3 neg d w3 neg 0 d cl f } def
/m2 {mp x y w2 sub m 0 w d x w2 sub y m w 0 d s} def
/m5 {mp x w2 sub y w2 sub m w w d x w2 sub y w2 add m w w neg d s} def
%%IncludeResource: ProcSet (FontSetInit)
%%IncludeResource: font Times-Roman
%%IncludeResource: font Times-Italic
%%IncludeResource: font Times-Bold
%%IncludeResource: font Times-BoldItalic
%%IncludeResource: font Helvetica
%%IncludeResource: font Helvetica-Oblique
%%IncludeResource: font Helvetica-Bold
%%IncludeResource: font Helvetica-BoldOblique
%%IncludeResource: font Courier
%%IncludeResource: font Courier-Oblique
%%IncludeResource: font Courier-Bold
%%IncludeResource: font Courier-BoldOblique
%%IncludeResource: font Symbol
%%IncludeResource: font ZapfDingbats
/reEncode {exch findfont dup length dict begin {1 index /FID eq  {pop pop} {def} ifelse } forall /Encoding exch def currentdict end dup /FontName get exch definefont pop } def [/Times-Bold /Times-Italic /Times-BoldItalic /Helvetica /Helvetica-Oblique
 /Helvetica-Bold /Helvetica-BoldOblique /Courier /Courier-Oblique /Courier-Bold /Courier-BoldOblique /Times-Roman /AvantGarde-Book /AvantGarde-BookOblique /AvantGarde-Demi /AvantGarde-DemiOblique /Bookman-Demi /Bookman-DemiItalic /Bookman-Light
 /Bookman-LightItalic /Helvetica-Narrow /Helvetica-Narrow-Bold /Helvetica-Narrow-BoldOblique /Helvetica-Narrow-Oblique /NewCenturySchlbk-Roman /NewCenturySchlbk-Bold /NewCenturySchlbk-BoldItalic /NewCenturySchlbk-Italic /Palatino-Bold
 /Palatino-BoldItalic /Palatino-Italic /Palatino-Roman ] {ISOLatin1Encoding reEncode } forall
%%EndProlog
%%BeginSetup
%%EndSetup
newpath  gsave  .25 .25 scale  gsave  0 0 t black[  ] 0 sd 3 lw 1 1 1 c 2268 518 0 0 bf black 1 1 1 c 1049 296 85 99 bf black 1049 296 85 99 bl 1 1 1 c 1049 296 85 99 bf black 1049 296 85 99 bl 1 1 1 c black 3 lw 85 99 m 1049 X s 248 106 m -7 Y s 284
 102 m -3 Y s 320 102 m -3 Y s 356 102 m -3 Y s 392 102 m -3 Y s 429 106 m -7 Y s 465 102 m -3 Y s 501 102 m -3 Y s 537 102 m -3 Y s 573 102 m -3 Y s 609 106 m -7 Y s 646 102 m -3 Y s 682 102 m -3 Y s 718 102 m -3 Y s 754 102 m -3 Y s 790 106 m -7 Y
 s 826 102 m -3 Y s 863 102 m -3 Y s 899 102 m -3 Y s 935 102 m -3 Y s 971 106 m -7 Y s 248 106 m -7 Y s 212 102 m -3 Y s 175 102 m -3 Y s 139 102 m -3 Y s 103 102 m -3 Y s 971 106 m -7 Y s 1007 102 m -3 Y s 1043 102 m -3 Y s 1080 102 m -3 Y s 1116
 102 m -3 Y s
 gsave  2268 518 0 0 C 242.156 54.1289 t 0 r /Helvetica findfont 51.28 sf 0 0 m (2) show NC gr 
 gsave  2268 518 0 0 C 216.516 54.1289 t 0 r /Symbol findfont 51.28 sf 0 0 m (-) show NC gr 
 gsave  2268 518 0 0 C 430.182 54.1289 t 0 r /Helvetica findfont 51.28 sf 0 0 m (1) show NC gr 
 gsave  2268 518 0 0 C 401.694 54.1289 t 0 r /Symbol findfont 51.28 sf 0 0 m (-) show NC gr 
 gsave  2268 518 0 0 C 592.569 54.1289 t 0 r /Helvetica findfont 51.28 sf 0 0 m (0) show NC gr 
 gsave  2268 518 0 0 C 777.747 54.1289 t 0 r /Helvetica findfont 51.28 sf 0 0 m (1) show NC gr 
 gsave  2268 518 0 0 C 954.378 54.1289 t 0 r /Helvetica findfont 51.28 sf 0 0 m (2) show NC gr  85 395 m 1049 X s 248 388 m 7 Y s 284 391 m 4 Y s 320 391 m 4 Y s 356 391 m 4 Y s 392 391 m 4 Y s 429 388 m 7 Y s 465 391 m 4 Y s 501 391 m 4 Y s 537 391
 m 4 Y s 573 391 m 4 Y s 609 388 m 7 Y s 646 391 m 4 Y s 682 391 m 4 Y s 718 391 m 4 Y s 754 391 m 4 Y s 790 388 m 7 Y s 826 391 m 4 Y s 863 391 m 4 Y s 899 391 m 4 Y s 935 391 m 4 Y s 971 388 m 7 Y s 248 388 m 7 Y s 212 391 m 4 Y s 175 391 m 4 Y s
 139 391 m 4 Y s 103 391 m 4 Y s 971 388 m 7 Y s 1007 391 m 4 Y s 1043 391 m 4 Y s 1080 391 m 4 Y s 1116 391 m 4 Y s 85 99 m 296 Y s 1 1 0 c 723 296 248 99 bf black 0 1 0 c 361 296 429 99 bf black[ 20 20] 0 sd 609 99 m 296 Y s[  ] 0 sd 567 360 m -99
 X s 468 360 m cl s 590 360 m 99 X s 689 360 m cl s 535 311 m -137 X s 398 311 m cl s 557 311 m 137 X s 694 311 m cl s 846 262 m -146 X s 700 262 m cl s 869 262 m 146 X s 1015 262 m cl s 347 212 m -131 X s 216 212 m cl s 370 212 m 131 X s 501 212 m
 cl s 687 163 m -149 X s 538 163 m cl s 710 163 m 149 X s 859 163 m cl s 452 114 m -152 X s 300 114 m cl s 475 114 m 152 X s 627 114 m cl s /w 27 def /w2 {w 2 div} def /w3 {w 3 div} def 579 360 546 311 858 262 358 212 699 163 464 114 6 { m20} R 1 0 0
 c 464 370 m -102 X s 362 370 m cl s 487 370 m 103 X s 590 370 m cl s 416 321 m -146 X s 270 321 m cl s 439 321 m 146 X s 585 321 m cl s 804 272 m -145 X s 659 272 m cl s 827 272 m 144 X s 971 272 m cl s 281 222 m -118 X s 163 222 m cl s 303 222 m
 118 X s 421 222 m cl s 655 173 m -148 X s 507 173 m cl s 678 173 m 147 X s 825 173 m cl s 511 123 m -148 X s 363 123 m cl s 534 123 m 148 X s 682 123 m cl s black 1 0 0 c 476 370 428 321 815 272 292 222 666 173 523 123 6 { m24} R black
 gsave  2268 518 0 0 C 1150.95 358.96 t 0 r /Helvetica findfont 45.5822 sf 0 0 m (c\255tag Eigenvar. 0) show NC gr 
 gsave  2268 518 0 0 C 1150.95 310.529 t 0 r /Helvetica findfont 45.5822 sf 0 0 m (c\255tag Eigenvar. 1) show NC gr 
 gsave  2268 518 0 0 C 1150.95 259.249 t 0 r /Helvetica findfont 45.5822 sf 0 0 m (c\255tag Eigenvar. 2) show NC gr 
 gsave  2268 518 0 0 C 1150.95 210.818 t 0 r /Helvetica findfont 45.5822 sf 0 0 m (light\255tag Eigenvar. 0) show NC gr 
 gsave  2268 518 0 0 C 1150.95 162.387 t 0 r /Helvetica findfont 45.5822 sf 0 0 m (light\255tag Eigenvar. 1) show NC gr 
 gsave  2268 518 0 0 C 1150.95 111.107 t 0 r /Helvetica findfont 45.5822 sf 0 0 m (light\255tag Eigenvar. 2) show NC gr 
 gsave  2268 518 0 0 C 230.76 461.52 t 0 r /Helvetica findfont 56.9778 sf 0 0 m (No merge) show NC gr  54 477 m 147 X s 128 477 m20
 gsave  2268 518 0 0 C 1148.1 461.52 t 0 r /Helvetica findfont 56.9778 sf 0 0 m (All CRs) show NC gr  1 0 0 c 972 477 m 147 X s 1045 477 m24 black 85 99 m 1049 X s 248 106 m -7 Y s 284 102 m -3 Y s 320 102 m -3 Y s 356 102 m -3 Y s 392 102 m -3 Y s
 429 106 m -7 Y s 465 102 m -3 Y s 501 102 m -3 Y s 537 102 m -3 Y s 573 102 m -3 Y s 609 106 m -7 Y s 646 102 m -3 Y s 682 102 m -3 Y s 718 102 m -3 Y s 754 102 m -3 Y s 790 106 m -7 Y s 826 102 m -3 Y s 863 102 m -3 Y s 899 102 m -3 Y s 935 102 m
 -3 Y s 971 106 m -7 Y s 248 106 m -7 Y s 212 102 m -3 Y s 175 102 m -3 Y s 139 102 m -3 Y s 103 102 m -3 Y s 971 106 m -7 Y s 1007 102 m -3 Y s 1043 102 m -3 Y s 1080 102 m -3 Y s 1116 102 m -3 Y s 85 395 m 1049 X s 248 388 m 7 Y s 284 391 m 4 Y s
 320 391 m 4 Y s 356 391 m 4 Y s 392 391 m 4 Y s 429 388 m 7 Y s 465 391 m 4 Y s 501 391 m 4 Y s 537 391 m 4 Y s 573 391 m 4 Y s 609 388 m 7 Y s 646 391 m 4 Y s 682 391 m 4 Y s 718 391 m 4 Y s 754 391 m 4 Y s 790 388 m 7 Y s 826 391 m 4 Y s 863 391 m
 4 Y s 899 391 m 4 Y s 935 391 m 4 Y s 971 388 m 7 Y s 248 388 m 7 Y s 212 391 m 4 Y s 175 391 m 4 Y s 139 391 m 4 Y s 103 391 m 4 Y s 971 388 m 7 Y s 1007 391 m 4 Y s 1043 391 m 4 Y s 1080 391 m 4 Y s 1116 391 m 4 Y s 85 99 m 296 Y s
 gr  gr showpage
end
%%EOF
