%!PS-Adobe-2.0 EPSF-2.0
%%BoundingBox:  0 0 567 144
%%Title: : c
%%Creator: ROOT Version 6.04/14
%%CreationDate: Fri Aug 31 11:28:52 2018
%%DocumentNeededResources: ProcSet (FontSetInit)
%%EndComments
%%BeginProlog
80 dict begin
/s {stroke} def /l {lineto} def /m {moveto} def /t {translate} def
/r {rotate} def /rl {roll}  def /R {repeat} def
/d {rlineto} def /rm {rmoveto} def /gr {grestore} def /f {eofill} def
/c {setrgbcolor} def /black {0 setgray} def /sd {setdash} def
/cl {closepath} def /sf {scalefont setfont} def /lw {setlinewidth} def
/box {m dup 0 exch d exch 0 d 0 exch neg d cl} def
/NC{systemdict begin initclip end}def/C{NC box clip newpath}def
/bl {box s} def /bf {gsave box gsave f grestore 1 lw [] 0 sd s grestore} def /Y { 0 exch d} def /X { 0 d} def 
/K {{pop pop 0 moveto} exch kshow} bind def
/ita {/ang 15 def gsave [1 0 ang dup sin exch cos div 1 0 0] concat} def 
/mp {newpath /y exch def /x exch def} def
/side {[w .77 mul w .23 mul] .385 w mul sd w 0 l currentpoint t -144 r} def
/mr {mp x y w2 0 360 arc} def /m24 {mr s} def /m20 {mr f} def
/mb {mp x y w2 add m w2 neg 0 d 0 w neg d w 0 d 0 w d cl} def
/mt {mp x y w2 add m w2 neg w neg d w 0 d cl} def
/m21 {mb f} def /m25 {mb s} def /m22 {mt f} def /m26{mt s} def
/m23 {mp x y w2 sub m w2 w d w neg 0 d cl f} def
/m27 {mp x y w2 add m w3 neg w2 neg d w3 w2 neg d w3 w2 d cl s} def
/m28 {mp x w2 sub y w2 sub w3 add m w3 0 d  0 w3 neg d w3 0 d 0 w3 d w3 0 d  0 w3 d w3 neg 0 d 0 w3 d w3 neg 0 d 0 w3 neg d w3 neg 0 d cl s } def
/m29 {mp gsave x w2 sub y w2 add w3 sub m currentpoint t 4 {side} repeat cl fill gr} def
/m30 {mp gsave x w2 sub y w2 add w3 sub m currentpoint t 4 {side} repeat cl s gr} def
/m31 {mp x y w2 sub m 0 w d x w2 sub y m w 0 d x w2 sub y w2 add m w w neg d x w2 sub y w2 sub m w w d s} def
/m32 {mp x y w2 sub m w2 w d w neg 0 d cl s} def
/m33 {mp x y w2 add m w3 neg w2 neg d w3 w2 neg d w3 w2 d cl f} def
/m34 {mp x w2 sub y w2 sub w3 add m w3 0 d  0 w3 neg d w3 0 d 0 w3 d w3 0 d  0 w3 d w3 neg 0 d 0 w3 d w3 neg 0 d 0 w3 neg d w3 neg 0 d cl f } def
/m2 {mp x y w2 sub m 0 w d x w2 sub y m w 0 d s} def
/m5 {mp x w2 sub y w2 sub m w w d x w2 sub y w2 add m w w neg d s} def
%%IncludeResource: ProcSet (FontSetInit)
%%IncludeResource: font Times-Roman
%%IncludeResource: font Times-Italic
%%IncludeResource: font Times-Bold
%%IncludeResource: font Times-BoldItalic
%%IncludeResource: font Helvetica
%%IncludeResource: font Helvetica-Oblique
%%IncludeResource: font Helvetica-Bold
%%IncludeResource: font Helvetica-BoldOblique
%%IncludeResource: font Courier
%%IncludeResource: font Courier-Oblique
%%IncludeResource: font Courier-Bold
%%IncludeResource: font Courier-BoldOblique
%%IncludeResource: font Symbol
%%IncludeResource: font ZapfDingbats
/reEncode {exch findfont dup length dict begin {1 index /FID eq  {pop pop} {def} ifelse } forall /Encoding exch def currentdict end dup /FontName get exch definefont pop } def [/Times-Bold /Times-Italic /Times-BoldItalic /Helvetica /Helvetica-Oblique
 /Helvetica-Bold /Helvetica-BoldOblique /Courier /Courier-Oblique /Courier-Bold /Courier-BoldOblique /Times-Roman /AvantGarde-Book /AvantGarde-BookOblique /AvantGarde-Demi /AvantGarde-DemiOblique /Bookman-Demi /Bookman-DemiItalic /Bookman-Light
 /Bookman-LightItalic /Helvetica-Narrow /Helvetica-Narrow-Bold /Helvetica-Narrow-BoldOblique /Helvetica-Narrow-Oblique /NewCenturySchlbk-Roman /NewCenturySchlbk-Bold /NewCenturySchlbk-BoldItalic /NewCenturySchlbk-Italic /Palatino-Bold
 /Palatino-BoldItalic /Palatino-Italic /Palatino-Roman ] {ISOLatin1Encoding reEncode } forall
%%EndProlog
%%BeginSetup
%%EndSetup
newpath  gsave  .25 .25 scale  gsave  0 0 t black[  ] 0 sd 3 lw 1 1 1 c 2268 575 0 0 bf black 1 1 1 c 1049 350 85 100 bf black 1049 350 85 100 bl 1 1 1 c 1049 350 85 100 bf black 1049 350 85 100 bl 1 1 1 c black 3 lw 85 100 m 1049 X s 248 108 m -8 Y
 s 284 104 m -4 Y s 320 104 m -4 Y s 356 104 m -4 Y s 392 104 m -4 Y s 429 108 m -8 Y s 465 104 m -4 Y s 501 104 m -4 Y s 537 104 m -4 Y s 573 104 m -4 Y s 609 108 m -8 Y s 646 104 m -4 Y s 682 104 m -4 Y s 718 104 m -4 Y s 754 104 m -4 Y s 790 108 m
 -8 Y s 826 104 m -4 Y s 863 104 m -4 Y s 899 104 m -4 Y s 935 104 m -4 Y s 971 108 m -8 Y s 248 108 m -8 Y s 212 104 m -4 Y s 175 104 m -4 Y s 139 104 m -4 Y s 103 104 m -4 Y s 971 108 m -8 Y s 1007 104 m -4 Y s 1043 104 m -4 Y s 1080 104 m -4 Y s
 1116 104 m -4 Y s
 gsave  2268 575 0 0 C 242.156 56.9778 t 0 r /Helvetica findfont 51.28 sf 0 0 m (2) show NC gr 
 gsave  2268 575 0 0 C 216.516 56.9778 t 0 r /Symbol findfont 51.28 sf 0 0 m (-) show NC gr 
 gsave  2268 575 0 0 C 430.182 56.9778 t 0 r /Helvetica findfont 51.28 sf 0 0 m (1) show NC gr 
 gsave  2268 575 0 0 C 401.694 56.9778 t 0 r /Symbol findfont 51.28 sf 0 0 m (-) show NC gr 
 gsave  2268 575 0 0 C 592.569 56.9778 t 0 r /Helvetica findfont 51.28 sf 0 0 m (0) show NC gr 
 gsave  2268 575 0 0 C 777.747 56.9778 t 0 r /Helvetica findfont 51.28 sf 0 0 m (1) show NC gr 
 gsave  2268 575 0 0 C 954.378 56.9778 t 0 r /Helvetica findfont 51.28 sf 0 0 m (2) show NC gr  85 450 m 1049 X s 248 442 m 8 Y s 284 446 m 4 Y s 320 446 m 4 Y s 356 446 m 4 Y s 392 446 m 4 Y s 429 442 m 8 Y s 465 446 m 4 Y s 501 446 m 4 Y s 537 446
 m 4 Y s 573 446 m 4 Y s 609 442 m 8 Y s 646 446 m 4 Y s 682 446 m 4 Y s 718 446 m 4 Y s 754 446 m 4 Y s 790 442 m 8 Y s 826 446 m 4 Y s 863 446 m 4 Y s 899 446 m 4 Y s 935 446 m 4 Y s 971 442 m 8 Y s 248 442 m 8 Y s 212 446 m 4 Y s 175 446 m 4 Y s
 139 446 m 4 Y s 103 446 m 4 Y s 971 442 m 8 Y s 1007 446 m 4 Y s 1043 446 m 4 Y s 1080 446 m 4 Y s 1116 446 m 4 Y s 85 100 m 350 Y s 1 1 0 c 723 350 248 100 bf black 0 1 0 c 361 350 429 100 bf black[ 20 20] 0 sd 609 100 m 350 Y s[  ] 0 sd 556 415 m
 -161 X s 395 415 m cl s 579 415 m 160 X s 739 415 m cl s 633 365 m -156 X s 477 365 m cl s 656 365 m 156 X s 812 365 m cl s 627 315 m -149 X s 478 315 m cl s 650 315 m 149 X s 799 315 m cl s 561 265 m -158 X s 403 265 m cl s 583 265 m 159 X s 742
 265 m cl s 417 215 m -129 X s 288 215 m cl s 440 215 m 130 X s 570 215 m cl s 768 165 m -164 X s 604 165 m cl s 791 165 m 165 X s 956 165 m cl s 628 115 m -159 X s 469 115 m cl s 651 115 m 159 X s 810 115 m cl s /w 27 def /w2 {w 2 div} def /w3 {w 3
 div} def 567 415 644 365 639 315 572 265 429 215 780 165 639 115 7 { m20} R 1 0 0 c 601 425 m -161 X s 440 425 m cl s 624 425 m 161 X s 785 425 m cl s 652 375 m -150 X s 502 375 m cl s 675 375 m 150 X s 825 375 m cl s 688 325 m -146 X s 542 325 m cl
 s 711 325 m 146 X s 857 325 m cl s 507 275 m -157 X s 350 275 m cl s 530 275 m 158 X s 688 275 m cl s 481 225 m -135 X s 346 225 m cl s 504 225 m 135 X s 639 225 m cl s 690 175 m -157 X s 533 175 m cl s 713 175 m 156 X s 869 175 m cl s 611 125 m
 -166 X s 445 125 m cl s 633 125 m 166 X s 799 125 m cl s black 1 0 0 c 612 425 663 375 700 325 519 275 493 225 701 175 622 125 7 { m24} R black
 gsave  2268 575 0 0 C 1150.95 413.089 t 0 r /Helvetica findfont 45.5822 sf 0 0 m (b\255tag Eigenvar. 0) show NC gr 
 gsave  2268 575 0 0 C 1150.95 364.658 t 0 r /Helvetica findfont 45.5822 sf 0 0 m (c\255tag Eigenvar. 0) show NC gr 
 gsave  2268 575 0 0 C 1150.95 313.378 t 0 r /Helvetica findfont 45.5822 sf 0 0 m (c\255tag Eigenvar. 1) show NC gr 
 gsave  2268 575 0 0 C 1150.95 264.947 t 0 r /Helvetica findfont 45.5822 sf 0 0 m (c\255tag Eigenvar. 2) show NC gr 
 gsave  2268 575 0 0 C 1150.95 213.667 t 0 r /Helvetica findfont 45.5822 sf 0 0 m (light\255tag Eigenvar. 0) show NC gr 
 gsave  2268 575 0 0 C 1150.95 165.236 t 0 r /Helvetica findfont 45.5822 sf 0 0 m (light\255tag Eigenvar. 1) show NC gr 
 gsave  2268 575 0 0 C 1150.95 113.956 t 0 r /Helvetica findfont 45.5822 sf 0 0 m (light\255tag Eigenvar. 2) show NC gr 
 gsave  2268 575 0 0 C 458.671 501.405 t 0 r /Helvetica findfont 37.0356 sf 0 0 m (3,2,1) show NC gr 
 gsave  2268 575 0 0 C 230.76 521.347 t 0 r /Helvetica findfont 56.9778 sf 0 0 m (HTall SR) show NC gr  54 536 m 147 X s 128 536 m20
 gsave  2268 575 0 0 C 1424.45 501.405 t 0 r /Helvetica findfont 37.0356 sf 0 0 m (1) show NC gr 
 gsave  2268 575 0 0 C 1182.29 521.347 t 0 r /Helvetica findfont 56.9778 sf 0 0 m ( HTall SR) show NC gr 
 gsave  2268 575 0 0 C 1131.01 501.405 t 0 r /Helvetica findfont 37.0356 sf 0 0 m (3,2) show NC gr 
 gsave  2268 575 0 0 C 923.04 521.347 t 0 r /Helvetica findfont 56.9778 sf 0 0 m (BDT SR) show NC gr  1 0 0 c 746 536 m 146 X s 819 536 m24 black 85 100 m 1049 X s 248 108 m -8 Y s 284 104 m -4 Y s 320 104 m -4 Y s 356 104 m -4 Y s 392 104 m -4 Y s
 429 108 m -8 Y s 465 104 m -4 Y s 501 104 m -4 Y s 537 104 m -4 Y s 573 104 m -4 Y s 609 108 m -8 Y s 646 104 m -4 Y s 682 104 m -4 Y s 718 104 m -4 Y s 754 104 m -4 Y s 790 108 m -8 Y s 826 104 m -4 Y s 863 104 m -4 Y s 899 104 m -4 Y s 935 104 m
 -4 Y s 971 108 m -8 Y s 248 108 m -8 Y s 212 104 m -4 Y s 175 104 m -4 Y s 139 104 m -4 Y s 103 104 m -4 Y s 971 108 m -8 Y s 1007 104 m -4 Y s 1043 104 m -4 Y s 1080 104 m -4 Y s 1116 104 m -4 Y s 85 450 m 1049 X s 248 442 m 8 Y s 284 446 m 4 Y s
 320 446 m 4 Y s 356 446 m 4 Y s 392 446 m 4 Y s 429 442 m 8 Y s 465 446 m 4 Y s 501 446 m 4 Y s 537 446 m 4 Y s 573 446 m 4 Y s 609 442 m 8 Y s 646 446 m 4 Y s 682 446 m 4 Y s 718 446 m 4 Y s 754 446 m 4 Y s 790 442 m 8 Y s 826 446 m 4 Y s 863 446 m
 4 Y s 899 446 m 4 Y s 935 446 m 4 Y s 971 442 m 8 Y s 248 442 m 8 Y s 212 446 m 4 Y s 175 446 m 4 Y s 139 446 m 4 Y s 103 446 m 4 Y s 971 442 m 8 Y s 1007 446 m 4 Y s 1043 446 m 4 Y s 1080 446 m 4 Y s 1116 446 m 4 Y s 85 100 m 350 Y s
 gr  gr showpage
end
%%EOF
